ply 
format ascii 1.0 
comment this is a surface 
element vertex 1297 
property float x 
property float y 
property float z 
element face 2556 
property list uchar int vertex_index 
end_header 
42.518592 -0.016190 -0.010748
42.554688 1.069010 -0.017667
42.551987 1.006190 -0.100659
42.536747 0.890230 -0.233036
42.512810 0.737908 -0.397806
42.483997 0.566005 -0.577978
42.454151 0.391299 -0.756559
42.427094 0.230569 -0.916559
42.406658 0.100593 -1.040984
42.396679 0.018153 -1.112843
42.399479 -0.018601 -1.115598
42.407909 -0.104379 -1.047812
42.419418 -0.240350 -0.925753
42.432743 -0.409030 -0.766657
42.446621 -0.592931 -0.587766
42.459793 -0.774568 -0.406317
42.470997 -0.936453 -0.239551
42.478973 -1.061103 -0.104704
42.482464 -1.131029 -0.019018
42.482616 -1.129651 0.018577
42.492031 -1.057930 0.101021
42.510300 -0.932558 0.230232
42.534534 -0.770766 0.389858
42.561840 -0.589788 0.563549
42.589333 -0.406856 0.734950
42.614120 -0.239203 0.887712
42.633312 -0.104061 1.005482
42.644020 -0.018663 1.071908
42.643841 0.017951 1.071312
42.634857 0.098247 1.003697
42.619858 0.224552 0.884831
42.601368 0.381056 0.731180
42.581909 0.551953 0.559205
42.564014 0.721435 0.385371
42.550205 0.873694 0.226141
42.543011 0.992921 0.097979
42.544952 1.063309 0.017347
42.101830 3.114939 -0.093657
42.143665 2.972478 -0.389993
42.131317 2.676167 -0.797153
42.079975 2.269444 -1.273688
42.004833 1.795746 -1.778154
41.921074 1.298514 -2.269102
41.843887 0.821185 -2.705086
41.788464 0.407197 -3.044659
41.769993 0.099990 -3.246374
41.797035 -0.101126 -3.268505
41.838036 -0.417069 -3.099716
41.883701 -0.847496 -2.779521
41.930592 -1.347891 -2.351248
41.975266 -1.873739 -1.858222
42.014275 -2.380525 -1.343770
42.044182 -2.823732 -0.851220
42.061543 -3.158846 -0.423897
42.062912 -3.341352 -0.105128
42.051823 -3.330015 0.103806
42.065144 -3.132638 0.412965
42.102497 -2.791367 0.823910
42.156361 -2.348689 1.296278
42.219223 -1.847093 1.789705
42.283554 -1.329067 2.263829
42.341843 -0.837099 2.678287
42.386570 -0.413677 2.992716
42.410210 -0.101289 3.166754
42.403625 0.098012 3.161661
42.357529 0.387005 2.977453
42.283119 0.770385 2.653667
42.194103 1.212703 2.231614
42.104187 1.678513 1.752608
42.027069 2.132365 1.257962
41.976460 2.538811 0.788990
41.966064 2.862404 0.387005
42.009586 3.067696 0.093319
41.183552 5.039124 -0.214047
41.321007 4.867577 -0.775007
41.347630 4.449351 -1.466930
41.293068 3.846449 -2.234382
41.186977 3.120870 -3.021931
41.059006 2.334614 -3.774144
40.938808 1.549681 -4.435589
40.856037 0.828068 -4.950837
40.840343 0.231779 -5.264449
40.907993 -0.233441 -5.318528
40.995186 -0.842939 -5.085990
41.084637 -1.590528 -4.619266
41.170994 -2.413746 -3.978051
41.248909 -3.250135 -3.222040
41.313023 -4.037234 -2.410929
41.357990 -4.712582 -1.604415
41.378452 -5.213722 -0.862190
41.369061 -5.478190 -0.243954
41.335491 -5.449658 0.241741
41.336620 -5.147434 0.844037
41.373104 -4.630179 1.559464
41.434349 -3.955428 2.333634
41.509766 -3.180712 3.112160
41.588764 -2.363564 3.840651
41.660744 -1.561517 4.464721
41.715122 -0.832101 4.929981
41.741302 -0.232852 5.182041
41.721786 0.225765 5.168635
41.620071 0.774483 4.889819
41.458256 1.417827 4.399960
41.267075 2.113905 3.755936
41.077263 2.820829 3.014630
40.919544 3.496708 2.232923
40.824657 4.099652 1.467695
40.823330 4.587772 0.775825
40.946297 4.919177 0.214198
39.894131 6.842821 -0.367064
40.159687 6.679802 -1.229691
40.251270 6.185715 -2.212290
40.213913 5.434341 -3.253230
40.092663 4.499465 -4.290881
39.932549 3.454871 -5.263611
39.778622 2.374343 -6.109789
39.675907 1.331661 -6.767786
39.669456 0.400613 -7.175966
39.783882 -0.402778 -7.267463
39.922108 -1.351515 -6.997832
40.058693 -2.430201 -6.424535
40.186424 -3.565709 -5.615680
40.298096 -4.684913 -4.639376
40.386509 -5.714684 -3.563731
40.444450 -6.581897 -2.456855
40.464718 -7.213426 -1.386852
40.440102 -7.536139 -0.421837
40.377808 -7.486018 0.418714
40.355221 -7.096269 1.361342
40.374870 -6.435093 2.393998
40.424679 -5.567340 3.456327
40.492565 -4.557858 4.487974
40.566452 -3.471493 5.428584
40.634266 -2.373097 6.217803
40.683922 -1.327514 6.795279
40.703342 -0.399597 7.100652
40.666233 0.387785 7.075828
40.498802 1.231523 6.720943
40.235035 2.134037 6.097981
39.925751 3.056870 5.271893
39.621769 3.961566 4.307628
39.373905 4.809668 3.270138
39.232983 5.562717 2.224375
39.249817 6.182260 1.235285
39.475231 6.629837 0.367824
38.327839 8.527283 -0.540937
38.735367 8.397475 -1.728033
38.907814 7.861189 -3.003155
38.904343 6.998535 -4.303577
38.784122 5.889622 -5.566576
38.606316 4.614561 -6.729425
38.430092 3.253461 -7.729401
38.314613 1.886430 -8.503778
38.319054 0.593581 -8.989830
38.476219 -0.596367 -9.117110
38.661556 -1.912320 -8.826439
38.842339 -3.327269 -8.174877
39.009354 -4.762891 -7.232750
39.153381 -6.140864 -6.070387
39.265202 -7.382864 -4.758115
39.335594 -8.410568 -3.366261
39.355347 -9.145654 -1.965151
39.315239 -9.509798 -0.625114
39.222958 -9.436532 0.621052
39.169701 -8.973094 1.931990
39.160538 -8.192204 3.284620
39.183521 -7.160780 4.618755
39.226700 -5.945739 5.874208
39.278122 -4.613999 6.990794
39.325844 -3.232479 7.908324
39.357910 -1.868095 8.566613
39.362373 -0.587765 8.905474
39.304855 0.570647 8.866833
39.070045 1.728967 8.450974
38.703232 2.886178 7.722003
38.275600 4.013809 6.747229
37.858334 5.083387 5.593958
37.522610 6.066443 4.329496
37.339615 6.934506 3.021151
37.380524 7.659104 1.736229
37.716530 8.211766 0.542038
36.578957 10.093763 -0.723893
37.123718 10.008912 -2.244023
37.382843 9.451706 -3.809446
37.426186 8.504445 -5.358768
37.323589 7.249428 -6.830587
37.144905 5.768955 -8.163510
36.959991 4.145322 -9.296140
36.838688 2.460830 -10.167083
36.850853 0.797779 -10.714935
37.036537 -0.801440 -10.869268
37.256268 -2.494879 -10.563009
37.472046 -4.242485 -9.849840
37.672260 -5.964405 -8.797875
37.845306 -7.580781 -7.475229
37.979576 -9.011759 -5.950017
38.063461 -10.177485 -4.290354
38.085361 -10.998105 -2.564352
38.033669 -11.393759 -0.840130
37.915127 -11.298636 0.835085
37.828815 -10.771860 2.523086
37.782852 -9.887609 4.188434
37.767056 -8.712103 5.775318
37.771252 -7.311569 7.227926
37.785267 -5.752229 8.490447
37.798920 -4.100306 9.507071
37.802036 -2.422022 10.221990
37.784439 -0.783605 10.579384
37.705563 0.760926 10.525242
37.410118 2.237658 10.060060
36.952618 3.641411 9.246298
36.422096 4.956930 8.149692
35.907585 6.168958 6.835975
35.498119 7.262238 5.370882
35.282734 8.221517 3.820146
35.350456 9.031540 2.249500
35.790325 9.677046 0.724683
34.741753 11.543517 -0.904162
35.400406 11.502431 -2.751651
35.741940 10.933197 -4.601087
35.841267 9.917488 -6.392142
35.773296 8.536973 -8.064487
35.612930 6.873326 -9.557791
35.435089 5.008215 -10.811731
35.314667 3.023317 -11.765966
35.326580 1.000293 -12.360185
35.516350 -1.005228 -12.525736
35.748997 -3.068716 -12.198741
35.984283 -5.136603 -11.428974
36.207619 -7.129361 -10.279669
36.404423 -8.967458 -8.814057
36.560104 -10.571361 -7.095376
36.660084 -11.861546 -5.186852
36.689774 -12.758471 -3.151725
36.634586 -13.182620 -1.053220
36.498512 -13.069769 1.047142
36.381329 -12.486520 3.101738
36.294556 -11.507402 5.062546
36.231461 -10.197666 6.880414
36.185314 -8.622558 8.506188
36.149384 -6.847326 9.890713
36.116936 -4.937214 10.984840
36.081245 -2.957480 11.739405
36.035583 -0.973357 12.105268
35.936245 0.945200 12.034651
35.595337 2.728438 11.528351
35.072960 4.366897 10.645137
34.470703 5.858443 9.447026
33.890156 7.200941 7.996034
33.432899 8.392255 6.354180
33.200527 9.430257 4.583476
33.294617 10.312799 2.745946
33.816765 11.037764 0.903596
32.910507 12.877797 -1.069970
33.641094 12.866350 -3.224906
34.050682 12.281595 -5.348001
34.211422 11.203078 -7.377048
34.195473 9.710347 -9.249846
34.074997 7.882948 -10.904193
33.922142 5.800430 -12.277878
33.809078 3.542339 -13.308710
33.807957 1.188224 -13.934474
33.967186 -1.194961 -14.088311
34.182491 -3.603356 -13.724831
34.415520 -5.970380 -12.891827
34.647907 -8.216875 -11.646745
34.861279 -10.263686 -10.047029
35.037266 -12.031659 -8.150126
35.157490 -13.441631 -6.013480
35.203590 -14.414458 -3.694531
35.157192 -14.870974 -1.250732
35.017288 -14.747366 1.243554
34.875996 -14.111022 3.635054
34.748398 -13.037683 5.864065
34.632915 -11.593823 7.888446
34.527962 -9.845916 9.666058
34.431961 -7.860434 11.154760
34.343330 -5.703852 12.312409
34.260487 -3.442637 13.096875
34.181850 -1.143273 13.466007
34.064812 1.110042 13.378650
33.702023 3.172148 12.835996
33.154030 5.029798 11.892793
32.526894 6.690558 10.606978
31.926668 8.162001 9.036493
31.459408 9.451697 7.239276
31.231167 10.567212 5.273267
31.348009 11.516129 3.196402
31.915981 12.306002 1.066626
31.179487 14.097857 -1.209547
31.921459 14.088989 -3.637779
32.374653 13.472832 -6.020106
32.598480 12.326632 -8.286825
32.652359 10.727637 -10.368237
32.595703 8.753094 -12.194634
32.487934 6.480254 -13.696314
32.388458 3.986356 -14.803574
32.356705 1.348652 -15.446714
32.440567 -1.357871 -15.558793
32.599491 -4.068323 -15.132476
32.802227 -6.704564 -14.217947
33.025597 -9.186054 -12.867719
33.246422 -11.432260 -11.134301
33.441525 -13.362637 -9.070208
33.587719 -14.896648 -6.727954
33.661835 -15.953755 -4.160045
33.640686 -16.453423 -1.418996
33.515652 -16.328865 1.410649
33.361572 -15.639318 4.090141
33.197121 -14.464547 6.550093
33.027592 -12.876933 8.753808
32.858288 -10.948856 10.664595
32.694508 -8.752701 12.245750
32.541546 -6.360852 13.460583
32.404705 -3.845685 14.272392
32.289284 -1.279584 14.644489
32.159153 1.242028 14.540833
31.806496 3.539632 13.963144
31.285604 5.597272 12.963536
30.696140 7.425482 11.597296
30.137756 9.034801 9.919706
29.710108 10.435762 7.986057
29.512846 11.638900 5.851635
29.645632 12.654750 3.571721
30.208124 13.493857 1.201604
29.602095 15.198034 -1.314911
30.288477 15.159653 -3.971216
30.754602 14.490666 -6.592922
31.037519 13.266787 -9.096134
31.174282 11.563723 -11.396957
31.201937 9.457187 -13.411498
31.157536 7.022886 -15.055861
31.078129 4.336532 -16.246155
31.000765 1.473834 -16.898483
30.969055 -1.486171 -16.942427
31.034882 -4.444479 -16.425304
31.179138 -7.313476 -15.405380
31.373434 -10.008502 -13.933044
31.589380 -12.444898 -12.058681
31.798584 -14.538003 -9.832679
31.972656 -16.203157 -7.305422
32.083202 -17.355701 -4.527297
32.101837 -17.910975 -1.548692
32.010357 -17.794905 1.538822
31.857170 -17.049620 4.443818
31.664078 -15.762719 7.090296
31.444416 -14.018244 9.444120
31.211533 -11.900234 11.471157
30.978765 -9.492732 13.137268
30.759462 -6.879778 14.408319
30.566961 -4.145412 15.250175
30.414608 -1.373676 15.628700
30.277962 1.332772 15.510225
29.969448 3.811641 14.896945
29.530481 6.045749 13.840867
29.043121 8.040244 12.397258
28.589432 9.800280 10.621384
28.251471 11.331005 8.568511
28.111301 12.637571 6.293907
28.250980 13.725128 3.852836
28.752573 14.598826 1.300566
27.998043 16.144680 -1.402119
28.622953 16.082685 -4.252694
29.088493 15.371375 -7.084312
29.413313 14.084291 -9.800084
29.616070 12.294983 -12.303122
29.715418 10.076995 -14.496535
29.730007 7.503876 -16.283438
29.678493 4.649168 -17.566940
29.579531 1.586422 -18.250153
29.470642 -1.601619 -18.256380
29.465633 -4.780868 -17.666033
29.555828 -7.854871 -16.545897
29.711676 -10.735781 -14.948801
29.903624 -13.335746 -12.927575
30.102119 -15.566917 -10.535048
30.277611 -17.341446 -7.824053
30.400545 -18.571480 -4.847415
30.441370 -19.169172 -1.657969
30.376139 -19.054525 1.644876
30.227192 -18.255257 4.736575
30.017227 -16.866266 7.537650
29.765371 -14.982201 10.016068
29.490746 -12.697712 12.139799
29.212471 -10.107449 13.876814
28.949677 -7.306062 15.195081
28.721479 -4.388199 16.062569
28.547007 -1.448511 16.447248
28.411448 1.404879 16.317255
28.147943 4.031785 15.674397
27.786692 6.414307 14.570729
27.393778 8.551944 13.061786
27.035288 10.444194 11.203100
26.777308 12.090555 9.050209
26.685923 13.490525 6.658647
26.827215 14.643603 4.083948
27.267275 15.549285 1.381647
26.345915 16.949015 -1.476195
26.913755 16.873219 -4.493134
27.369381 16.132904 -7.506537
27.718578 14.798684 -10.408885
27.967129 12.941175 -13.092658
28.120821 10.630990 -15.450335
28.185442 7.938745 -17.374395
28.166775 4.935051 -18.757320
28.070606 1.690526 -19.491589
27.927446 -1.708255 -19.492350
27.879147 -5.087743 -18.850512
27.924870 -8.343034 -17.640703
28.037693 -11.384385 -15.921819
28.190693 -14.122055 -13.752748
28.356949 -16.466305 -11.192385
28.509533 -18.327391 -8.299623
28.621525 -19.615574 -5.133351
28.666002 -20.241112 -1.752467
28.617258 -20.120054 1.734744
28.474188 -19.269772 4.983846
28.258354 -17.791277 7.914274
27.992153 -15.787833 10.496065
27.697983 -13.362706 12.699257
27.398243 -10.619160 14.493887
27.115332 -7.660457 15.849993
26.871645 -4.589861 16.737610
26.689583 -1.510639 17.126778
26.561090 1.464767 16.987379
26.337503 4.214815 16.320606
26.040579 6.721101 15.178308
25.723822 8.978490 13.616054
25.440735 10.981849 11.689405
25.244823 12.726041 9.453932
25.189590 14.205934 6.965198
25.328543 15.416389 4.278769
25.715181 16.352276 1.450213
24.661915 17.629915 -1.538937
25.175909 17.546511 -4.697800
25.613079 16.786856 -7.867862
25.970936 15.418058 -10.932980
26.246981 13.507221 -13.777014
26.438725 11.121452 -16.283819
26.543669 8.327859 -18.337257
26.559322 5.193544 -19.821184
26.483189 1.785618 -20.619457
26.338358 -1.805650 -20.637997
26.268627 -5.365301 -19.961819
26.278738 -8.780421 -18.672649
26.347054 -11.960276 -16.837797
26.451937 -14.814131 -14.524574
26.571754 -17.251251 -11.800288
26.684866 -19.180904 -8.732249
26.769640 -20.512356 -5.387764
26.804434 -21.154871 -1.834145
26.764858 -21.021990 1.810971
26.629644 -20.123981 5.193028
26.417690 -18.567013 8.232011
26.152533 -16.461355 10.899869
25.857704 -13.917276 13.168550
25.556744 -11.045047 15.010005
25.273188 -7.954936 16.396183
25.030571 -4.757210 17.299032
24.852432 -1.562144 17.690502
24.735100 1.514459 17.542204
24.546442 4.367053 16.855320
24.302130 6.976833 15.681372
24.045883 9.334755 14.075693
23.821421 11.431770 12.093618
23.672462 13.258832 9.790480
23.642725 14.806894 7.221612
23.775930 16.066908 4.442348
24.115797 17.029829 1.508021
22.962255 18.206257 -1.592144
23.424437 18.117828 -4.871958
23.835396 17.344839 -8.176550
24.188009 15.950506 -11.382811
24.475151 13.998042 -14.367636
24.689693 11.550662 -17.007917
24.824512 8.671581 -19.180548
24.872480 5.424010 -20.762423
24.826473 1.871166 -21.630432
24.702269 -1.893376 -21.680983
24.627279 -5.613736 -20.983032
24.609903 -9.169492 -19.624580
24.635319 -12.469415 -17.682440
24.688700 -15.422276 -15.233428
24.755220 -17.936846 -12.354360
24.820057 -19.921898 -9.122050
24.868383 -21.286203 -5.613313
24.885376 -21.938530 -1.904965
24.850079 -21.790834 1.876103
24.725044 -20.848705 5.371522
24.525475 -19.222736 8.502705
24.274277 -17.028978 11.243235
23.994362 -14.383481 13.566700
23.708633 -11.402295 15.446687
23.440001 -8.201471 16.856781
23.211367 -4.897057 17.770569
23.045645 -1.605104 18.161638
22.941689 1.555980 18.003338
22.783072 4.494820 17.298290
22.581329 7.192209 16.097687
22.372593 9.635609 14.456339
22.192995 11.812484 12.429057
22.078667 13.710295 10.070655
22.065741 15.316506 7.435942
22.190351 16.618580 4.579729
22.488628 17.603977 1.556830
21.263142 18.696917 -1.637615
21.674362 18.602430 -5.020874
22.052139 17.818455 -8.440866
22.387423 16.404121 -11.768821
22.671160 14.418560 -14.875972
22.894300 11.920900 -17.633551
23.047798 8.970275 -19.912790
23.122597 5.625812 -21.584923
23.109648 1.946643 -22.521175
23.018066 -1.971004 -22.608969
22.948303 -5.833242 -21.897234
22.910841 -9.512704 -20.479343
22.898056 -12.917763 -18.441446
22.902327 -15.956796 -15.869682
22.916031 -18.538177 -12.850200
22.931547 -20.570282 -9.469144
22.941254 -21.961487 -5.812657
22.937527 -22.620165 -1.966887
22.904068 -22.457090 1.932683
22.791866 -21.474760 5.526727
22.611937 -19.787704 8.738196
22.385160 -17.516912 11.541920
22.132412 -14.783377 13.912726
21.874575 -11.708088 15.825449
21.632526 -8.412036 17.254915
21.427145 -5.016211 18.175957
21.279310 -1.641605 18.563404
21.189062 1.591352 18.392393
21.055708 4.604438 17.669271
20.888165 7.377931 16.445024
20.716581 9.895925 14.773623
20.571104 12.142515 12.709044
20.481878 14.101798 10.305257
20.479052 15.757870 7.616239
20.592772 17.094824 4.695961
20.853180 18.096756 1.598398
19.580780 19.120766 -1.677147
19.940712 19.015581 -5.149811
20.279121 18.219309 -8.669072
20.586796 16.786999 -12.101451
20.854532 14.773695 -15.313469
21.073120 12.234448 -18.171648
21.233353 9.224305 -20.542507
21.326017 5.798313 -22.292572
21.341913 2.011518 -23.288363
21.284643 -2.038108 -23.409618
21.224907 -6.024015 -22.687502
21.174023 -9.812514 -21.219790
21.130829 -13.311281 -19.100515
21.094166 -16.427994 -16.423710
21.062870 -19.070330 -13.283410
21.035786 -21.145967 -9.773649
21.011745 -22.562582 -5.988455
20.989594 -23.227854 -2.021868
20.957966 -23.051260 1.983256
20.861597 -22.032969 5.666043
20.707317 -20.291180 8.950330
20.512949 -17.951374 11.811680
20.296312 -15.139024 14.225652
20.075230 -11.979609 16.167810
19.867523 -8.598602 17.613714
19.691015 -5.121483 18.538929
19.563524 -1.673725 18.919014
19.485435 1.622601 18.730976
19.372662 4.702229 17.988014
19.232622 7.544702 16.741152
19.090481 10.130572 15.043180
18.971401 12.440391 12.946895
18.900543 14.454710 10.505089
18.903078 16.154083 7.770555
19.004160 17.519062 4.796089
19.228962 18.530199 1.634483
17.931381 19.496685 -1.712539
18.238510 19.372543 -5.264037
18.532148 18.559006 -8.869436
18.803755 17.107229 -12.391145
19.044792 15.068370 -15.691574
19.246721 12.493586 -18.633129
19.400999 9.434035 -21.078224
19.499092 5.940875 -22.889263
19.532457 2.065263 -23.928658
19.500891 -2.094257 -24.070589
19.450291 -6.186250 -23.336916
19.391920 -10.071383 -21.828766
19.329203 -13.655931 -19.645350
19.265560 -16.846174 -16.885887
19.204424 -19.548393 -13.649591
19.149212 -21.668863 -10.035680
19.103357 -23.113867 -6.143369
19.070280 -23.789675 -2.071872
19.042915 -23.603846 2.030366
18.965715 -22.554146 5.796867
18.841846 -20.762423 9.150949
18.685411 -18.358570 12.068270
18.510515 -15.472479 14.524496
18.331261 -12.234039 16.495289
18.161751 -8.773145 17.956308
18.016088 -5.219683 18.883221
17.908379 -1.703549 19.251682
17.839012 1.651748 19.040695
17.742249 4.794513 18.274269
17.624689 7.703226 17.003836
17.506920 10.354423 15.280642
17.409531 12.724636 13.155931
17.353104 14.790400 10.680949
17.358229 16.528248 7.906945
17.445492 17.914715 4.885160
17.635475 18.926332 1.666844
16.331152 19.843544 -1.745589
16.582783 19.688580 -5.368814
16.827034 18.849150 -9.050220
17.055922 17.372908 -12.648345
17.261463 15.307505 -16.021734
17.435673 12.700594 -19.028925
17.570568 9.599831 -21.528460
17.658165 6.052863 -23.378883
17.690479 2.107347 -24.438732
17.665695 -2.139024 -24.579544
17.617662 -6.320141 -23.828558
17.557009 -10.291765 -22.289118
17.488739 -13.957673 -20.061651
17.417858 -17.221643 -17.246584
17.349369 -19.987455 -13.944345
17.288277 -22.158884 -10.255360
17.239582 -23.639708 -6.280053
17.208292 -24.333708 -2.118858
17.190062 -24.145346 2.076558
17.135708 -23.069111 5.926600
17.045763 -21.230694 9.351893
16.930323 -18.764717 12.327449
16.799479 -15.805800 14.828280
16.663328 -12.488564 16.829401
16.531961 -8.947632 18.305824
16.415476 -5.317621 19.232563
16.323961 -1.733156 19.584629
16.258007 1.680818 19.343161
16.172779 4.887611 18.547789
16.074348 7.864207 17.250847
15.978531 10.582348 15.501640
15.901143 13.013777 13.349470
15.858003 15.130234 10.843641
15.864925 16.903461 8.033458
15.937730 18.305202 4.968222
16.092232 19.307198 1.697240
14.787429 20.173464 -1.777573
14.981862 19.978451 -5.469911
15.174421 19.105553 -9.223386
15.356905 17.599539 -12.891852
15.521112 15.505176 -16.329165
15.658842 12.867229 -19.389179
15.761893 9.730468 -21.925747
15.822065 6.139657 -23.792728
15.831156 2.139565 -24.843973
15.788087 -2.173882 -24.951496
15.731667 -6.428521 -24.169319
15.671720 -10.476244 -22.602556
15.611422 -14.217835 -20.348307
15.553947 -17.554081 -17.503658
15.502473 -20.385763 -14.165710
15.460175 -22.613670 -10.431555
15.430228 -24.138582 -6.398283
15.415808 -24.861286 -2.162993
15.413243 -24.682003 2.122489
15.385718 -23.587784 6.058896
15.332366 -21.707972 9.561386
15.259286 -19.182436 12.602767
15.172582 -16.151047 15.155845
15.078353 -12.753670 17.193426
14.982703 -9.130177 18.688316
14.891731 -5.420436 19.613321
14.811541 -1.764316 19.941248
14.743341 1.711375 19.655544
14.665603 4.985061 18.820559
14.583900 8.031970 17.490509
14.508888 10.818707 15.712049
14.451221 13.311873 13.531830
14.421556 15.478076 10.996509
14.430548 17.283916 8.152738
14.488851 18.695999 5.047168
14.607121 19.680929 1.726456
13.257329 20.458080 -1.806313
13.404219 20.246763 -5.571584
13.551631 19.357096 -9.410871
13.691479 17.831945 -13.168757
13.815673 15.714181 -16.689831
13.916125 13.046669 -19.818678
13.984749 9.872279 -22.399881
14.013455 6.233877 -24.278028
13.994156 2.174333 -25.297705
13.926918 -2.209050 -25.331505
13.856205 -6.526266 -24.485115
13.791356 -10.627618 -22.868896
13.733959 -14.415572 -20.575533
13.685599 -17.792593 -17.697710
13.647866 -20.661144 -14.328113
13.622345 -22.923691 -10.559424
13.610623 -24.482697 -6.484331
13.614289 -25.240627 -2.195518
13.630356 -25.094889 2.158913
13.633141 -24.008442 6.175653
13.620086 -22.110859 9.762460
13.593224 -19.546862 12.884935
13.554586 -16.461176 15.508682
13.506207 -12.998525 17.599302
13.450120 -9.303630 19.122400
13.388356 -5.521214 20.043577
13.322949 -1.796002 20.328432
13.255033 1.741593 19.962673
13.183116 5.073848 19.061142
13.113081 8.175482 17.682753
13.051922 11.011471 15.869498
13.006628 13.546794 13.663372
12.984193 15.746428 11.106370
12.991606 17.575350 8.240486
13.035859 18.998539 5.107713
13.123943 19.980972 1.750046
11.733198 20.692427 -1.830969
11.841773 20.488771 -5.669351
11.950113 19.599249 -9.602865
12.050819 18.065861 -13.463359
12.136492 15.930608 -17.082682
12.199731 13.235490 -20.292683
12.233137 10.022508 -22.925209
12.229312 6.333663 -24.812109
12.180855 2.210955 -25.785233
12.088984 -2.244052 -25.717438
12.001075 -6.613293 -24.782734
11.926199 -10.747467 -23.099564
11.865154 -14.554759 -20.756031
11.818735 -17.943356 -17.840242
11.787739 -20.821442 -14.440310
11.772962 -23.097202 -10.644337
11.775200 -24.678825 -6.540430
11.795250 -25.474493 -2.216698
11.831183 -25.380373 2.185301
11.866380 -24.322748 6.272801
11.896171 -22.428417 9.945239
11.918496 -19.846224 13.157285
11.931294 -16.725010 15.863606
11.932505 -13.213622 18.018875
11.920065 -9.460904 19.577761
11.891915 -5.615698 20.494930
11.845993 -1.826851 20.725056
11.782567 1.770244 20.255739
11.716157 5.150798 19.269796
11.653688 8.290217 17.832933
11.600047 11.155272 15.981318
11.560118 13.712734 13.751119
11.538788 15.929376 11.178503
11.540942 17.771969 8.299640
11.571467 19.207285 5.150696
11.635247 20.202097 1.767842
10.215604 20.877550 -1.851133
10.292421 20.699379 -5.757784
10.365644 19.822392 -9.784918
10.429140 18.288746 -13.750096
10.476773 16.140606 -17.470884
10.502414 13.420131 -20.764845
10.499928 10.169482 -23.449543
10.463181 6.430820 -25.342543
10.386042 2.246305 -26.261406
10.270849 -2.276427 -26.079073
10.164853 -6.686759 -25.045141
10.076911 -10.837205 -23.287539
10.007691 -14.644017 -20.889902
9.957863 -18.023449 -17.935873
9.928095 -20.891756 -14.509089
9.919054 -23.165190 -10.693190
9.931411 -24.760004 -6.571810
9.965833 -25.592455 -2.228593
10.021770 -25.558659 2.202963
10.090055 -24.542479 6.349683
10.163670 -22.666000 10.102690
10.236531 -20.081278 13.404038
10.302561 -16.940355 16.195786
10.355675 -13.395286 18.419987
10.389794 -9.598117 20.018698
10.398837 -5.700895 20.933973
10.376722 -1.855673 21.107872
10.322213 1.796441 20.529243
10.262077 5.215230 19.454037
10.204752 8.377644 17.955725
10.154249 11.254828 16.064665
10.114582 13.817929 13.811212
10.089763 16.038090 11.225724
10.083805 17.886456 8.338556
10.100721 19.334169 5.180065
10.144525 20.352379 1.780607
8.705112 21.014496 -1.866398
8.754062 20.873491 -5.831457
8.794004 20.016899 -9.942577
8.820654 18.488062 -14.003409
8.829725 16.330326 -17.817606
8.816931 13.587033 -21.188820
8.777987 10.301529 -23.920700
8.708607 6.517154 -25.816898
8.604506 2.277255 -26.681068
8.469075 -2.303711 -26.386183
8.346116 -6.743818 -25.255301
8.244153 -10.898246 -23.425806
8.164255 -14.691966 -20.977259
8.107492 -18.049955 -17.989216
8.074934 -20.897188 -14.541238
8.067649 -23.158636 -10.712881
8.086707 -24.759275 -6.583702
8.133177 -25.624079 -2.233262
8.208159 -25.649952 2.213209
8.308790 -24.679399 6.405639
8.425632 -22.828957 10.227773
8.548757 -20.252779 13.609419
8.668238 -17.105021 16.480387
8.774149 -13.539837 18.770483
8.856562 -9.711384 20.409517
8.905550 -5.773812 21.327297
8.911187 -1.881281 21.453632
8.870244 1.819294 20.777685
8.818228 5.266459 19.621374
8.765302 8.439230 18.065796
8.715513 11.314862 16.136690
8.672909 13.870612 13.859796
8.641536 16.083735 11.260851
8.625441 17.931488 8.365595
8.628670 19.391123 5.199765
8.655271 20.439899 1.789102
7.202291 21.104317 -1.876354
7.224591 21.006014 -5.884940
7.230971 20.173151 -10.061391
7.219576 18.651270 -14.197739
7.188550 16.485918 -18.086016
7.136038 13.722638 -21.518255
7.060185 10.406976 -24.286488
6.959136 6.584474 -26.182747
6.831035 2.300678 -26.999063
6.680226 -2.323443 -26.608543
6.543441 -6.781624 -25.396179
6.428588 -10.932002 -23.507353
6.337531 -14.707229 -21.018208
6.272133 -18.039957 -18.004889
6.234260 -20.862839 -14.543541
6.225774 -23.108526 -10.710309
6.248541 -24.709673 -6.581335
6.304423 -25.598932 -2.232768
6.396393 -25.674456 2.217348
6.527205 -24.745283 6.440010
6.685106 -22.922634 10.313452
6.856598 -20.361485 13.757649
7.028181 -17.216814 16.692577
7.186356 -13.643600 19.038212
7.317623 -9.796823 20.714525
7.408483 -5.831458 21.641493
7.445436 -1.902487 21.739092
7.422931 1.837917 20.995565
7.381958 5.303805 19.779324
7.334368 8.476442 18.177820
7.284825 11.340093 16.214550
7.237991 13.879017 13.913012
7.198527 16.077482 11.296700
7.171095 17.919748 8.389112
7.160357 19.390079 5.213744
7.170976 20.472738 1.794091
5.707706 21.148056 -1.880593
5.701905 21.091854 -5.912806
5.672322 20.281527 -10.126908
5.620118 18.765833 -14.307525
5.546454 16.593533 -18.239283
5.452491 13.813385 -21.706806
5.339390 10.474151 -24.494722
5.208313 6.624583 -26.387661
5.060420 2.313447 -27.170242
4.900863 -2.333162 -26.715927
4.755404 -6.797333 -25.450745
4.630877 -10.939889 -23.525164
4.530201 -14.698423 -21.012857
4.456295 -18.010532 -17.987505
4.412074 -20.813808 -14.522784
4.400458 -23.045847 -10.692370
4.424365 -24.644238 -6.569940
4.486712 -25.546581 -2.229171
4.592515 -25.652374 2.216690
4.749919 -24.751904 6.452137
4.945141 -22.952385 10.352690
5.161481 -20.408152 13.832952
5.382242 -17.273542 16.807526
5.590725 -13.702896 19.191015
5.770231 -9.850550 20.898022
5.904062 -5.870839 21.843153
5.975520 -1.918101 21.941006
5.976546 1.851419 21.177383
5.950617 5.326585 19.935400
5.910982 8.490750 18.306469
5.863171 11.335239 16.315399
5.812717 13.851379 13.987003
5.765155 16.030497 11.346090
5.726016 17.863916 8.417468
5.700831 19.342966 5.225948
5.695136 20.458971 1.796338
4.221924 21.146765 -1.878709
4.183902 21.125914 -5.909627
4.113837 20.332401 -10.124676
4.016495 18.819210 -14.307205
3.896643 16.639320 -18.240570
3.759046 13.845716 -21.708124
3.608470 10.491379 -24.493219
3.449683 6.629291 -26.379208
3.287449 2.312434 -27.149443
3.127549 -2.330404 -26.678110
2.980581 -6.788098 -25.401962
2.851683 -10.923320 -23.472219
2.744952 -14.674172 -20.961315
2.664485 -17.978764 -17.941683
2.614378 -20.775196 -14.485754
2.598728 -23.001575 -10.665966
2.621632 -24.596010 -6.554745
2.687185 -25.496597 -2.224530
2.802569 -25.603910 2.212543
2.981556 -24.711031 6.441360
3.208787 -22.923557 10.338449
3.464835 -20.393536 13.819548
3.730277 -17.273018 16.800398
3.985687 -13.714049 19.196741
4.211642 -9.868682 20.924318
4.388717 -5.888962 21.898865
4.497488 -1.926939 22.036127
4.527360 1.858913 21.317638
4.521558 5.334118 20.097113
4.494172 8.483621 18.466412
4.451534 11.305023 16.456392
4.399979 13.795931 14.097915
4.345839 15.953946 11.421838
4.295447 17.776674 8.459023
4.255138 19.261719 5.240322
4.231242 20.406679 1.796603
2.745512 21.101490 -1.870291
2.668478 21.103104 -5.869976
2.551293 20.316158 -10.040242
2.402920 18.798864 -14.171223
2.232321 16.609432 -18.053051
2.048459 13.806071 -21.475861
1.860295 10.446992 -24.229786
1.676792 6.590402 -26.104961
1.506912 2.294513 -26.891514
1.356847 -2.312709 -26.464865
1.217550 -6.751075 -25.232796
1.091668 -10.883708 -23.341505
0.984468 -14.643096 -20.863689
0.901215 -17.961731 -17.872034
0.847175 -20.772104 -14.439239
0.827612 -23.006704 -10.637990
0.847793 -24.598021 -6.540982
0.912983 -25.478548 -2.220906
1.032597 -25.549267 2.206218
1.226736 -24.634436 6.407022
1.479092 -22.841501 10.263692
1.768084 -20.318394 13.701661
2.072137 -17.213045 16.646364
2.369672 -13.673382 19.023235
2.639111 -9.847337 20.757711
2.858876 -5.882834 21.775225
3.007390 -1.927811 22.001205
3.071647 1.859509 21.410831
3.092129 5.325720 20.271980
3.082968 8.456521 18.672321
3.050901 11.254165 16.654682
3.002666 13.720906 14.261887
2.944999 15.859001 11.536760
2.884639 17.670702 8.522128
2.828324 19.158264 5.260818
2.782790 20.323944 1.795649
1.283111 21.001568 -1.854654
1.158834 21.010534 -5.792181
0.986974 20.219599 -9.871389
0.781154 18.692749 -13.897145
0.554996 16.493969 -17.674316
0.322123 13.687251 -21.007769
0.096156 10.336580 -23.702366
-0.109282 6.505942 -25.562979
-0.280569 2.259327 -26.394470
-0.411333 -2.279932 -26.073967
-0.534179 -6.686037 -24.940962
-0.649711 -10.820947 -23.130880
-0.751587 -14.605324 -20.718128
-0.833464 -17.959835 -17.777100
-0.889000 -20.805143 -14.382197
-0.911853 -23.061916 -10.607822
-0.895680 -24.650814 -6.528371
-0.834139 -25.492504 -2.218248
-0.715675 -25.487782 2.198213
-0.513628 -24.521032 6.353214
-0.244439 -22.705055 10.138355
0.069019 -20.181734 13.495865
0.403875 -17.092949 16.367971
0.737258 -13.580587 18.696907
1.046297 -9.786530 20.424896
1.308121 -5.852660 21.494169
1.499858 -1.920862 21.846958
1.606312 1.853423 21.450586
1.661726 5.302102 20.441816
1.679159 8.410605 18.900303
1.665218 11.184044 16.885487
1.626516 13.627531 14.456811
1.569661 15.746177 11.673715
1.501264 17.545095 8.595640
1.427934 19.029396 5.282027
1.356281 20.204193 1.792317
-0.144022 20.789711 -1.830713
-0.317670 20.809595 -5.696646
-0.545215 20.024853 -9.682832
-0.808782 18.503376 -13.606358
-1.090495 16.313057 -17.284315
-1.372477 13.521787 -20.533791
-1.636855 10.197456 -23.171877
-1.865751 6.407955 -25.015661
-2.041291 2.221176 -25.882233
-2.157056 -2.244062 -25.650103
-2.267795 -6.606399 -24.601929
-2.376970 -10.726748 -22.864206
-2.477014 -14.516066 -20.512789
-2.560361 -17.885315 -17.623529
-2.619446 -20.745451 -14.272285
-2.646701 -23.007439 -10.534908
-2.634561 -24.582232 -6.487254
-2.575459 -25.380791 -2.205176
-2.456539 -25.305275 2.183877
-2.249692 -24.297573 6.303390
-1.970671 -22.473829 10.048677
-1.641762 -19.968292 13.367637
-1.285253 -16.915213 16.208166
-0.923429 -13.448840 18.518162
-0.578578 -9.703424 20.245522
-0.272987 -5.813213 21.338142
-0.028942 -1.912457 21.743921
0.136293 1.845996 21.425770
0.241453 5.270174 20.466606
0.297090 8.344846 18.944214
0.309943 11.079364 16.926359
0.286751 13.483078 14.480805
0.234252 15.565340 11.675319
0.159185 17.335501 8.577665
0.068289 18.802908 5.255607
-0.031699 19.976917 1.776911
-1.540851 20.485762 -1.800335
-1.763871 20.521191 -5.590113
-2.045311 19.752428 -9.487077
-2.363810 18.249653 -13.317275
-2.698009 16.083042 -16.906757
-3.026550 13.322779 -20.081572
-3.328072 10.039039 -22.667768
-3.581216 6.301999 -24.491398
-3.764622 2.181841 -25.378508
-3.872006 -2.206345 -25.208723
-3.977083 -6.513338 -24.223677
-4.085408 -10.599529 -22.543524
-4.187977 -14.369157 -20.245308
-4.275785 -17.726460 -17.406065
-4.339827 -20.575676 -14.102839
-4.371099 -22.821043 -10.412670
-4.360597 -24.366798 -6.412593
-4.299315 -25.117182 -2.179653
-4.174045 -24.977684 2.160921
-3.961458 -23.942825 6.250419
-3.676205 -22.129602 9.982714
-3.338350 -19.662964 13.300701
-2.967959 -16.667854 16.147274
-2.585098 -13.269215 18.465332
-2.209832 -9.591993 20.197767
-1.862226 -5.761130 21.287474
-1.562345 -1.901572 21.677347
-1.329100 1.836456 21.329075
-1.165496 5.228718 20.345194
-1.064573 8.258842 18.807257
-1.019404 10.941553 16.783237
-1.023058 13.291578 14.341109
-1.068607 15.323643 11.548847
-1.149123 17.052475 8.474426
-1.257677 18.492798 5.185818
-1.387340 19.659340 1.750999
-2.916832 20.122597 -1.765777
-3.188176 20.175488 -5.475932
-3.519957 19.427872 -9.285040
-3.888343 17.951334 -13.026088
-4.269507 15.817463 -16.532063
-4.639617 13.097849 -19.635950
-4.974845 9.864080 -22.170736
-5.251360 6.187742 -23.969408
-5.445333 2.140427 -24.864950
-5.550845 -2.165768 -24.738050
-5.656470 -6.405473 -23.799879
-5.768896 -10.439168 -22.166189
-5.877441 -14.166650 -19.915260
-5.971429 -17.487719 -17.125364
-6.040180 -20.302170 -13.874783
-6.073016 -22.509804 -10.241789
-6.059258 -24.010418 -6.304657
-5.988227 -24.703808 -2.141667
-5.847302 -24.500795 2.127749
-5.624387 -23.447536 6.181934
-5.333059 -21.659933 9.910597
-4.989977 -19.251783 13.245002
-4.611799 -16.336885 16.116413
-4.215185 -13.029039 18.456097
-3.816793 -9.442044 20.195318
-3.433283 -5.689697 21.265339
-3.081314 -1.885797 21.597427
-2.780652 1.822887 21.154034
-2.557803 5.175047 20.102861
-2.410060 8.152441 18.532377
-2.330628 10.775384 16.505335
-2.312715 13.064191 14.084489
-2.349529 15.039177 11.332597
-2.434275 16.720657 8.312413
-2.560162 18.128946 5.086689
-2.720396 19.284361 1.718188
-4.281422 19.733091 -1.729298
-4.598990 19.802654 -5.357452
-4.975796 19.076731 -9.077637
-5.386796 17.628178 -12.728990
-5.806946 15.529856 -16.150652
-6.211204 12.854623 -19.181767
-6.574525 9.675337 -21.661470
-6.871869 6.064855 -23.428905
-7.078190 2.096038 -24.323214
-7.188237 -2.121318 -24.226303
-7.300386 -6.281425 -23.324209
-7.421300 -10.245541 -21.729553
-7.538371 -13.910599 -19.522219
-7.638987 -17.173536 -16.782084
-7.710540 -19.931290 -13.589033
-7.740419 -22.080793 -10.022949
-7.716015 -23.518984 -6.163711
-7.624719 -24.142796 -2.091203
-7.455422 -23.870394 2.082762
-7.213942 -22.802458 6.085567
-6.913253 -21.052370 9.802459
-6.565874 -18.720778 13.150484
-6.184325 -15.908319 16.046694
-5.781124 -12.715642 18.408136
-5.368793 -9.243388 20.151859
-4.959848 -5.592200 21.194914
-4.566811 -1.862723 21.454348
-4.209149 1.803372 20.894173
-3.934153 5.106468 19.764891
-3.743597 8.025489 18.162523
-3.631536 10.585628 16.141865
-3.592027 12.812078 13.757713
-3.619125 14.730035 11.064863
-3.706886 16.364693 8.118111
-3.849365 17.741243 4.972251
-4.040619 18.884882 1.682081
-5.644078 19.350126 -1.693153
-6.004720 19.432856 -5.238025
-6.419472 18.724552 -8.865781
-6.863579 17.299944 -12.422170
-7.312284 15.233758 -15.752946
-7.740831 12.600721 -18.703861
-8.124464 9.475562 -21.120665
-8.438427 5.933006 -22.849112
-8.657962 2.047782 -23.734953
-8.778849 -2.071983 -23.661703
-8.903258 -6.139814 -22.790346
-9.036491 -10.018522 -21.230972
-9.163730 -13.603056 -19.065758
-9.270153 -16.788363 -16.376877
-9.340941 -19.469391 -13.246511
-9.361278 -21.541086 -9.756833
-9.316341 -22.898397 -5.990020
-9.191313 -23.436272 -2.028251
-8.977516 -23.082264 2.024362
-8.705585 -21.998335 5.948950
-8.388803 -20.294470 9.628431
-8.035273 -18.055979 12.967093
-7.653090 -15.368169 15.869229
-7.250352 -12.316350 18.239128
-6.835158 -8.985834 19.981079
-6.415607 -5.461926 20.999372
-5.999796 -1.829939 21.198298
-5.605377 1.775994 20.543024
-5.293229 5.020293 19.356564
-5.069414 7.877833 17.740643
-4.929936 10.377054 15.742043
-4.870800 12.546399 13.407549
-4.888010 14.414306 10.783945
-4.977571 16.009216 7.918012
-5.135486 17.359570 4.856530
-5.357761 18.493809 1.646290
-7.014256 19.006575 -1.659599
-7.413770 19.096258 -5.121000
-7.857628 18.396885 -8.650388
-8.323107 16.986391 -12.101821
-8.787480 14.942707 -15.329363
-9.228024 12.343770 -18.187073
-9.622011 9.267511 -20.529011
-9.946718 5.791865 -22.209242
-10.179419 1.994764 -23.081821
-10.317342 -2.016750 -23.032471
-10.459514 -5.979259 -22.191963
-10.608337 -9.757990 -20.667797
-10.746482 -13.246075 -18.545450
-10.856620 -16.336643 -15.910402
-10.921422 -18.922827 -12.848134
-10.923560 -20.897755 -9.444124
-10.845705 -22.154556 -5.783852
-10.670529 -22.586365 -1.952798
-10.392695 -22.132193 1.950951
-10.074777 -21.025919 5.759715
-9.731730 -19.373785 9.358645
-9.367405 -17.243418 12.644774
-8.985646 -14.702445 15.515132
-8.590302 -11.818493 17.866751
-8.185221 -8.659191 19.596655
-7.774249 -5.292162 20.601889
-7.361232 -1.785038 20.779469
-6.960121 1.738837 20.094116
-6.633715 4.913830 18.903162
-6.391738 7.709320 17.309683
-6.233633 10.154438 15.355082
-6.158838 12.278316 13.080764
-6.166795 14.110084 10.528135
-6.256943 15.678873 7.738596
-6.428724 17.013813 4.753562
-6.681577 18.144037 1.614424
-8.401413 18.735317 -1.630895
-8.834546 18.823027 -5.009727
-9.296908 18.119272 -8.432371
-9.769794 16.707272 -11.764134
-10.234494 14.670239 -14.870323
-10.672305 12.091391 -17.616245
-11.064518 9.053940 -19.867207
-11.392427 5.641099 -21.488514
-11.637326 1.936088 -22.345474
-11.798381 -1.954607 -22.326824
-11.963582 -5.798379 -21.522738
-12.130706 -9.463820 -20.037382
-12.279592 -12.841709 -17.960871
-12.390081 -15.822827 -15.383315
-12.442016 -18.297955 -12.394823
-12.415235 -20.157871 -9.085505
-12.289579 -21.293362 -5.545470
-12.044890 -21.595200 -1.864830
-11.680072 -21.015968 1.860930
-11.296982 -19.875959 5.505493
-10.914052 -18.277868 8.963235
-10.531503 -16.269127 12.133471
-10.149549 -13.897161 14.915516
-9.768413 -11.209398 17.208681
-9.388310 -8.253267 18.912285
-9.009459 -5.076194 19.925631
-8.632081 -1.725609 20.148046
-8.264167 1.689985 19.540977
-7.954293 4.784389 18.429968
-7.714798 7.519796 16.912588
-7.550433 9.922548 15.030191
-7.465947 12.018988 12.824123
-7.466092 13.835458 10.335730
-7.555619 15.398300 7.606366
-7.739276 16.733860 4.677364
-8.021817 17.868475 1.590086
-9.815004 18.569231 -1.609296
-10.275454 18.643328 -4.907557
-10.743955 17.917265 -8.212648
-11.208050 16.482349 -11.405302
-11.655284 14.429893 -14.366248
-12.073198 11.851206 -16.976215
-12.449336 8.837600 -19.115938
-12.771240 5.480380 -20.666145
-13.026454 1.870860 -21.507563
-13.216630 -1.884541 -21.532988
-13.409891 -5.595797 -20.776340
-13.597466 -9.135888 -19.337080
-13.756024 -12.392011 -17.311596
-13.862232 -15.251359 -14.796271
-13.892757 -17.601128 -11.887498
-13.824269 -19.328512 -8.681659
-13.633433 -20.320707 -5.275143
-13.296919 -20.464909 -1.764336
-12.818755 -19.729374 1.752703
-12.347661 -18.539202 5.173916
-11.907787 -16.994274 8.412331
-11.496796 -15.119137 11.383130
-11.112351 -12.938329 14.001493
-10.752117 -10.476394 16.182600
-10.413755 -7.757874 17.841639
-10.094930 -4.807309 18.893784
-9.793303 -1.649243 19.254211
-9.508300 1.627520 18.877140
-9.253649 4.629280 17.962259
-9.042823 7.309108 16.592310
-8.888144 9.686156 14.816591
-8.801933 11.779576 12.684397
-8.796515 13.608521 10.245032
-8.884212 15.192142 7.547791
-9.077345 16.549591 4.641978
-9.388235 17.700022 1.576880
3 0 1 2
3 0 2 3
3 0 3 4
3 0 4 5
3 0 5 6
3 0 6 7
3 0 7 8
3 0 8 9
3 0 9 10
3 0 10 11
3 0 11 12
3 0 12 13
3 0 13 14
3 0 14 15
3 0 15 16
3 0 16 17
3 0 17 18
3 0 18 19
3 0 19 20
3 0 20 21
3 0 21 22
3 0 22 23
3 0 23 24
3 0 24 25
3 0 25 26
3 0 26 27
3 0 27 28
3 0 28 29
3 0 29 30
3 0 30 31
3 0 31 32
3 0 32 33
3 0 33 34
3 0 34 35
3 0 35 36
3 0 36 1
3 1 37 38
3 1 38 2
3 2 38 39
3 2 39 3
3 3 39 40
3 3 40 4
3 4 40 41
3 4 41 5
3 5 41 42
3 5 42 6
3 6 42 43
3 6 43 7
3 7 43 44
3 7 44 8
3 8 44 45
3 8 45 9
3 9 45 46
3 9 46 10
3 10 46 47
3 10 47 11
3 11 47 48
3 11 48 12
3 12 48 49
3 12 49 13
3 13 49 50
3 13 50 14
3 14 50 51
3 14 51 15
3 15 51 52
3 15 52 16
3 16 52 53
3 16 53 17
3 17 53 54
3 17 54 18
3 18 54 55
3 18 55 19
3 19 55 56
3 19 56 20
3 20 56 57
3 20 57 21
3 21 57 58
3 21 58 22
3 22 58 59
3 22 59 23
3 23 59 60
3 23 60 24
3 24 60 61
3 24 61 25
3 25 61 62
3 25 62 26
3 26 62 63
3 26 63 27
3 27 63 64
3 27 64 28
3 28 64 65
3 28 65 29
3 29 65 66
3 29 66 30
3 30 66 67
3 30 67 31
3 31 67 68
3 31 68 32
3 32 68 69
3 32 69 33
3 33 69 70
3 33 70 34
3 34 70 71
3 34 71 35
3 35 71 72
3 35 72 36
3 36 72 37
3 36 37 1
3 37 73 74
3 37 74 38
3 38 74 75
3 38 75 39
3 39 75 76
3 39 76 40
3 40 76 77
3 40 77 41
3 41 77 78
3 41 78 42
3 42 78 79
3 42 79 43
3 43 79 80
3 43 80 44
3 44 80 81
3 44 81 45
3 45 81 82
3 45 82 46
3 46 82 83
3 46 83 47
3 47 83 84
3 47 84 48
3 48 84 85
3 48 85 49
3 49 85 86
3 49 86 50
3 50 86 87
3 50 87 51
3 51 87 88
3 51 88 52
3 52 88 89
3 52 89 53
3 53 89 90
3 53 90 54
3 54 90 91
3 54 91 55
3 55 91 92
3 55 92 56
3 56 92 93
3 56 93 57
3 57 93 94
3 57 94 58
3 58 94 95
3 58 95 59
3 59 95 96
3 59 96 60
3 60 96 97
3 60 97 61
3 61 97 98
3 61 98 62
3 62 98 99
3 62 99 63
3 63 99 100
3 63 100 64
3 64 100 101
3 64 101 65
3 65 101 102
3 65 102 66
3 66 102 103
3 66 103 67
3 67 103 104
3 67 104 68
3 68 104 105
3 68 105 69
3 69 105 106
3 69 106 70
3 70 106 107
3 70 107 71
3 71 107 108
3 71 108 72
3 72 108 73
3 72 73 37
3 73 109 110
3 73 110 74
3 74 110 111
3 74 111 75
3 75 111 112
3 75 112 76
3 76 112 113
3 76 113 77
3 77 113 114
3 77 114 78
3 78 114 115
3 78 115 79
3 79 115 116
3 79 116 80
3 80 116 117
3 80 117 81
3 81 117 118
3 81 118 82
3 82 118 119
3 82 119 83
3 83 119 120
3 83 120 84
3 84 120 121
3 84 121 85
3 85 121 122
3 85 122 86
3 86 122 123
3 86 123 87
3 87 123 124
3 87 124 88
3 88 124 125
3 88 125 89
3 89 125 126
3 89 126 90
3 90 126 127
3 90 127 91
3 91 127 128
3 91 128 92
3 92 128 129
3 92 129 93
3 93 129 130
3 93 130 94
3 94 130 131
3 94 131 95
3 95 131 132
3 95 132 96
3 96 132 133
3 96 133 97
3 97 133 134
3 97 134 98
3 98 134 135
3 98 135 99
3 99 135 136
3 99 136 100
3 100 136 137
3 100 137 101
3 101 137 138
3 101 138 102
3 102 138 139
3 102 139 103
3 103 139 140
3 103 140 104
3 104 140 141
3 104 141 105
3 105 141 142
3 105 142 106
3 106 142 143
3 106 143 107
3 107 143 144
3 107 144 108
3 108 144 109
3 108 109 73
3 109 145 146
3 109 146 110
3 110 146 147
3 110 147 111
3 111 147 148
3 111 148 112
3 112 148 149
3 112 149 113
3 113 149 150
3 113 150 114
3 114 150 151
3 114 151 115
3 115 151 152
3 115 152 116
3 116 152 153
3 116 153 117
3 117 153 154
3 117 154 118
3 118 154 155
3 118 155 119
3 119 155 156
3 119 156 120
3 120 156 157
3 120 157 121
3 121 157 158
3 121 158 122
3 122 158 159
3 122 159 123
3 123 159 160
3 123 160 124
3 124 160 161
3 124 161 125
3 125 161 162
3 125 162 126
3 126 162 163
3 126 163 127
3 127 163 164
3 127 164 128
3 128 164 165
3 128 165 129
3 129 165 166
3 129 166 130
3 130 166 167
3 130 167 131
3 131 167 168
3 131 168 132
3 132 168 169
3 132 169 133
3 133 169 170
3 133 170 134
3 134 170 171
3 134 171 135
3 135 171 172
3 135 172 136
3 136 172 173
3 136 173 137
3 137 173 174
3 137 174 138
3 138 174 175
3 138 175 139
3 139 175 176
3 139 176 140
3 140 176 177
3 140 177 141
3 141 177 178
3 141 178 142
3 142 178 179
3 142 179 143
3 143 179 180
3 143 180 144
3 144 180 145
3 144 145 109
3 145 181 182
3 145 182 146
3 146 182 183
3 146 183 147
3 147 183 184
3 147 184 148
3 148 184 185
3 148 185 149
3 149 185 186
3 149 186 150
3 150 186 187
3 150 187 151
3 151 187 188
3 151 188 152
3 152 188 189
3 152 189 153
3 153 189 190
3 153 190 154
3 154 190 191
3 154 191 155
3 155 191 192
3 155 192 156
3 156 192 193
3 156 193 157
3 157 193 194
3 157 194 158
3 158 194 195
3 158 195 159
3 159 195 196
3 159 196 160
3 160 196 197
3 160 197 161
3 161 197 198
3 161 198 162
3 162 198 199
3 162 199 163
3 163 199 200
3 163 200 164
3 164 200 201
3 164 201 165
3 165 201 202
3 165 202 166
3 166 202 203
3 166 203 167
3 167 203 204
3 167 204 168
3 168 204 205
3 168 205 169
3 169 205 206
3 169 206 170
3 170 206 207
3 170 207 171
3 171 207 208
3 171 208 172
3 172 208 209
3 172 209 173
3 173 209 210
3 173 210 174
3 174 210 211
3 174 211 175
3 175 211 212
3 175 212 176
3 176 212 213
3 176 213 177
3 177 213 214
3 177 214 178
3 178 214 215
3 178 215 179
3 179 215 216
3 179 216 180
3 180 216 181
3 180 181 145
3 181 217 218
3 181 218 182
3 182 218 219
3 182 219 183
3 183 219 220
3 183 220 184
3 184 220 221
3 184 221 185
3 185 221 222
3 185 222 186
3 186 222 223
3 186 223 187
3 187 223 224
3 187 224 188
3 188 224 225
3 188 225 189
3 189 225 226
3 189 226 190
3 190 226 227
3 190 227 191
3 191 227 228
3 191 228 192
3 192 228 229
3 192 229 193
3 193 229 230
3 193 230 194
3 194 230 231
3 194 231 195
3 195 231 232
3 195 232 196
3 196 232 233
3 196 233 197
3 197 233 234
3 197 234 198
3 198 234 235
3 198 235 199
3 199 235 236
3 199 236 200
3 200 236 237
3 200 237 201
3 201 237 238
3 201 238 202
3 202 238 239
3 202 239 203
3 203 239 240
3 203 240 204
3 204 240 241
3 204 241 205
3 205 241 242
3 205 242 206
3 206 242 243
3 206 243 207
3 207 243 244
3 207 244 208
3 208 244 245
3 208 245 209
3 209 245 246
3 209 246 210
3 210 246 247
3 210 247 211
3 211 247 248
3 211 248 212
3 212 248 249
3 212 249 213
3 213 249 250
3 213 250 214
3 214 250 251
3 214 251 215
3 215 251 252
3 215 252 216
3 216 252 217
3 216 217 181
3 217 253 254
3 217 254 218
3 218 254 255
3 218 255 219
3 219 255 256
3 219 256 220
3 220 256 257
3 220 257 221
3 221 257 258
3 221 258 222
3 222 258 259
3 222 259 223
3 223 259 260
3 223 260 224
3 224 260 261
3 224 261 225
3 225 261 262
3 225 262 226
3 226 262 263
3 226 263 227
3 227 263 264
3 227 264 228
3 228 264 265
3 228 265 229
3 229 265 266
3 229 266 230
3 230 266 267
3 230 267 231
3 231 267 268
3 231 268 232
3 232 268 269
3 232 269 233
3 233 269 270
3 233 270 234
3 234 270 271
3 234 271 235
3 235 271 272
3 235 272 236
3 236 272 273
3 236 273 237
3 237 273 274
3 237 274 238
3 238 274 275
3 238 275 239
3 239 275 276
3 239 276 240
3 240 276 277
3 240 277 241
3 241 277 278
3 241 278 242
3 242 278 279
3 242 279 243
3 243 279 280
3 243 280 244
3 244 280 281
3 244 281 245
3 245 281 282
3 245 282 246
3 246 282 283
3 246 283 247
3 247 283 284
3 247 284 248
3 248 284 285
3 248 285 249
3 249 285 286
3 249 286 250
3 250 286 287
3 250 287 251
3 251 287 288
3 251 288 252
3 252 288 253
3 252 253 217
3 253 289 290
3 253 290 254
3 254 290 291
3 254 291 255
3 255 291 292
3 255 292 256
3 256 292 293
3 256 293 257
3 257 293 294
3 257 294 258
3 258 294 295
3 258 295 259
3 259 295 296
3 259 296 260
3 260 296 297
3 260 297 261
3 261 297 298
3 261 298 262
3 262 298 299
3 262 299 263
3 263 299 300
3 263 300 264
3 264 300 301
3 264 301 265
3 265 301 302
3 265 302 266
3 266 302 303
3 266 303 267
3 267 303 304
3 267 304 268
3 268 304 305
3 268 305 269
3 269 305 306
3 269 306 270
3 270 306 307
3 270 307 271
3 271 307 308
3 271 308 272
3 272 308 309
3 272 309 273
3 273 309 310
3 273 310 274
3 274 310 311
3 274 311 275
3 275 311 312
3 275 312 276
3 276 312 313
3 276 313 277
3 277 313 314
3 277 314 278
3 278 314 315
3 278 315 279
3 279 315 316
3 279 316 280
3 280 316 317
3 280 317 281
3 281 317 318
3 281 318 282
3 282 318 319
3 282 319 283
3 283 319 320
3 283 320 284
3 284 320 321
3 284 321 285
3 285 321 322
3 285 322 286
3 286 322 323
3 286 323 287
3 287 323 324
3 287 324 288
3 288 324 289
3 288 289 253
3 289 325 326
3 289 326 290
3 290 326 327
3 290 327 291
3 291 327 328
3 291 328 292
3 292 328 329
3 292 329 293
3 293 329 330
3 293 330 294
3 294 330 331
3 294 331 295
3 295 331 332
3 295 332 296
3 296 332 333
3 296 333 297
3 297 333 334
3 297 334 298
3 298 334 335
3 298 335 299
3 299 335 336
3 299 336 300
3 300 336 337
3 300 337 301
3 301 337 338
3 301 338 302
3 302 338 339
3 302 339 303
3 303 339 340
3 303 340 304
3 304 340 341
3 304 341 305
3 305 341 342
3 305 342 306
3 306 342 343
3 306 343 307
3 307 343 344
3 307 344 308
3 308 344 345
3 308 345 309
3 309 345 346
3 309 346 310
3 310 346 347
3 310 347 311
3 311 347 348
3 311 348 312
3 312 348 349
3 312 349 313
3 313 349 350
3 313 350 314
3 314 350 351
3 314 351 315
3 315 351 352
3 315 352 316
3 316 352 353
3 316 353 317
3 317 353 354
3 317 354 318
3 318 354 355
3 318 355 319
3 319 355 356
3 319 356 320
3 320 356 357
3 320 357 321
3 321 357 358
3 321 358 322
3 322 358 359
3 322 359 323
3 323 359 360
3 323 360 324
3 324 360 325
3 324 325 289
3 325 361 362
3 325 362 326
3 326 362 363
3 326 363 327
3 327 363 364
3 327 364 328
3 328 364 365
3 328 365 329
3 329 365 366
3 329 366 330
3 330 366 367
3 330 367 331
3 331 367 368
3 331 368 332
3 332 368 369
3 332 369 333
3 333 369 370
3 333 370 334
3 334 370 371
3 334 371 335
3 335 371 372
3 335 372 336
3 336 372 373
3 336 373 337
3 337 373 374
3 337 374 338
3 338 374 375
3 338 375 339
3 339 375 376
3 339 376 340
3 340 376 377
3 340 377 341
3 341 377 378
3 341 378 342
3 342 378 379
3 342 379 343
3 343 379 380
3 343 380 344
3 344 380 381
3 344 381 345
3 345 381 382
3 345 382 346
3 346 382 383
3 346 383 347
3 347 383 384
3 347 384 348
3 348 384 385
3 348 385 349
3 349 385 386
3 349 386 350
3 350 386 387
3 350 387 351
3 351 387 388
3 351 388 352
3 352 388 389
3 352 389 353
3 353 389 390
3 353 390 354
3 354 390 391
3 354 391 355
3 355 391 392
3 355 392 356
3 356 392 393
3 356 393 357
3 357 393 394
3 357 394 358
3 358 394 395
3 358 395 359
3 359 395 396
3 359 396 360
3 360 396 361
3 360 361 325
3 361 397 398
3 361 398 362
3 362 398 399
3 362 399 363
3 363 399 400
3 363 400 364
3 364 400 401
3 364 401 365
3 365 401 402
3 365 402 366
3 366 402 403
3 366 403 367
3 367 403 404
3 367 404 368
3 368 404 405
3 368 405 369
3 369 405 406
3 369 406 370
3 370 406 407
3 370 407 371
3 371 407 408
3 371 408 372
3 372 408 409
3 372 409 373
3 373 409 410
3 373 410 374
3 374 410 411
3 374 411 375
3 375 411 412
3 375 412 376
3 376 412 413
3 376 413 377
3 377 413 414
3 377 414 378
3 378 414 415
3 378 415 379
3 379 415 416
3 379 416 380
3 380 416 417
3 380 417 381
3 381 417 418
3 381 418 382
3 382 418 419
3 382 419 383
3 383 419 420
3 383 420 384
3 384 420 421
3 384 421 385
3 385 421 422
3 385 422 386
3 386 422 423
3 386 423 387
3 387 423 424
3 387 424 388
3 388 424 425
3 388 425 389
3 389 425 426
3 389 426 390
3 390 426 427
3 390 427 391
3 391 427 428
3 391 428 392
3 392 428 429
3 392 429 393
3 393 429 430
3 393 430 394
3 394 430 431
3 394 431 395
3 395 431 432
3 395 432 396
3 396 432 397
3 396 397 361
3 397 433 434
3 397 434 398
3 398 434 435
3 398 435 399
3 399 435 436
3 399 436 400
3 400 436 437
3 400 437 401
3 401 437 438
3 401 438 402
3 402 438 439
3 402 439 403
3 403 439 440
3 403 440 404
3 404 440 441
3 404 441 405
3 405 441 442
3 405 442 406
3 406 442 443
3 406 443 407
3 407 443 444
3 407 444 408
3 408 444 445
3 408 445 409
3 409 445 446
3 409 446 410
3 410 446 447
3 410 447 411
3 411 447 448
3 411 448 412
3 412 448 449
3 412 449 413
3 413 449 450
3 413 450 414
3 414 450 451
3 414 451 415
3 415 451 452
3 415 452 416
3 416 452 453
3 416 453 417
3 417 453 454
3 417 454 418
3 418 454 455
3 418 455 419
3 419 455 456
3 419 456 420
3 420 456 457
3 420 457 421
3 421 457 458
3 421 458 422
3 422 458 459
3 422 459 423
3 423 459 460
3 423 460 424
3 424 460 461
3 424 461 425
3 425 461 462
3 425 462 426
3 426 462 463
3 426 463 427
3 427 463 464
3 427 464 428
3 428 464 465
3 428 465 429
3 429 465 466
3 429 466 430
3 430 466 467
3 430 467 431
3 431 467 468
3 431 468 432
3 432 468 433
3 432 433 397
3 433 469 470
3 433 470 434
3 434 470 471
3 434 471 435
3 435 471 472
3 435 472 436
3 436 472 473
3 436 473 437
3 437 473 474
3 437 474 438
3 438 474 475
3 438 475 439
3 439 475 476
3 439 476 440
3 440 476 477
3 440 477 441
3 441 477 478
3 441 478 442
3 442 478 479
3 442 479 443
3 443 479 480
3 443 480 444
3 444 480 481
3 444 481 445
3 445 481 482
3 445 482 446
3 446 482 483
3 446 483 447
3 447 483 484
3 447 484 448
3 448 484 485
3 448 485 449
3 449 485 486
3 449 486 450
3 450 486 487
3 450 487 451
3 451 487 488
3 451 488 452
3 452 488 489
3 452 489 453
3 453 489 490
3 453 490 454
3 454 490 491
3 454 491 455
3 455 491 492
3 455 492 456
3 456 492 493
3 456 493 457
3 457 493 494
3 457 494 458
3 458 494 495
3 458 495 459
3 459 495 496
3 459 496 460
3 460 496 497
3 460 497 461
3 461 497 498
3 461 498 462
3 462 498 499
3 462 499 463
3 463 499 500
3 463 500 464
3 464 500 501
3 464 501 465
3 465 501 502
3 465 502 466
3 466 502 503
3 466 503 467
3 467 503 504
3 467 504 468
3 468 504 469
3 468 469 433
3 469 505 506
3 469 506 470
3 470 506 507
3 470 507 471
3 471 507 508
3 471 508 472
3 472 508 509
3 472 509 473
3 473 509 510
3 473 510 474
3 474 510 511
3 474 511 475
3 475 511 512
3 475 512 476
3 476 512 513
3 476 513 477
3 477 513 514
3 477 514 478
3 478 514 515
3 478 515 479
3 479 515 516
3 479 516 480
3 480 516 517
3 480 517 481
3 481 517 518
3 481 518 482
3 482 518 519
3 482 519 483
3 483 519 520
3 483 520 484
3 484 520 521
3 484 521 485
3 485 521 522
3 485 522 486
3 486 522 523
3 486 523 487
3 487 523 524
3 487 524 488
3 488 524 525
3 488 525 489
3 489 525 526
3 489 526 490
3 490 526 527
3 490 527 491
3 491 527 528
3 491 528 492
3 492 528 529
3 492 529 493
3 493 529 530
3 493 530 494
3 494 530 531
3 494 531 495
3 495 531 532
3 495 532 496
3 496 532 533
3 496 533 497
3 497 533 534
3 497 534 498
3 498 534 535
3 498 535 499
3 499 535 536
3 499 536 500
3 500 536 537
3 500 537 501
3 501 537 538
3 501 538 502
3 502 538 539
3 502 539 503
3 503 539 540
3 503 540 504
3 504 540 505
3 504 505 469
3 505 541 542
3 505 542 506
3 506 542 543
3 506 543 507
3 507 543 544
3 507 544 508
3 508 544 545
3 508 545 509
3 509 545 546
3 509 546 510
3 510 546 547
3 510 547 511
3 511 547 548
3 511 548 512
3 512 548 549
3 512 549 513
3 513 549 550
3 513 550 514
3 514 550 551
3 514 551 515
3 515 551 552
3 515 552 516
3 516 552 553
3 516 553 517
3 517 553 554
3 517 554 518
3 518 554 555
3 518 555 519
3 519 555 556
3 519 556 520
3 520 556 557
3 520 557 521
3 521 557 558
3 521 558 522
3 522 558 559
3 522 559 523
3 523 559 560
3 523 560 524
3 524 560 561
3 524 561 525
3 525 561 562
3 525 562 526
3 526 562 563
3 526 563 527
3 527 563 564
3 527 564 528
3 528 564 565
3 528 565 529
3 529 565 566
3 529 566 530
3 530 566 567
3 530 567 531
3 531 567 568
3 531 568 532
3 532 568 569
3 532 569 533
3 533 569 570
3 533 570 534
3 534 570 571
3 534 571 535
3 535 571 572
3 535 572 536
3 536 572 573
3 536 573 537
3 537 573 574
3 537 574 538
3 538 574 575
3 538 575 539
3 539 575 576
3 539 576 540
3 540 576 541
3 540 541 505
3 541 577 578
3 541 578 542
3 542 578 579
3 542 579 543
3 543 579 580
3 543 580 544
3 544 580 581
3 544 581 545
3 545 581 582
3 545 582 546
3 546 582 583
3 546 583 547
3 547 583 584
3 547 584 548
3 548 584 585
3 548 585 549
3 549 585 586
3 549 586 550
3 550 586 587
3 550 587 551
3 551 587 588
3 551 588 552
3 552 588 589
3 552 589 553
3 553 589 590
3 553 590 554
3 554 590 591
3 554 591 555
3 555 591 592
3 555 592 556
3 556 592 593
3 556 593 557
3 557 593 594
3 557 594 558
3 558 594 595
3 558 595 559
3 559 595 596
3 559 596 560
3 560 596 597
3 560 597 561
3 561 597 598
3 561 598 562
3 562 598 599
3 562 599 563
3 563 599 600
3 563 600 564
3 564 600 601
3 564 601 565
3 565 601 602
3 565 602 566
3 566 602 603
3 566 603 567
3 567 603 604
3 567 604 568
3 568 604 605
3 568 605 569
3 569 605 606
3 569 606 570
3 570 606 607
3 570 607 571
3 571 607 608
3 571 608 572
3 572 608 609
3 572 609 573
3 573 609 610
3 573 610 574
3 574 610 611
3 574 611 575
3 575 611 612
3 575 612 576
3 576 612 577
3 576 577 541
3 577 613 614
3 577 614 578
3 578 614 615
3 578 615 579
3 579 615 616
3 579 616 580
3 580 616 617
3 580 617 581
3 581 617 618
3 581 618 582
3 582 618 619
3 582 619 583
3 583 619 620
3 583 620 584
3 584 620 621
3 584 621 585
3 585 621 622
3 585 622 586
3 586 622 623
3 586 623 587
3 587 623 624
3 587 624 588
3 588 624 625
3 588 625 589
3 589 625 626
3 589 626 590
3 590 626 627
3 590 627 591
3 591 627 628
3 591 628 592
3 592 628 629
3 592 629 593
3 593 629 630
3 593 630 594
3 594 630 631
3 594 631 595
3 595 631 632
3 595 632 596
3 596 632 633
3 596 633 597
3 597 633 634
3 597 634 598
3 598 634 635
3 598 635 599
3 599 635 636
3 599 636 600
3 600 636 637
3 600 637 601
3 601 637 638
3 601 638 602
3 602 638 639
3 602 639 603
3 603 639 640
3 603 640 604
3 604 640 641
3 604 641 605
3 605 641 642
3 605 642 606
3 606 642 643
3 606 643 607
3 607 643 644
3 607 644 608
3 608 644 645
3 608 645 609
3 609 645 646
3 609 646 610
3 610 646 647
3 610 647 611
3 611 647 648
3 611 648 612
3 612 648 613
3 612 613 577
3 613 649 650
3 613 650 614
3 614 650 651
3 614 651 615
3 615 651 652
3 615 652 616
3 616 652 653
3 616 653 617
3 617 653 654
3 617 654 618
3 618 654 655
3 618 655 619
3 619 655 656
3 619 656 620
3 620 656 657
3 620 657 621
3 621 657 658
3 621 658 622
3 622 658 659
3 622 659 623
3 623 659 660
3 623 660 624
3 624 660 661
3 624 661 625
3 625 661 662
3 625 662 626
3 626 662 663
3 626 663 627
3 627 663 664
3 627 664 628
3 628 664 665
3 628 665 629
3 629 665 666
3 629 666 630
3 630 666 667
3 630 667 631
3 631 667 668
3 631 668 632
3 632 668 669
3 632 669 633
3 633 669 670
3 633 670 634
3 634 670 671
3 634 671 635
3 635 671 672
3 635 672 636
3 636 672 673
3 636 673 637
3 637 673 674
3 637 674 638
3 638 674 675
3 638 675 639
3 639 675 676
3 639 676 640
3 640 676 677
3 640 677 641
3 641 677 678
3 641 678 642
3 642 678 679
3 642 679 643
3 643 679 680
3 643 680 644
3 644 680 681
3 644 681 645
3 645 681 682
3 645 682 646
3 646 682 683
3 646 683 647
3 647 683 684
3 647 684 648
3 648 684 649
3 648 649 613
3 649 685 686
3 649 686 650
3 650 686 687
3 650 687 651
3 651 687 688
3 651 688 652
3 652 688 689
3 652 689 653
3 653 689 690
3 653 690 654
3 654 690 691
3 654 691 655
3 655 691 692
3 655 692 656
3 656 692 693
3 656 693 657
3 657 693 694
3 657 694 658
3 658 694 695
3 658 695 659
3 659 695 696
3 659 696 660
3 660 696 697
3 660 697 661
3 661 697 698
3 661 698 662
3 662 698 699
3 662 699 663
3 663 699 700
3 663 700 664
3 664 700 701
3 664 701 665
3 665 701 702
3 665 702 666
3 666 702 703
3 666 703 667
3 667 703 704
3 667 704 668
3 668 704 705
3 668 705 669
3 669 705 706
3 669 706 670
3 670 706 707
3 670 707 671
3 671 707 708
3 671 708 672
3 672 708 709
3 672 709 673
3 673 709 710
3 673 710 674
3 674 710 711
3 674 711 675
3 675 711 712
3 675 712 676
3 676 712 713
3 676 713 677
3 677 713 714
3 677 714 678
3 678 714 715
3 678 715 679
3 679 715 716
3 679 716 680
3 680 716 717
3 680 717 681
3 681 717 718
3 681 718 682
3 682 718 719
3 682 719 683
3 683 719 720
3 683 720 684
3 684 720 685
3 684 685 649
3 685 721 722
3 685 722 686
3 686 722 723
3 686 723 687
3 687 723 724
3 687 724 688
3 688 724 725
3 688 725 689
3 689 725 726
3 689 726 690
3 690 726 727
3 690 727 691
3 691 727 728
3 691 728 692
3 692 728 729
3 692 729 693
3 693 729 730
3 693 730 694
3 694 730 731
3 694 731 695
3 695 731 732
3 695 732 696
3 696 732 733
3 696 733 697
3 697 733 734
3 697 734 698
3 698 734 735
3 698 735 699
3 699 735 736
3 699 736 700
3 700 736 737
3 700 737 701
3 701 737 738
3 701 738 702
3 702 738 739
3 702 739 703
3 703 739 740
3 703 740 704
3 704 740 741
3 704 741 705
3 705 741 742
3 705 742 706
3 706 742 743
3 706 743 707
3 707 743 744
3 707 744 708
3 708 744 745
3 708 745 709
3 709 745 746
3 709 746 710
3 710 746 747
3 710 747 711
3 711 747 748
3 711 748 712
3 712 748 749
3 712 749 713
3 713 749 750
3 713 750 714
3 714 750 751
3 714 751 715
3 715 751 752
3 715 752 716
3 716 752 753
3 716 753 717
3 717 753 754
3 717 754 718
3 718 754 755
3 718 755 719
3 719 755 756
3 719 756 720
3 720 756 721
3 720 721 685
3 721 757 758
3 721 758 722
3 722 758 759
3 722 759 723
3 723 759 760
3 723 760 724
3 724 760 761
3 724 761 725
3 725 761 762
3 725 762 726
3 726 762 763
3 726 763 727
3 727 763 764
3 727 764 728
3 728 764 765
3 728 765 729
3 729 765 766
3 729 766 730
3 730 766 767
3 730 767 731
3 731 767 768
3 731 768 732
3 732 768 769
3 732 769 733
3 733 769 770
3 733 770 734
3 734 770 771
3 734 771 735
3 735 771 772
3 735 772 736
3 736 772 773
3 736 773 737
3 737 773 774
3 737 774 738
3 738 774 775
3 738 775 739
3 739 775 776
3 739 776 740
3 740 776 777
3 740 777 741
3 741 777 778
3 741 778 742
3 742 778 779
3 742 779 743
3 743 779 780
3 743 780 744
3 744 780 781
3 744 781 745
3 745 781 782
3 745 782 746
3 746 782 783
3 746 783 747
3 747 783 784
3 747 784 748
3 748 784 785
3 748 785 749
3 749 785 786
3 749 786 750
3 750 786 787
3 750 787 751
3 751 787 788
3 751 788 752
3 752 788 789
3 752 789 753
3 753 789 790
3 753 790 754
3 754 790 791
3 754 791 755
3 755 791 792
3 755 792 756
3 756 792 757
3 756 757 721
3 757 793 794
3 757 794 758
3 758 794 795
3 758 795 759
3 759 795 796
3 759 796 760
3 760 796 797
3 760 797 761
3 761 797 798
3 761 798 762
3 762 798 799
3 762 799 763
3 763 799 800
3 763 800 764
3 764 800 801
3 764 801 765
3 765 801 802
3 765 802 766
3 766 802 803
3 766 803 767
3 767 803 804
3 767 804 768
3 768 804 805
3 768 805 769
3 769 805 806
3 769 806 770
3 770 806 807
3 770 807 771
3 771 807 808
3 771 808 772
3 772 808 809
3 772 809 773
3 773 809 810
3 773 810 774
3 774 810 811
3 774 811 775
3 775 811 812
3 775 812 776
3 776 812 813
3 776 813 777
3 777 813 814
3 777 814 778
3 778 814 815
3 778 815 779
3 779 815 816
3 779 816 780
3 780 816 817
3 780 817 781
3 781 817 818
3 781 818 782
3 782 818 819
3 782 819 783
3 783 819 820
3 783 820 784
3 784 820 821
3 784 821 785
3 785 821 822
3 785 822 786
3 786 822 823
3 786 823 787
3 787 823 824
3 787 824 788
3 788 824 825
3 788 825 789
3 789 825 826
3 789 826 790
3 790 826 827
3 790 827 791
3 791 827 828
3 791 828 792
3 792 828 793
3 792 793 757
3 793 829 830
3 793 830 794
3 794 830 831
3 794 831 795
3 795 831 832
3 795 832 796
3 796 832 833
3 796 833 797
3 797 833 834
3 797 834 798
3 798 834 835
3 798 835 799
3 799 835 836
3 799 836 800
3 800 836 837
3 800 837 801
3 801 837 838
3 801 838 802
3 802 838 839
3 802 839 803
3 803 839 840
3 803 840 804
3 804 840 841
3 804 841 805
3 805 841 842
3 805 842 806
3 806 842 843
3 806 843 807
3 807 843 844
3 807 844 808
3 808 844 845
3 808 845 809
3 809 845 846
3 809 846 810
3 810 846 847
3 810 847 811
3 811 847 848
3 811 848 812
3 812 848 849
3 812 849 813
3 813 849 850
3 813 850 814
3 814 850 851
3 814 851 815
3 815 851 852
3 815 852 816
3 816 852 853
3 816 853 817
3 817 853 854
3 817 854 818
3 818 854 855
3 818 855 819
3 819 855 856
3 819 856 820
3 820 856 857
3 820 857 821
3 821 857 858
3 821 858 822
3 822 858 859
3 822 859 823
3 823 859 860
3 823 860 824
3 824 860 861
3 824 861 825
3 825 861 862
3 825 862 826
3 826 862 863
3 826 863 827
3 827 863 864
3 827 864 828
3 828 864 829
3 828 829 793
3 829 865 866
3 829 866 830
3 830 866 867
3 830 867 831
3 831 867 868
3 831 868 832
3 832 868 869
3 832 869 833
3 833 869 870
3 833 870 834
3 834 870 871
3 834 871 835
3 835 871 872
3 835 872 836
3 836 872 873
3 836 873 837
3 837 873 874
3 837 874 838
3 838 874 875
3 838 875 839
3 839 875 876
3 839 876 840
3 840 876 877
3 840 877 841
3 841 877 878
3 841 878 842
3 842 878 879
3 842 879 843
3 843 879 880
3 843 880 844
3 844 880 881
3 844 881 845
3 845 881 882
3 845 882 846
3 846 882 883
3 846 883 847
3 847 883 884
3 847 884 848
3 848 884 885
3 848 885 849
3 849 885 886
3 849 886 850
3 850 886 887
3 850 887 851
3 851 887 888
3 851 888 852
3 852 888 889
3 852 889 853
3 853 889 890
3 853 890 854
3 854 890 891
3 854 891 855
3 855 891 892
3 855 892 856
3 856 892 893
3 856 893 857
3 857 893 894
3 857 894 858
3 858 894 895
3 858 895 859
3 859 895 896
3 859 896 860
3 860 896 897
3 860 897 861
3 861 897 898
3 861 898 862
3 862 898 899
3 862 899 863
3 863 899 900
3 863 900 864
3 864 900 865
3 864 865 829
3 865 901 902
3 865 902 866
3 866 902 903
3 866 903 867
3 867 903 904
3 867 904 868
3 868 904 905
3 868 905 869
3 869 905 906
3 869 906 870
3 870 906 907
3 870 907 871
3 871 907 908
3 871 908 872
3 872 908 909
3 872 909 873
3 873 909 910
3 873 910 874
3 874 910 911
3 874 911 875
3 875 911 912
3 875 912 876
3 876 912 913
3 876 913 877
3 877 913 914
3 877 914 878
3 878 914 915
3 878 915 879
3 879 915 916
3 879 916 880
3 880 916 917
3 880 917 881
3 881 917 918
3 881 918 882
3 882 918 919
3 882 919 883
3 883 919 920
3 883 920 884
3 884 920 921
3 884 921 885
3 885 921 922
3 885 922 886
3 886 922 923
3 886 923 887
3 887 923 924
3 887 924 888
3 888 924 925
3 888 925 889
3 889 925 926
3 889 926 890
3 890 926 927
3 890 927 891
3 891 927 928
3 891 928 892
3 892 928 929
3 892 929 893
3 893 929 930
3 893 930 894
3 894 930 931
3 894 931 895
3 895 931 932
3 895 932 896
3 896 932 933
3 896 933 897
3 897 933 934
3 897 934 898
3 898 934 935
3 898 935 899
3 899 935 936
3 899 936 900
3 900 936 901
3 900 901 865
3 901 937 938
3 901 938 902
3 902 938 939
3 902 939 903
3 903 939 940
3 903 940 904
3 904 940 941
3 904 941 905
3 905 941 942
3 905 942 906
3 906 942 943
3 906 943 907
3 907 943 944
3 907 944 908
3 908 944 945
3 908 945 909
3 909 945 946
3 909 946 910
3 910 946 947
3 910 947 911
3 911 947 948
3 911 948 912
3 912 948 949
3 912 949 913
3 913 949 950
3 913 950 914
3 914 950 951
3 914 951 915
3 915 951 952
3 915 952 916
3 916 952 953
3 916 953 917
3 917 953 954
3 917 954 918
3 918 954 955
3 918 955 919
3 919 955 956
3 919 956 920
3 920 956 957
3 920 957 921
3 921 957 958
3 921 958 922
3 922 958 959
3 922 959 923
3 923 959 960
3 923 960 924
3 924 960 961
3 924 961 925
3 925 961 962
3 925 962 926
3 926 962 963
3 926 963 927
3 927 963 964
3 927 964 928
3 928 964 965
3 928 965 929
3 929 965 966
3 929 966 930
3 930 966 967
3 930 967 931
3 931 967 968
3 931 968 932
3 932 968 969
3 932 969 933
3 933 969 970
3 933 970 934
3 934 970 971
3 934 971 935
3 935 971 972
3 935 972 936
3 936 972 937
3 936 937 901
3 937 973 974
3 937 974 938
3 938 974 975
3 938 975 939
3 939 975 976
3 939 976 940
3 940 976 977
3 940 977 941
3 941 977 978
3 941 978 942
3 942 978 979
3 942 979 943
3 943 979 980
3 943 980 944
3 944 980 981
3 944 981 945
3 945 981 982
3 945 982 946
3 946 982 983
3 946 983 947
3 947 983 984
3 947 984 948
3 948 984 985
3 948 985 949
3 949 985 986
3 949 986 950
3 950 986 987
3 950 987 951
3 951 987 988
3 951 988 952
3 952 988 989
3 952 989 953
3 953 989 990
3 953 990 954
3 954 990 991
3 954 991 955
3 955 991 992
3 955 992 956
3 956 992 993
3 956 993 957
3 957 993 994
3 957 994 958
3 958 994 995
3 958 995 959
3 959 995 996
3 959 996 960
3 960 996 997
3 960 997 961
3 961 997 998
3 961 998 962
3 962 998 999
3 962 999 963
3 963 999 1000
3 963 1000 964
3 964 1000 1001
3 964 1001 965
3 965 1001 1002
3 965 1002 966
3 966 1002 1003
3 966 1003 967
3 967 1003 1004
3 967 1004 968
3 968 1004 1005
3 968 1005 969
3 969 1005 1006
3 969 1006 970
3 970 1006 1007
3 970 1007 971
3 971 1007 1008
3 971 1008 972
3 972 1008 973
3 972 973 937
3 973 1009 1010
3 973 1010 974
3 974 1010 1011
3 974 1011 975
3 975 1011 1012
3 975 1012 976
3 976 1012 1013
3 976 1013 977
3 977 1013 1014
3 977 1014 978
3 978 1014 1015
3 978 1015 979
3 979 1015 1016
3 979 1016 980
3 980 1016 1017
3 980 1017 981
3 981 1017 1018
3 981 1018 982
3 982 1018 1019
3 982 1019 983
3 983 1019 1020
3 983 1020 984
3 984 1020 1021
3 984 1021 985
3 985 1021 1022
3 985 1022 986
3 986 1022 1023
3 986 1023 987
3 987 1023 1024
3 987 1024 988
3 988 1024 1025
3 988 1025 989
3 989 1025 1026
3 989 1026 990
3 990 1026 1027
3 990 1027 991
3 991 1027 1028
3 991 1028 992
3 992 1028 1029
3 992 1029 993
3 993 1029 1030
3 993 1030 994
3 994 1030 1031
3 994 1031 995
3 995 1031 1032
3 995 1032 996
3 996 1032 1033
3 996 1033 997
3 997 1033 1034
3 997 1034 998
3 998 1034 1035
3 998 1035 999
3 999 1035 1036
3 999 1036 1000
3 1000 1036 1037
3 1000 1037 1001
3 1001 1037 1038
3 1001 1038 1002
3 1002 1038 1039
3 1002 1039 1003
3 1003 1039 1040
3 1003 1040 1004
3 1004 1040 1041
3 1004 1041 1005
3 1005 1041 1042
3 1005 1042 1006
3 1006 1042 1043
3 1006 1043 1007
3 1007 1043 1044
3 1007 1044 1008
3 1008 1044 1009
3 1008 1009 973
3 1009 1045 1046
3 1009 1046 1010
3 1010 1046 1047
3 1010 1047 1011
3 1011 1047 1048
3 1011 1048 1012
3 1012 1048 1049
3 1012 1049 1013
3 1013 1049 1050
3 1013 1050 1014
3 1014 1050 1051
3 1014 1051 1015
3 1015 1051 1052
3 1015 1052 1016
3 1016 1052 1053
3 1016 1053 1017
3 1017 1053 1054
3 1017 1054 1018
3 1018 1054 1055
3 1018 1055 1019
3 1019 1055 1056
3 1019 1056 1020
3 1020 1056 1057
3 1020 1057 1021
3 1021 1057 1058
3 1021 1058 1022
3 1022 1058 1059
3 1022 1059 1023
3 1023 1059 1060
3 1023 1060 1024
3 1024 1060 1061
3 1024 1061 1025
3 1025 1061 1062
3 1025 1062 1026
3 1026 1062 1063
3 1026 1063 1027
3 1027 1063 1064
3 1027 1064 1028
3 1028 1064 1065
3 1028 1065 1029
3 1029 1065 1066
3 1029 1066 1030
3 1030 1066 1067
3 1030 1067 1031
3 1031 1067 1068
3 1031 1068 1032
3 1032 1068 1069
3 1032 1069 1033
3 1033 1069 1070
3 1033 1070 1034
3 1034 1070 1071
3 1034 1071 1035
3 1035 1071 1072
3 1035 1072 1036
3 1036 1072 1073
3 1036 1073 1037
3 1037 1073 1074
3 1037 1074 1038
3 1038 1074 1075
3 1038 1075 1039
3 1039 1075 1076
3 1039 1076 1040
3 1040 1076 1077
3 1040 1077 1041
3 1041 1077 1078
3 1041 1078 1042
3 1042 1078 1079
3 1042 1079 1043
3 1043 1079 1080
3 1043 1080 1044
3 1044 1080 1045
3 1044 1045 1009
3 1045 1081 1082
3 1045 1082 1046
3 1046 1082 1083
3 1046 1083 1047
3 1047 1083 1084
3 1047 1084 1048
3 1048 1084 1085
3 1048 1085 1049
3 1049 1085 1086
3 1049 1086 1050
3 1050 1086 1087
3 1050 1087 1051
3 1051 1087 1088
3 1051 1088 1052
3 1052 1088 1089
3 1052 1089 1053
3 1053 1089 1090
3 1053 1090 1054
3 1054 1090 1091
3 1054 1091 1055
3 1055 1091 1092
3 1055 1092 1056
3 1056 1092 1093
3 1056 1093 1057
3 1057 1093 1094
3 1057 1094 1058
3 1058 1094 1095
3 1058 1095 1059
3 1059 1095 1096
3 1059 1096 1060
3 1060 1096 1097
3 1060 1097 1061
3 1061 1097 1098
3 1061 1098 1062
3 1062 1098 1099
3 1062 1099 1063
3 1063 1099 1100
3 1063 1100 1064
3 1064 1100 1101
3 1064 1101 1065
3 1065 1101 1102
3 1065 1102 1066
3 1066 1102 1103
3 1066 1103 1067
3 1067 1103 1104
3 1067 1104 1068
3 1068 1104 1105
3 1068 1105 1069
3 1069 1105 1106
3 1069 1106 1070
3 1070 1106 1107
3 1070 1107 1071
3 1071 1107 1108
3 1071 1108 1072
3 1072 1108 1109
3 1072 1109 1073
3 1073 1109 1110
3 1073 1110 1074
3 1074 1110 1111
3 1074 1111 1075
3 1075 1111 1112
3 1075 1112 1076
3 1076 1112 1113
3 1076 1113 1077
3 1077 1113 1114
3 1077 1114 1078
3 1078 1114 1115
3 1078 1115 1079
3 1079 1115 1116
3 1079 1116 1080
3 1080 1116 1081
3 1080 1081 1045
3 1081 1117 1118
3 1081 1118 1082
3 1082 1118 1119
3 1082 1119 1083
3 1083 1119 1120
3 1083 1120 1084
3 1084 1120 1121
3 1084 1121 1085
3 1085 1121 1122
3 1085 1122 1086
3 1086 1122 1123
3 1086 1123 1087
3 1087 1123 1124
3 1087 1124 1088
3 1088 1124 1125
3 1088 1125 1089
3 1089 1125 1126
3 1089 1126 1090
3 1090 1126 1127
3 1090 1127 1091
3 1091 1127 1128
3 1091 1128 1092
3 1092 1128 1129
3 1092 1129 1093
3 1093 1129 1130
3 1093 1130 1094
3 1094 1130 1131
3 1094 1131 1095
3 1095 1131 1132
3 1095 1132 1096
3 1096 1132 1133
3 1096 1133 1097
3 1097 1133 1134
3 1097 1134 1098
3 1098 1134 1135
3 1098 1135 1099
3 1099 1135 1136
3 1099 1136 1100
3 1100 1136 1137
3 1100 1137 1101
3 1101 1137 1138
3 1101 1138 1102
3 1102 1138 1139
3 1102 1139 1103
3 1103 1139 1140
3 1103 1140 1104
3 1104 1140 1141
3 1104 1141 1105
3 1105 1141 1142
3 1105 1142 1106
3 1106 1142 1143
3 1106 1143 1107
3 1107 1143 1144
3 1107 1144 1108
3 1108 1144 1145
3 1108 1145 1109
3 1109 1145 1146
3 1109 1146 1110
3 1110 1146 1147
3 1110 1147 1111
3 1111 1147 1148
3 1111 1148 1112
3 1112 1148 1149
3 1112 1149 1113
3 1113 1149 1150
3 1113 1150 1114
3 1114 1150 1151
3 1114 1151 1115
3 1115 1151 1152
3 1115 1152 1116
3 1116 1152 1117
3 1116 1117 1081
3 1117 1153 1154
3 1117 1154 1118
3 1118 1154 1155
3 1118 1155 1119
3 1119 1155 1156
3 1119 1156 1120
3 1120 1156 1157
3 1120 1157 1121
3 1121 1157 1158
3 1121 1158 1122
3 1122 1158 1159
3 1122 1159 1123
3 1123 1159 1160
3 1123 1160 1124
3 1124 1160 1161
3 1124 1161 1125
3 1125 1161 1162
3 1125 1162 1126
3 1126 1162 1163
3 1126 1163 1127
3 1127 1163 1164
3 1127 1164 1128
3 1128 1164 1165
3 1128 1165 1129
3 1129 1165 1166
3 1129 1166 1130
3 1130 1166 1167
3 1130 1167 1131
3 1131 1167 1168
3 1131 1168 1132
3 1132 1168 1169
3 1132 1169 1133
3 1133 1169 1170
3 1133 1170 1134
3 1134 1170 1171
3 1134 1171 1135
3 1135 1171 1172
3 1135 1172 1136
3 1136 1172 1173
3 1136 1173 1137
3 1137 1173 1174
3 1137 1174 1138
3 1138 1174 1175
3 1138 1175 1139
3 1139 1175 1176
3 1139 1176 1140
3 1140 1176 1177
3 1140 1177 1141
3 1141 1177 1178
3 1141 1178 1142
3 1142 1178 1179
3 1142 1179 1143
3 1143 1179 1180
3 1143 1180 1144
3 1144 1180 1181
3 1144 1181 1145
3 1145 1181 1182
3 1145 1182 1146
3 1146 1182 1183
3 1146 1183 1147
3 1147 1183 1184
3 1147 1184 1148
3 1148 1184 1185
3 1148 1185 1149
3 1149 1185 1186
3 1149 1186 1150
3 1150 1186 1187
3 1150 1187 1151
3 1151 1187 1188
3 1151 1188 1152
3 1152 1188 1153
3 1152 1153 1117
3 1153 1189 1190
3 1153 1190 1154
3 1154 1190 1191
3 1154 1191 1155
3 1155 1191 1192
3 1155 1192 1156
3 1156 1192 1193
3 1156 1193 1157
3 1157 1193 1194
3 1157 1194 1158
3 1158 1194 1195
3 1158 1195 1159
3 1159 1195 1196
3 1159 1196 1160
3 1160 1196 1197
3 1160 1197 1161
3 1161 1197 1198
3 1161 1198 1162
3 1162 1198 1199
3 1162 1199 1163
3 1163 1199 1200
3 1163 1200 1164
3 1164 1200 1201
3 1164 1201 1165
3 1165 1201 1202
3 1165 1202 1166
3 1166 1202 1203
3 1166 1203 1167
3 1167 1203 1204
3 1167 1204 1168
3 1168 1204 1205
3 1168 1205 1169
3 1169 1205 1206
3 1169 1206 1170
3 1170 1206 1207
3 1170 1207 1171
3 1171 1207 1208
3 1171 1208 1172
3 1172 1208 1209
3 1172 1209 1173
3 1173 1209 1210
3 1173 1210 1174
3 1174 1210 1211
3 1174 1211 1175
3 1175 1211 1212
3 1175 1212 1176
3 1176 1212 1213
3 1176 1213 1177
3 1177 1213 1214
3 1177 1214 1178
3 1178 1214 1215
3 1178 1215 1179
3 1179 1215 1216
3 1179 1216 1180
3 1180 1216 1217
3 1180 1217 1181
3 1181 1217 1218
3 1181 1218 1182
3 1182 1218 1219
3 1182 1219 1183
3 1183 1219 1220
3 1183 1220 1184
3 1184 1220 1221
3 1184 1221 1185
3 1185 1221 1222
3 1185 1222 1186
3 1186 1222 1223
3 1186 1223 1187
3 1187 1223 1224
3 1187 1224 1188
3 1188 1224 1189
3 1188 1189 1153
3 1189 1225 1226
3 1189 1226 1190
3 1190 1226 1227
3 1190 1227 1191
3 1191 1227 1228
3 1191 1228 1192
3 1192 1228 1229
3 1192 1229 1193
3 1193 1229 1230
3 1193 1230 1194
3 1194 1230 1231
3 1194 1231 1195
3 1195 1231 1232
3 1195 1232 1196
3 1196 1232 1233
3 1196 1233 1197
3 1197 1233 1234
3 1197 1234 1198
3 1198 1234 1235
3 1198 1235 1199
3 1199 1235 1236
3 1199 1236 1200
3 1200 1236 1237
3 1200 1237 1201
3 1201 1237 1238
3 1201 1238 1202
3 1202 1238 1239
3 1202 1239 1203
3 1203 1239 1240
3 1203 1240 1204
3 1204 1240 1241
3 1204 1241 1205
3 1205 1241 1242
3 1205 1242 1206
3 1206 1242 1243
3 1206 1243 1207
3 1207 1243 1244
3 1207 1244 1208
3 1208 1244 1245
3 1208 1245 1209
3 1209 1245 1246
3 1209 1246 1210
3 1210 1246 1247
3 1210 1247 1211
3 1211 1247 1248
3 1211 1248 1212
3 1212 1248 1249
3 1212 1249 1213
3 1213 1249 1250
3 1213 1250 1214
3 1214 1250 1251
3 1214 1251 1215
3 1215 1251 1252
3 1215 1252 1216
3 1216 1252 1253
3 1216 1253 1217
3 1217 1253 1254
3 1217 1254 1218
3 1218 1254 1255
3 1218 1255 1219
3 1219 1255 1256
3 1219 1256 1220
3 1220 1256 1257
3 1220 1257 1221
3 1221 1257 1258
3 1221 1258 1222
3 1222 1258 1259
3 1222 1259 1223
3 1223 1259 1260
3 1223 1260 1224
3 1224 1260 1225
3 1224 1225 1189
3 1225 1261 1262
3 1225 1262 1226
3 1226 1262 1263
3 1226 1263 1227
3 1227 1263 1264
3 1227 1264 1228
3 1228 1264 1265
3 1228 1265 1229
3 1229 1265 1266
3 1229 1266 1230
3 1230 1266 1267
3 1230 1267 1231
3 1231 1267 1268
3 1231 1268 1232
3 1232 1268 1269
3 1232 1269 1233
3 1233 1269 1270
3 1233 1270 1234
3 1234 1270 1271
3 1234 1271 1235
3 1235 1271 1272
3 1235 1272 1236
3 1236 1272 1273
3 1236 1273 1237
3 1237 1273 1274
3 1237 1274 1238
3 1238 1274 1275
3 1238 1275 1239
3 1239 1275 1276
3 1239 1276 1240
3 1240 1276 1277
3 1240 1277 1241
3 1241 1277 1278
3 1241 1278 1242
3 1242 1278 1279
3 1242 1279 1243
3 1243 1279 1280
3 1243 1280 1244
3 1244 1280 1281
3 1244 1281 1245
3 1245 1281 1282
3 1245 1282 1246
3 1246 1282 1283
3 1246 1283 1247
3 1247 1283 1284
3 1247 1284 1248
3 1248 1284 1285
3 1248 1285 1249
3 1249 1285 1286
3 1249 1286 1250
3 1250 1286 1287
3 1250 1287 1251
3 1251 1287 1288
3 1251 1288 1252
3 1252 1288 1289
3 1252 1289 1253
3 1253 1289 1290
3 1253 1290 1254
3 1254 1290 1291
3 1254 1291 1255
3 1255 1291 1292
3 1255 1292 1256
3 1256 1292 1293
3 1256 1293 1257
3 1257 1293 1294
3 1257 1294 1258
3 1258 1294 1295
3 1258 1295 1259
3 1259 1295 1296
3 1259 1296 1260
3 1260 1296 1261
3 1260 1261 1225
