ply 
format ascii 1.0 
comment this is a surface 
element vertex 1297 
property float x 
property float y 
property float z 
element face 2556 
property list uchar int vertex_index 
end_header 
50.525757 0.003133 12.374822
50.758868 0.737866 11.791134
50.756836 0.643009 11.771820
50.750218 0.484132 11.748906
50.740116 0.282531 11.724574
50.727645 0.059495 11.701010
50.713914 -0.163681 11.680397
50.700033 -0.365704 11.664921
50.687112 -0.525283 11.656767
50.676261 -0.621125 11.658119
50.665151 -0.644538 11.680012
50.635889 -0.657467 11.769626
50.590380 -0.670690 11.917280
50.534142 -0.683233 12.103542
50.472704 -0.694120 12.308979
50.411589 -0.702374 12.514158
50.356322 -0.707020 12.699647
50.312424 -0.707082 12.846012
50.285419 -0.701586 12.933823
50.278863 -0.679957 12.956005
50.283507 -0.591254 12.973659
50.295433 -0.444373 12.996009
50.312361 -0.258652 13.020620
50.332021 -0.053432 13.045062
50.352133 0.151949 13.066906
50.370430 0.338152 13.083719
50.384629 0.485836 13.093071
50.392457 0.575663 13.092531
50.396107 0.600546 13.070963
50.418771 0.620992 12.981850
50.459273 0.646108 12.834848
50.511831 0.673454 12.649222
50.570656 0.700589 12.444236
50.629964 0.725071 12.239155
50.683969 0.744461 12.053244
50.726886 0.756317 11.905767
50.752932 0.758197 11.815989
50.884384 2.152788 10.481349
50.907089 1.849278 10.368321
50.921802 1.382215 10.262218
50.927725 0.805712 10.168988
50.924079 0.173881 10.094583
50.910069 -0.459166 10.044953
50.884904 -1.039317 10.026044
50.847793 -1.512461 10.043810
50.797948 -1.824485 10.104198
50.730523 -1.951421 10.232508
50.624928 -2.039277 10.530435
50.487934 -2.113277 10.971253
50.330868 -2.170643 11.506625
50.165055 -2.208592 12.088208
50.001833 -2.224348 12.667670
49.852519 -2.215127 13.196668
49.728453 -2.178153 13.626868
49.640959 -2.110645 13.909928
49.599558 -1.988227 14.027895
49.597280 -1.697488 14.129637
49.624567 -1.262421 14.235297
49.672828 -0.730718 14.336290
49.733482 -0.150071 14.424029
49.797940 0.431829 14.489930
49.857619 0.967289 14.525408
49.903934 1.408621 14.521877
49.928298 1.708131 14.470753
49.934580 1.845946 14.345311
49.986960 1.957137 14.049205
50.084405 2.062344 13.609536
50.213219 2.156153 13.073890
50.359703 2.233146 12.489850
50.510161 2.287908 11.904998
50.650889 2.315021 11.366917
50.768200 2.309070 10.923190
50.848389 2.264640 10.621399
50.658916 3.485190 9.093933
50.736313 2.953949 8.827597
50.808650 2.192567 8.597902
50.868919 1.276676 8.413909
50.910116 0.281909 8.284682
50.925233 -0.716099 8.219285
50.907262 -1.641717 8.226779
50.849199 -2.419313 8.316227
50.744037 -2.973252 8.496692
50.586619 -3.266719 8.799044
50.388043 -3.483770 9.335047
50.160979 -3.656015 10.063649
49.917022 -3.779222 10.918864
49.667775 -3.849161 11.834708
49.424828 -3.861598 12.745196
49.199778 -3.812303 13.584340
49.004225 -3.697043 14.286162
48.849768 -3.511586 14.784669
48.750552 -3.226101 15.054538
48.723024 -2.708498 15.292570
48.754495 -1.994724 15.521563
48.828560 -1.149188 15.725754
48.928807 -0.236298 15.889372
49.038827 0.679536 15.996652
49.142211 1.533909 16.031825
49.222551 2.262413 15.979125
49.263442 2.800635 15.822785
49.267699 3.117822 15.528230
49.333786 3.373123 14.996853
49.463209 3.591140 14.270720
49.638189 3.765233 13.414038
49.840950 3.888763 12.491016
50.053717 3.955087 11.565862
50.258706 3.957567 10.702780
50.438146 3.889564 9.965978
50.574257 3.744434 9.419667
50.128100 4.733344 7.658967
50.280024 3.962705 7.196364
50.434520 2.922206 6.813963
50.575456 1.699769 6.523475
50.686714 0.383322 6.336607
50.752164 -0.939218 6.265069
50.755681 -2.179921 6.320567
50.681137 -3.250869 6.514812
50.512412 -4.064132 6.859514
50.245461 -4.572038 7.384467
49.945772 -4.959161 8.177488
49.632493 -5.257153 9.185470
49.313699 -5.460869 10.333615
48.997459 -5.565165 11.547122
48.691850 -5.564896 12.751197
48.404943 -5.454916 13.871038
48.144810 -5.230084 14.831851
47.919528 -4.885251 15.558831
47.746725 -4.391732 16.021789
47.679562 -3.632052 16.432913
47.704221 -2.651501 16.811510
47.795959 -1.522126 17.134439
47.930035 -0.315978 17.378560
48.081704 0.894897 17.520728
48.226219 2.038449 17.537803
48.338843 3.042632 17.406641
48.394829 3.835392 17.104102
48.394310 4.377051 16.594093
48.463854 4.814099 15.811265
48.608828 5.169132 14.810167
48.809952 5.435087 13.662243
49.047944 5.604902 12.438934
49.303523 5.671514 11.211682
49.557403 5.627864 10.051928
49.790306 5.466888 9.031114
49.982945 5.181524 8.220684
49.337584 5.895522 6.206536
49.573743 4.881227 5.521339
49.823163 3.578149 4.968413
50.059103 2.079341 4.561828
50.254833 0.477855 4.315658
50.383616 -1.133257 4.243975
50.418718 -2.660945 4.360850
50.333412 -4.012157 4.680359
50.100958 -5.093841 5.216571
49.719062 -5.848984 5.993628
49.318652 -6.433668 7.051789
48.925457 -6.874943 8.327723
48.541975 -7.167479 9.744227
48.170714 -7.305945 11.224100
47.814174 -7.285010 12.690135
47.474859 -7.099342 14.065133
47.155271 -6.743611 15.271891
46.857913 -6.212485 16.233205
46.602956 -5.483272 16.915506
46.485718 -4.475922 17.521120
46.492739 -3.242973 18.061834
46.591432 -1.857600 18.507772
46.749209 -0.392973 18.829058
46.933482 1.077734 18.995817
47.111661 2.481350 18.978173
47.251166 3.744705 18.746252
47.319399 4.794622 18.270179
47.313236 5.584509 17.517271
47.381757 6.225216 16.478907
47.534406 6.732959 15.219647
47.751722 7.100105 13.811082
48.014230 7.319027 12.324801
48.302467 7.382094 10.832397
48.596959 7.281675 9.405458
48.878249 7.010139 8.115575
49.126862 6.559857 7.034339
48.333008 6.970000 4.766722
48.652987 5.715195 3.849238
48.998327 4.167413 3.119254
49.331615 2.419737 2.593106
49.615426 0.565252 2.287135
49.812345 -1.302956 2.217678
49.884952 -3.091803 2.401075
49.795830 -4.708210 2.853660
49.507561 -6.059081 3.591778
49.019448 -7.079166 4.631375
48.527235 -7.875506 5.951981
48.062857 -8.467635 7.481416
47.622947 -8.850949 9.144059
47.204143 -9.020841 10.864286
46.803073 -8.972710 12.566472
46.416374 -8.701950 14.174998
46.040674 -8.203956 15.614242
45.672607 -7.474126 16.808576
45.334117 -6.498876 17.721543
45.160315 -5.247874 18.527650
45.139047 -3.779359 19.229238
45.231381 -2.163671 19.791179
45.398367 -0.471147 20.178334
45.601075 1.227872 20.355577
45.800558 2.863052 20.287771
45.957878 4.364055 19.939785
46.034097 5.660538 19.276487
46.023318 6.701072 18.272134
46.092097 7.551623 16.986249
46.253092 8.219257 15.490930
46.486706 8.694683 13.853133
46.773349 8.968604 12.139817
47.093430 9.031728 10.417942
47.427364 8.874760 8.754465
47.755553 8.488408 7.216339
48.058414 7.863374 5.870532
47.160017 7.955048 3.369611
47.553272 6.470294 2.226778
47.983772 4.697016 1.324494
48.404754 2.725306 0.681450
48.769455 0.645251 0.316338
49.031103 -1.453052 0.247851
49.142934 -3.479520 0.494676
49.058192 -5.344051 1.075512
48.730107 -6.956569 2.009045
48.158635 -8.244190 3.302555
47.592052 -9.252892 4.872089
47.067670 -9.993479 6.637552
46.577699 -10.463171 8.526460
46.114346 -10.659193 10.466328
45.669819 -10.578766 12.384671
45.236328 -10.219113 14.209012
44.806081 -9.577454 15.866855
44.371287 -8.651013 17.285735
43.955088 -7.436696 18.425756
43.722178 -5.955677 19.422956
43.662150 -4.270878 20.270425
43.732208 -2.448405 20.930085
43.889551 -0.554364 21.363857
44.091390 1.345138 21.533664
44.294917 3.183999 21.401426
44.457344 4.896103 20.929066
44.535865 6.415360 20.078502
44.523388 7.687616 18.833054
44.599481 8.738468 17.319759
44.778025 9.564667 15.615784
45.038117 10.153211 13.780974
45.358847 10.491097 11.875181
45.719305 10.565322 9.958254
46.098595 10.362888 8.090039
46.475799 9.870787 6.330394
46.830016 9.076021 4.739152
45.864246 8.848939 2.045285
46.310114 7.152204 0.700673
46.803250 5.173975 -0.357860
47.290291 3.000392 -1.109001
47.717876 0.717594 -1.531432
48.032648 -1.588284 -1.603836
48.181247 -3.831099 -1.304893
48.110306 -5.924721 -0.613296
47.766477 -7.783005 0.492280
47.148642 -9.325662 2.012021
46.533650 -10.534043 3.806148
45.962882 -11.410726 5.787140
45.427316 -11.956048 7.884785
44.917922 -12.170343 10.028871
44.425685 -12.053951 12.149194
43.941573 -11.607202 14.175536
43.456559 -10.830438 16.037699
42.961626 -9.723992 17.665460
42.480750 -8.294885 19.014003
42.190130 -6.607101 20.177494
42.081042 -4.727750 21.142093
42.110317 -2.719867 21.869918
42.234801 -0.646487 22.323092
42.411337 1.429355 22.463738
42.596765 3.444621 22.253972
42.747919 5.336283 21.655919
42.821649 7.041298 20.631702
42.812279 8.505018 19.174402
42.908496 9.730903 17.465904
43.122349 10.705826 15.585974
43.429160 11.410082 13.587180
43.804262 11.823968 11.522089
44.222974 11.927782 9.443266
44.660629 11.701817 7.403285
45.092552 11.126373 5.454702
45.494067 10.181746 3.650096
44.491342 9.649947 0.823827
44.959033 7.766607 -0.682359
45.480507 5.605307 -1.869802
45.999976 3.249349 -2.714106
46.461649 0.782019 -3.190874
46.809734 -1.713386 -3.275703
46.988443 -4.153570 -2.944203
46.941984 -6.455243 -2.171964
46.614562 -8.535109 -0.934600
46.001486 -10.305189 0.764616
45.372564 -11.687173 2.748184
44.771470 -12.677625 4.921182
44.192885 -13.281470 7.212384
43.631480 -13.503630 9.550566
43.081943 -13.349028 11.864500
42.538948 -12.822593 14.082958
41.997176 -11.929240 16.134717
41.451304 -10.673902 17.948554
40.925974 -9.071597 19.472138
40.582998 -7.209916 20.761721
40.414718 -5.160196 21.800943
40.382113 -2.986124 22.556105
40.446158 -0.751381 22.993508
40.567831 1.480346 23.079453
40.708109 3.645371 22.780244
40.827971 5.680009 22.062175
40.888387 7.520582 20.891555
40.888830 9.114154 19.270549
41.023753 10.474077 17.411154
41.299211 11.579370 15.393275
41.683057 12.399688 13.264334
42.143144 12.904683 11.071742
42.647327 13.064007 8.862919
43.163458 12.847316 6.685287
43.659392 12.224257 4.586258
44.102983 11.164492 2.613247
43.072544 10.350256 -0.268062
43.531137 8.316975 -1.887020
44.043661 5.999670 -3.169512
44.557117 3.481587 -4.087875
45.018517 0.845964 -4.614441
45.374860 -1.823953 -4.721548
45.573159 -4.444924 -4.381527
45.560412 -6.933707 -3.566715
45.283630 -9.207057 -2.249446
44.732105 -11.168633 -0.431511
44.127882 -12.691801 1.698612
43.514724 -13.770220 4.038448
42.896479 -14.414563 6.510603
42.276994 -14.635499 9.037682
41.660111 -14.443707 11.542290
41.049677 -13.849855 13.947031
40.449537 -12.864618 16.174513
39.863540 -11.498666 18.147338
39.317070 -9.771890 19.802694
38.930395 -7.772212 21.170082
38.696089 -5.575624 22.236303
38.583764 -3.251345 22.975730
38.563030 -0.868586 23.362739
38.603490 1.503433 23.371705
38.674757 3.795496 22.977006
38.746438 5.938389 22.153012
38.788140 7.862894 20.874101
38.807693 9.519146 19.149480
38.999499 10.963669 17.189428
39.359849 12.171181 15.071946
39.846311 13.098120 12.843196
40.416456 13.700925 10.549338
41.027855 13.936034 8.236532
41.638077 13.759884 5.950940
42.204690 13.128914 3.738721
42.685267 11.999559 1.646038
41.558422 10.919899 -1.238138
42.028176 8.796563 -2.959178
42.538724 6.370395 -4.325260
43.043437 3.726369 -5.307569
43.495684 0.949462 -5.877296
43.848837 -1.875353 -6.005627
44.056264 -4.663100 -5.663752
44.071337 -7.328806 -4.822857
43.847424 -9.787495 -3.454131
43.369855 -11.933758 -1.556230
42.805841 -13.597442 0.691629
42.197142 -14.768770 3.180330
41.556009 -15.462551 5.823424
40.894699 -15.693599 8.534461
40.225466 -15.476723 11.226992
39.560564 -14.826738 13.814564
38.912249 -13.758452 16.210732
38.292774 -12.286679 18.329041
37.728768 -10.436061 20.095924
37.305672 -8.302243 21.527724
37.016736 -5.965732 22.616079
36.839384 -3.499640 23.342577
36.751038 -0.977070 23.688805
36.729126 1.528871 23.636357
36.751069 3.945074 23.166819
36.794293 6.198433 22.261781
36.836218 8.215841 20.902832
36.888189 9.946427 19.103736
37.122985 11.460317 17.063592
37.531161 12.731700 14.858701
38.068450 13.713616 12.535908
38.690592 14.359108 10.142059
39.353320 14.621214 7.724002
40.012369 14.452974 5.328580
40.623476 13.807432 3.002641
41.142376 12.637628 0.793031
39.958108 11.372246 -2.104543
40.462545 9.210940 -3.925052
40.983913 6.717147 -5.369701
41.484118 3.979067 -6.410291
41.925058 1.084899 -7.018630
42.268640 -1.877156 -7.166520
42.476762 -4.818899 -6.825767
42.511330 -7.652133 -5.968174
42.334245 -10.288657 -4.565546
41.929338 -12.613587 -2.612828
41.411412 -14.418133 -0.267585
40.818793 -15.688361 2.355362
40.170254 -16.441408 5.159117
39.484561 -16.694410 8.046786
38.780487 -16.464507 10.921476
38.076799 -15.768836 13.686292
37.392268 -14.624533 16.244343
36.745664 -13.048737 18.498732
36.165108 -11.070981 20.365440
35.712328 -8.804379 21.856536
35.381822 -6.333678 22.969066
35.157285 -3.733631 23.690731
35.022402 -1.078987 24.009226
34.960864 1.555501 23.912251
34.956361 4.095082 23.387504
34.992579 6.465007 22.422682
35.053208 8.590521 21.005482
35.148048 10.415657 19.152347
35.409377 11.991143 17.046290
35.826426 13.293699 14.762194
36.361419 14.282680 12.348739
36.976583 14.917442 9.854605
37.634145 15.157342 7.328472
38.296332 14.961735 4.819022
38.925371 14.289979 2.374935
39.483488 13.101428 0.044891
38.294177 11.727672 -2.883983
38.850234 9.567972 -4.802114
39.392654 7.037563 -6.322541
39.892886 4.229370 -7.418608
40.322376 1.236312 -8.063656
40.652570 -1.848685 -8.231028
40.854914 -4.932699 -7.894069
40.900854 -7.922808 -7.026117
40.761839 -10.726091 -5.600520
40.422223 -13.218071 -3.608385
39.950403 -15.158109 -1.180028
39.380527 -16.527984 1.564736
38.735997 -17.345648 4.518258
38.040215 -17.629055 7.572892
37.316581 -17.396152 10.620992
36.588502 -16.664895 13.554911
35.879379 -15.453230 16.267004
35.212610 -13.779114 18.649623
34.617735 -11.676700 20.608664
34.141924 -9.282511 22.155604
33.781399 -6.685243 23.293146
33.524805 -3.959764 24.014662
33.360780 -1.180934 24.313516
33.277968 1.576383 24.183080
33.265007 4.237323 23.616725
33.310543 6.727021 22.607817
33.403215 8.970615 21.149729
33.547573 10.903924 19.260336
33.822488 12.534104 17.101785
34.219174 13.842746 14.747473
34.712349 14.802742 12.248702
35.276739 15.386990 9.656777
35.887060 15.568386 7.022999
36.518038 15.319822 4.398675
37.144391 14.614194 1.835105
37.740846 13.424398 -0.616407
36.589203 12.006552 -3.593163
37.207229 9.875525 -5.607837
37.778369 7.329280 -7.203491
38.283468 4.466967 -8.355086
38.703372 1.387738 -9.037586
39.018928 -1.809259 -9.225954
39.210977 -5.024871 -8.895151
39.260369 -8.159949 -8.020139
39.147948 -11.115341 -6.575883
38.860179 -13.757159 -4.549977
38.428627 -15.821605 -2.046695
37.883187 -17.286632 0.809649
37.250021 -18.169796 3.901430
36.555291 -18.488651 7.111018
35.825162 -18.260753 10.320788
35.085796 -17.503657 13.413112
34.363358 -16.234914 16.270366
33.684010 -14.472082 18.774921
33.078293 -12.253264 20.823012
32.586032 -9.740524 22.424020
32.205521 -7.026210 23.586203
31.929284 -4.184482 24.308837
31.749836 -1.289500 24.591191
31.659699 1.584580 24.432538
31.651393 4.363595 23.832149
31.717434 6.973389 22.789297
31.850341 9.339803 21.303252
32.047070 11.388321 19.392734
32.326134 13.067158 17.194343
32.682939 14.364407 14.779585
33.108383 15.271236 12.202813
33.593366 15.778813 9.518381
34.128788 15.878307 6.780641
34.705551 15.560887 4.043948
35.314550 14.817718 1.362653
35.946689 13.639973 -1.208889
34.865759 12.229266 -4.248787
35.549524 10.141471 -6.359693
36.154488 7.589937 -8.032254
36.669594 4.681553 -9.242292
37.083787 1.523210 -9.965633
37.386012 -1.778202 -10.178097
37.565211 -5.115793 -9.855508
37.610332 -8.382673 -8.973689
37.510317 -11.471954 -7.508465
37.254880 -14.240802 -5.444686
36.851898 -16.412857 -2.868587
36.327620 -17.963295 0.091299
35.709106 -18.908366 3.309213
35.023423 -19.264319 6.659402
34.297634 -19.047401 10.016114
33.558801 -18.273862 13.253592
32.833989 -16.959951 16.246085
32.150262 -15.121917 18.867837
31.538429 -12.800721 21.005909
31.036214 -10.182306 22.660872
30.644238 -7.362359 23.846120
30.358056 -4.414232 24.567728
30.173231 -1.411278 24.831769
30.085323 1.573151 24.644317
30.089892 4.465702 24.011444
30.182494 7.193026 22.939223
30.358693 9.681765 21.433729
30.606841 11.845936 19.514562
30.884127 13.568262 17.288228
31.191253 14.844252 14.823579
31.536655 15.685592 12.178086
31.928777 16.103969 9.409221
32.376057 16.111069 6.574452
32.886937 15.718583 3.731250
33.469860 14.938194 0.937082
34.133262 13.781589 -1.750580
33.146419 12.416190 -4.867566
33.893105 10.373673 -7.075156
34.534433 7.817166 -8.828539
35.064988 4.862815 -10.102794
35.479356 1.626765 -10.873007
35.772125 -1.774833 -11.114260
35.937879 -5.225838 -10.801636
35.971202 -8.610102 -9.910221
35.866686 -11.811476 -8.415095
35.617993 -14.678948 -6.299588
35.226027 -16.936103 -3.646699
34.714670 -18.556968 -0.589124
34.110038 -19.555883 2.742185
33.438246 -19.947178 6.216282
32.725407 -19.745192 9.702217
31.997637 -18.964259 13.069044
31.281051 -17.618714 16.185814
30.601765 -15.722890 18.921580
29.989784 -13.319117 21.154771
29.484042 -10.611747 22.865250
29.087600 -7.699472 24.070779
28.798463 -4.655459 24.785805
28.614629 -1.552862 25.024766
28.534102 1.535159 24.802109
28.554882 4.535447 24.132273
28.674972 7.374841 23.029703
28.892370 9.980186 21.508838
29.187195 12.253861 19.590851
29.460284 14.015374 17.347703
29.717645 15.267846 14.844501
29.984301 16.043241 12.141537
30.285278 16.373518 9.299103
30.645591 16.290638 6.377490
31.090271 15.826568 3.436989
31.644331 15.013259 0.537892
32.332800 13.882682 -2.259507
31.453760 12.587699 -5.466200
32.253963 10.580001 -7.771701
32.931630 8.008605 -9.612052
33.483378 5.000444 -10.959158
33.905816 1.682440 -11.784921
34.195562 -1.818477 -12.061245
34.349233 -5.375385 -11.760031
34.363441 -8.861352 -10.853185
34.234801 -12.149452 -9.312604
33.961191 -15.081550 -7.121763
33.556826 -17.395576 -4.382029
33.045186 -19.066641 -1.230423
32.449599 -20.106861 2.200927
31.793390 -20.528349 5.779894
31.099890 -20.343218 9.374348
30.392426 -19.563589 12.852164
29.694326 -18.201568 16.081207
29.028917 -16.269279 18.929357
28.424006 -13.808504 21.267019
27.921079 -11.032731 23.036243
27.525659 -8.043335 24.258065
27.237838 -4.914608 24.957535
27.057687 -1.720843 25.159699
26.985295 1.463666 24.889607
27.020742 4.564629 24.172305
27.164109 7.507752 23.032840
27.415480 10.218743 21.496261
27.748434 12.589186 19.586625
28.018412 14.386451 17.337034
28.235647 15.620761 14.807401
28.438460 16.341616 12.060179
28.665175 16.598521 9.157830
28.954119 16.440977 6.162809
29.343612 15.918488 3.137576
29.871984 15.080560 0.144589
30.577550 13.976688 -2.753693
29.810353 12.764173 -6.061399
30.648087 10.768320 -8.466798
31.359507 8.161892 -10.402500
31.938489 5.084130 -11.833951
32.378905 1.674269 -12.726588
32.674629 -1.928454 -13.045853
32.819539 -5.584802 -12.757187
32.807506 -9.155543 -11.826030
32.632406 -12.501430 -10.217825
32.296143 -15.458553 -7.918285
31.850109 -17.795514 -5.075576
31.320012 -19.491307 -1.831402
30.724569 -20.555823 1.686020
30.082491 -20.998947 5.348478
29.412492 -20.830573 9.027756
28.733290 -20.060591 12.595641
28.063592 -18.698886 15.923923
27.422119 -16.755351 18.884377
26.832739 -14.268925 21.340071
26.338892 -11.449149 23.172940
25.948472 -8.399724 24.405859
25.663519 -5.198125 25.077389
25.486070 -1.921815 25.226085
25.418168 1.351732 24.890504
25.461852 4.545050 24.109205
25.619157 7.580669 22.920742
25.892126 10.381121 21.363673
26.250862 12.829001 19.466910
26.522330 14.659451 17.220487
26.718791 15.888560 14.677324
26.886266 16.578147 11.901027
27.070783 16.790036 8.955206
27.318366 16.586049 5.903467
27.675036 16.028005 2.809420
28.186824 15.177730 -0.263328
28.899756 14.097051 -3.251167
28.221851 12.948930 -6.656462
29.074253 10.929943 -9.158528
29.812527 8.261576 -11.196558
30.422698 5.095779 -12.725234
30.890798 1.584500 -13.699235
31.202857 -2.120317 -14.073236
31.344902 -5.866722 -13.801919
31.302962 -9.502769 -12.839959
31.063069 -12.876509 -11.142038
30.630322 -15.819996 -8.697816
30.115213 -18.145339 -5.733595
29.548441 -19.838059 -2.396705
28.942751 -20.906345 1.193656
28.310884 -21.358389 4.918290
27.665582 -21.202380 8.657997
27.019586 -20.446513 12.293579
26.385639 -19.098975 15.705839
25.776485 -17.167957 18.775576
25.210582 -14.687458 21.359578
24.731637 -11.848505 23.259646
24.349557 -8.756700 24.498856
24.068153 -5.494940 25.131517
23.891240 -2.146129 25.211948
23.822629 1.206829 24.794462
23.866131 4.481034 23.933373
24.025565 7.593585 22.682992
24.304736 10.461575 21.097639
24.674080 12.961497 19.212920
24.953171 14.822895 16.974504
25.153493 16.065606 14.427196
25.321692 16.756303 11.634911
25.504419 16.961661 8.661558
25.748320 16.748356 5.571051
26.100046 16.183061 2.427302
26.606243 15.332450 -0.705776
27.313560 14.263201 -3.764273
26.604522 13.056664 -7.184278
27.444979 10.979149 -9.747087
28.192190 8.238488 -11.874329
28.823597 4.993432 -13.504682
29.316642 1.402728 -14.576823
29.648767 -2.374871 -15.029423
29.797414 -6.180617 -14.801161
29.740025 -9.855764 -13.830709
29.454042 -13.241558 -12.056744
28.945606 -16.168431 -9.469916
28.375838 -18.475380 -6.385310
27.780223 -20.152958 -2.958565
27.166818 -21.209498 0.699485
26.543685 -21.653331 4.478004
25.918881 -21.492791 8.266158
25.300467 -20.736210 11.953110
24.696502 -19.391916 15.428027
24.115046 -17.468247 18.580072
23.570767 -14.995471 21.262831
23.109829 -12.143460 23.217968
22.742947 -9.018927 24.467664
22.474054 -5.709973 25.077008
22.307086 -2.304701 25.111093
22.245974 1.108790 24.635012
22.294653 4.442399 23.713853
22.457057 7.608024 22.412708
22.737120 10.517566 20.796668
23.106467 13.045014 18.905972
23.390249 14.932131 16.656940
23.598556 16.199369 14.090735
23.775455 16.911456 11.273414
23.965019 17.133120 8.271031
24.211316 16.929088 5.149643
24.558414 16.364088 1.975304
25.050385 15.502848 -1.185927
25.731295 14.410097 -4.267996
24.951804 13.082161 -7.639522
25.758517 10.921938 -10.228221
26.497683 8.107122 -12.428916
27.138599 4.797500 -14.160486
27.650566 1.152862 -15.341819
28.002883 -2.667003 -15.891795
28.164848 -6.502308 -15.729296
28.105759 -10.193265 -14.773206
27.794920 -13.580085 -12.942409
27.237670 -16.493693 -10.225424
26.632919 -18.782205 -7.028447
26.020071 -20.439159 -3.517507
25.403965 -21.474451 0.203289
24.789439 -21.897976 4.029835
24.181334 -21.719631 7.858024
23.584489 -20.949309 11.583749
23.003742 -19.596906 15.102905
22.443934 -17.672317 18.311383
21.917759 -15.203473 21.062365
21.476336 -12.339547 23.060888
21.130169 -9.187882 24.327328
20.881812 -5.841245 24.932039
20.733818 -2.392402 24.945381
20.688740 1.065883 24.437708
20.749130 4.440846 23.479377
20.917543 7.639721 22.140742
21.196532 10.569745 20.492164
21.559083 13.105123 18.576248
21.844285 15.011494 16.296676
22.060722 16.307603 13.695570
22.248083 17.051510 10.842780
22.446066 17.301272 7.808155
22.694365 17.114949 4.661546
23.032670 16.550601 1.472799
23.500678 15.666281 -1.688233
24.138080 14.520053 -4.751701
23.273528 13.036892 -8.029901
24.030312 10.781501 -10.616972
24.747354 7.896356 -12.876297
25.386688 4.537859 -14.704913
25.910345 0.862408 -15.999858
26.280358 -2.973595 -16.658171
26.458761 -6.813754 -16.576890
26.407584 -10.501668 -15.653052
26.088861 -13.880934 -13.783694
25.505880 -16.784655 -10.952831
24.883498 -19.056635 -7.655104
24.264059 -20.691539 -4.068038
23.650342 -21.701555 -0.290602
23.045134 -22.098873 3.578241
22.451216 -21.895683 7.439524
21.871373 -21.104176 11.194283
21.308386 -19.736537 14.743553
20.765038 -17.804959 17.988369
20.253494 -15.335952 20.783644
19.831818 -12.459460 22.817417
19.509627 -9.283347 24.107402
19.287055 -5.904682 24.724504
19.164228 -2.420539 24.739632
19.141278 1.072008 24.223698
19.218335 4.475884 23.247609
19.395526 7.694020 21.882272
19.672983 10.629336 20.198597
20.025054 13.157922 18.239877
20.309967 15.076314 15.912691
20.534731 16.400284 13.263830
20.733554 17.178521 10.367846
20.940645 17.459712 7.299298
21.190214 17.292543 4.132740
21.516468 16.725704 0.942729
21.953616 15.807881 -2.196181
22.535868 14.587762 -5.209432
21.579525 12.932331 -8.363120
22.275806 10.581030 -10.928375
22.959555 7.635074 -13.232451
23.586847 4.244380 -15.150225
24.113755 0.558871 -16.556574
24.496353 -3.271537 -17.326376
24.690715 -7.096920 -17.334507
24.652914 -10.767363 -16.455846
24.339026 -14.132945 -14.565268
23.749596 -17.030188 -11.640629
23.124616 -19.289494 -8.257377
22.508253 -20.904977 -4.604667
21.902100 -21.891164 -0.777861
21.307751 -22.262574 3.127678
20.726800 -22.033735 7.016585
20.160837 -21.219173 10.793498
19.611456 -19.833408 14.363055
19.080250 -17.890965 17.629888
18.579910 -15.417398 20.452140
18.176934 -12.525904 22.516569
17.879726 -9.325106 23.837437
17.685410 -5.916209 24.482288
17.591109 -2.400419 24.518669
17.593943 1.121059 24.014130
17.691035 4.547020 23.036214
17.879509 7.776257 21.652466
18.156484 10.707565 19.930437
18.497513 13.219506 17.912982
18.781983 15.141922 15.523966
19.015327 16.487393 12.817644
19.225846 17.294553 9.873450
19.441840 17.602035 6.770825
19.691612 17.448476 3.589207
20.003463 16.872515 0.408032
20.405693 15.912783 -2.693261
20.926606 14.607919 -5.635234
19.879625 12.779948 -8.646885
20.510443 10.343717 -11.177470
21.152637 7.352154 -13.513360
21.758061 3.946940 -15.508692
22.278571 0.269759 -17.017602
22.666022 -3.537706 -17.894230
22.872269 -7.333768 -17.992714
22.849168 -10.976749 -17.167191
22.548574 -14.324958 -15.271796
21.968183 -17.219167 -12.277309
21.353312 -19.471604 -8.827367
20.748723 -21.074355 -5.121899
20.155387 -22.043626 -1.254157
19.574275 -22.395629 2.682604
19.006356 -22.146571 6.595133
18.452601 -21.312664 10.390179
17.913978 -19.910114 13.974487
17.391460 -17.955129 17.254804
16.898942 -15.472307 20.093324
16.512342 -12.561575 22.187357
16.238866 -9.332944 23.546987
16.072506 -5.891757 24.233285
16.007249 -2.343349 24.307316
16.037085 1.206935 23.830151
16.156003 4.653757 22.862860
16.357993 7.891777 21.466504
16.637045 10.815654 19.702160
16.969589 13.305970 17.611694
17.255022 15.223650 15.149482
17.497253 16.578906 12.379141
17.718937 17.401660 9.384428
17.942736 17.721835 6.249102
18.191307 17.569354 3.056923
18.487309 16.974144 -0.108352
18.853402 15.966123 -3.162963
19.312243 14.575217 -6.023150
18.183658 12.591212 -8.888901
18.749667 10.092757 -11.379296
19.344950 7.076480 -13.735004
19.919314 3.675409 -15.792578
20.422568 0.022575 -17.388577
20.804521 -3.748993 -18.359557
21.014984 -7.506268 -18.542074
21.003762 -11.116216 -17.772687
20.720667 -14.445815 -15.887949
20.161004 -17.340460 -12.851358
19.566629 -19.593788 -9.357170
18.981540 -21.194550 -5.614244
18.406355 -22.159300 -1.715167
17.841689 -22.504589 2.247474
17.288160 -22.246975 6.181095
16.746385 -21.403011 9.993110
16.216977 -19.989249 13.590933
15.700557 -18.022245 16.881975
15.212528 -15.525167 19.732662
14.838703 -12.589170 21.858791
14.585453 -9.326644 23.265606
14.443969 -5.847249 24.005383
14.405439 -2.260637 24.130392
14.461056 1.323532 23.692909
14.602007 4.795603 22.745206
14.819484 8.045921 21.339557
15.104676 10.964828 19.528232
15.434411 13.433410 17.352135
15.723771 15.336827 14.808219
15.975247 16.684803 11.970452
16.206806 17.501906 8.925618
16.436417 17.812709 5.760497
16.682046 17.641785 2.561870
16.961663 17.013702 -0.583479
17.293235 15.953036 -3.588773
17.694730 14.484354 -6.367229
16.501453 12.377599 -9.096875
17.008921 9.851338 -11.548892
17.554844 6.836928 -13.913360
18.089589 3.459661 -16.014150
18.563522 -0.155172 -17.675133
18.927010 -3.882281 -18.720178
19.130419 -7.596375 -18.973158
19.124113 -11.172165 -18.257934
18.858460 -14.484355 -16.398385
18.327419 -17.382944 -13.351268
17.761608 -19.646870 -9.838883
17.202774 -21.260442 -6.076209
16.651154 -22.238530 -2.156560
16.106979 -22.596005 1.826746
15.570486 -22.347730 5.780397
15.041907 -21.508577 9.611078
14.521478 -20.093413 13.225474
14.009433 -18.117104 16.530266
13.522604 -15.600472 19.395627
13.156675 -12.631389 21.559886
12.917890 -9.325990 23.022847
12.795427 -5.798615 23.826473
12.778474 -2.163591 24.012720
12.856210 1.464746 23.623549
13.017819 4.972063 22.700923
13.252484 8.244029 21.286795
13.549388 11.166309 19.423128
13.885112 13.617921 17.150432
14.182919 15.496783 14.519154
14.444054 16.815058 11.613707
14.683431 17.597347 8.521856
14.915968 17.868251 5.331374
15.156578 17.652369 2.130028
15.420180 16.974305 -0.994413
15.721686 15.858652 -3.954182
16.076016 14.330019 -6.661509
14.842843 12.150579 -9.278515
15.303647 9.642655 -11.701294
15.800670 6.662384 -14.064409
16.287870 3.329574 -16.185676
16.719208 -0.235976 -17.882906
17.048642 -3.914454 -18.973916
17.230132 -7.586059 -19.276519
17.217639 -11.130984 -18.608538
16.965117 -14.429427 -16.787774
16.466794 -17.335490 -13.765531
15.935289 -19.621669 -10.264603
15.408494 -21.266911 -6.502299
14.885931 -22.281675 -2.574007
14.367126 -22.676425 1.424878
13.851604 -22.461624 5.398967
13.338888 -21.647727 9.252867
12.828504 -20.245199 12.891187
12.319976 -18.264503 16.218536
11.831108 -15.722714 19.107685
11.466919 -12.710928 21.319651
11.234578 -9.350768 22.848264
11.122510 -5.761781 23.724445
11.119140 -2.063517 23.979123
11.212897 1.624475 23.643225
11.392207 5.182644 22.747673
11.645496 8.491443 21.323394
11.961188 11.431322 19.401315
12.314820 13.875600 17.022714
12.627153 15.718849 14.301273
12.898414 16.979653 11.331033
13.142791 17.690046 8.197982
13.374472 17.882056 4.988101
13.607651 17.587716 1.787375
13.856513 16.839059 -1.318213
14.135250 15.668112 -4.242679
14.458050 14.106906 -6.900036
13.212509 11.920487 -9.442462
13.639849 9.483380 -11.851594
14.089633 6.571650 -14.205606
14.522324 3.302908 -16.323807
14.898385 -0.205233 -18.025507
15.178279 -3.835161 -19.130015
15.322469 -7.469265 -19.456643
15.291420 -10.989934 -18.824700
15.045592 -14.279551 -17.053494
14.581258 -17.195220 -14.090827
14.087912 -19.513053 -10.631637
13.598086 -21.206357 -6.891263
13.110080 -22.278777 -2.968179
12.622195 -22.733955 1.039139
12.132730 -22.575541 5.032212
11.639986 -21.807179 8.912563
11.142264 -20.432512 12.581716
10.637863 -18.455187 15.941193
10.144955 -15.887325 18.864585
9.777520 -12.828885 21.130606
9.544645 -9.408182 22.727272
9.435153 -5.750108 23.675502
9.437867 -1.979552 23.996218
9.541608 1.778593 23.710340
9.735199 5.399434 22.838794
10.007464 8.758085 21.402496
10.347224 11.729649 19.422371
10.728265 14.178087 16.941946
11.059282 15.976183 14.140385
11.339842 17.152933 11.118960
11.585672 17.755652 7.958839
11.812494 17.831656 4.741194
12.036036 17.428267 1.547194
12.272019 16.592797 -1.541989
12.536171 15.372566 -4.445185
12.844215 13.814893 -7.081223
11.590423 11.682386 -9.592748
11.976438 9.341926 -12.000008
12.373096 6.515171 -14.344596
12.747210 3.319522 -16.450809
13.065592 -0.127624 -18.142951
13.295057 -3.708868 -19.245319
13.402416 -7.306809 -19.582219
13.354484 -10.804051 -18.977950
13.118071 -14.083191 -17.256811
12.691284 -17.002006 -14.365132
12.240009 -19.338032 -10.963112
11.791305 -21.061199 -7.262156
11.342198 -22.171151 -3.363176
10.889710 -22.667522 0.632929
10.430869 -22.549952 4.625243
9.962699 -21.818078 8.512865
9.482225 -20.471536 12.194889
8.986471 -18.509966 15.570408
8.494525 -15.942560 18.511749
8.132196 -12.874113 20.801855
7.909414 -9.436023 22.426585
7.813650 -5.755449 23.403511
7.832379 -1.959543 23.750191
7.953069 1.824534 23.484196
8.163195 5.469627 22.623087
8.450228 8.848580 21.184432
8.801639 11.834235 19.185792
9.190167 14.282832 16.673330
9.525433 16.038623 13.858024
9.807151 17.139429 10.841882
10.050940 17.647574 7.700747
10.272417 17.625378 4.510463
10.487205 17.135167 1.346872
10.710921 16.239260 -1.714186
10.959185 14.999978 -4.596866
11.247616 13.479648 -7.225325
9.983897 11.422063 -9.714210
10.319713 9.194916 -12.122976
10.657975 6.465814 -14.454948
10.971173 3.352740 -16.541584
11.231798 -0.026320 -18.214349
11.412341 -3.553382 -19.304701
11.485290 -7.110460 -19.644101
11.423138 -10.579575 -19.064014
11.198374 -13.842735 -17.395898
10.810504 -16.756786 -14.585950
10.402841 -19.096383 -11.255767
9.997196 -20.829977 -7.611467
9.589329 -21.956046 -3.755734
9.175004 -22.473067 0.208752
8.749984 -22.379518 4.179307
8.310031 -21.673878 8.053252
7.850907 -20.354621 11.727903
7.368376 -18.420226 15.100577
6.883017 -15.879066 18.040610
6.535168 -12.836955 20.323569
6.334364 -9.424833 21.936687
6.264845 -5.769078 22.900312
6.310850 -1.996057 23.234784
6.456617 1.767853 22.960447
6.686385 5.396275 22.097643
6.984395 8.762842 20.666717
7.334884 11.741175 18.688012
7.710324 14.182147 16.210360
8.035364 15.898565 13.443934
8.310616 16.934829 10.485804
8.549679 17.366502 7.406645
8.766158 17.269152 4.277138
8.973651 16.718344 1.167958
9.185763 15.789646 -1.850218
9.416094 14.558623 -4.706712
9.678244 13.100841 -7.330849
8.405509 11.125382 -9.789713
8.685429 9.023756 -12.195208
8.962319 6.404522 -14.506854
9.213699 3.386065 -16.564837
9.417082 0.086771 -18.209338
9.549987 -3.374973 -19.280545
9.589930 -6.880782 -19.618641
9.514425 -10.312270 -19.063814
9.300994 -13.551052 -17.456248
8.950280 -16.452408 -14.742625
8.584948 -18.784062 -11.501121
8.221898 -20.513971 -7.931350
7.855608 -21.641328 -4.137427
7.480555 -22.165319 -0.223465
7.091214 -22.085135 3.706425
6.682062 -21.399965 7.548131
6.247578 -20.108997 11.197541
5.782235 -18.211422 14.550541
5.308489 -15.716336 17.472132
4.983062 -12.728889 19.722318
4.814096 -9.377008 21.292416
4.781136 -5.783876 22.210118
4.863722 -2.072676 22.503116
5.041400 1.633408 22.199106
5.293712 5.211194 21.325779
5.600202 8.537500 19.910831
5.940414 11.489138 17.981952
6.287153 13.913696 15.590582
6.591011 15.591425 12.921202
6.854119 16.571383 10.061874
7.086617 16.940624 7.078512
7.298649 16.786203 4.037024
7.500356 16.195171 1.003324
7.701879 15.254585 -1.956679
7.913360 14.051494 -4.777072
8.144941 12.672954 -7.391946
6.867836 10.778201 -9.802124
7.089340 8.809849 -12.191414
7.304181 6.312240 -14.470505
7.494272 3.402997 -16.489260
7.641525 0.199740 -18.097550
7.727854 -3.179910 -19.145238
7.735173 -6.618331 -19.482191
7.645392 -9.997906 -18.958276
7.440429 -13.201010 -17.423357
7.121977 -16.081721 -14.824504
6.794872 -18.397018 -11.690684
6.471559 -20.114469 -8.213958
6.145172 -21.234866 -4.499828
5.808842 -21.759011 -0.653802
5.455699 -21.687699 3.218613
5.078874 -21.021731 7.011913
4.671498 -19.761901 10.620593
4.226705 -17.909010 13.939146
3.768997 -15.473869 16.827285
3.472504 -12.561398 19.024674
3.343209 -9.294942 20.528607
3.354918 -5.792729 21.377136
3.481436 -2.172984 21.608310
3.696567 1.446066 21.260186
3.974116 4.946198 20.370816
4.287888 8.209185 18.978252
4.611688 11.116800 17.120546
4.919072 13.515148 14.851539
5.194314 15.152610 12.312913
5.441546 16.081339 9.581246
5.666479 16.398129 6.718325
5.874825 16.199761 3.785927
6.072294 15.583023 0.845838
6.264598 14.644705 -2.040161
6.457447 13.481589 -4.810289
6.656553 12.190467 -7.402762
5.383452 10.366382 -9.734308
5.547201 8.534599 -12.086304
5.701608 6.169914 -14.316088
5.832378 3.387039 -16.283562
5.925207 0.300676 -17.848623
5.965801 -2.974463 -18.871169
5.939858 -6.323674 -19.211102
5.833081 -9.632250 -18.728321
5.631172 -12.785479 -17.282721
5.336958 -15.637575 -14.820934
5.041153 -17.931210 -11.815975
4.752321 -19.632753 -8.451442
4.462155 -20.744530 -4.834507
4.162344 -21.268871 -1.072339
3.844578 -21.208105 2.727890
3.500545 -20.564561 6.459008
3.121937 -19.340566 10.013849
3.463573 -17.723730 13.612191
3.015798 -15.322516 16.477161
2.736311 -12.453678 18.640940
2.629756 -9.237986 20.104354
2.666755 -5.790624 20.911355
2.817935 -2.226775 21.105899
3.053918 1.338377 20.731944
2.716539 4.633100 19.296071
3.037690 7.814530 17.930457
3.342164 10.662833 16.156718
3.604499 13.024168 14.030778
3.847209 14.617530 11.642151
4.076779 15.496951 9.055068
4.293990 15.767201 6.328060
4.499619 15.533050 3.519651
4.694448 14.899272 0.688369
4.879256 13.970635 -2.107260
5.054819 12.851908 -4.808707
5.221921 11.647864 -7.357448
3.964935 9.875784 -9.569128
4.074764 8.179409 -11.854587
4.172652 5.958490 -14.013796
4.247499 3.321690 -15.916438
4.288209 0.377673 -17.432188
4.283683 -2.764902 -18.430724
4.222825 -5.997368 -18.781726
4.094537 -9.211066 -18.354870
3.887720 -12.297332 -17.019835
3.606586 -15.112821 -14.721260
3.332330 -17.382585 -11.868503
3.070328 -19.070105 -8.635957
2.810693 -20.178184 -5.133034
2.543541 -20.709630 -1.469151
2.258990 -20.667249 2.246274
1.947157 -20.053845 5.903827
1.598154 -18.872224 9.394093
2.700441 -17.538449 13.285236
2.262600 -15.171162 16.127037
2.000119 -12.345958 18.257206
1.916302 -9.181030 19.680101
1.978593 -5.788518 20.445575
2.154433 -2.280565 20.603489
2.411268 1.230688 20.203701
1.509922 4.303717 18.164867
1.839846 7.390164 16.828925
2.125299 10.165909 15.143395
2.341852 12.478420 13.165841
2.551635 14.021597 10.932001
2.763703 14.850464 8.494491
2.973873 15.076031 5.909697
3.177964 14.809304 3.234000
3.371794 14.161291 0.523784
3.551179 13.243003 -2.164568
3.711941 12.165445 -4.774674
3.849892 11.039625 -7.250150
2.624860 9.292266 -9.289452
2.687785 7.725684 -11.470973
2.735360 5.658911 -13.533820
2.759122 3.190455 -15.356590
2.750609 0.418817 -16.817882
2.701360 -2.557494 -17.796292
2.602911 -5.639978 -18.170416
2.446801 -8.730124 -17.818852
2.224569 -11.729434 -16.620196
1.942224 -14.500307 -14.514828
1.676950 -16.747097 -11.839786
1.535164 -18.424308 -8.722596
1.405346 -19.597551 -5.336186
1.271770 -20.202373 -1.751033
1.129495 -20.239307 1.918330
0.973578 -19.708962 5.560358
0.799077 -18.611963 9.066031
1.350221 -17.156011 12.667756
1.131300 -14.900147 15.556015
1.000059 -12.164620 17.686344
0.958151 -9.076150 19.052986
0.989296 -5.763501 19.705551
1.077217 -2.355334 19.699036
1.205634 1.024964 19.102082
0.754961 4.106594 17.443709
0.919923 7.067420 15.969576
1.062650 9.718342 14.236131
1.170926 11.933776 12.322013
1.309532 13.400220 10.205547
1.506201 14.174129 7.910665
1.710856 14.352803 5.465215
1.914795 14.051742 2.924782
2.109312 13.386455 0.344956
2.285706 12.472440 -2.218679
2.435272 11.425198 -4.710533
2.549309 10.360235 -7.075018
0.000000 8.601691 -8.878144
0.000000 7.154827 -10.910172
0.000000 5.252123 -12.846347
0.000000 2.976831 -14.572719
0.000000 0.412203 -15.975339
0.000000 -2.358511 -16.940257
0.000000 -5.252060 -17.353524
0.000000 -8.185194 -17.101187
0.000000 -11.074655 -16.069299
0.000000 -13.792883 -14.190984
0.000000 -16.020698 -11.721334
0.000000 -17.778510 -8.809235
0.000000 -19.016918 -5.539338
0.000000 -19.695115 -2.032914
0.000000 -19.811366 1.590386
0.000000 -19.364080 5.216889
0.000000 -18.351702 8.737968
0.000000 -16.773573 12.050276
0.000000 -14.629132 14.984993
0.000000 -11.983281 17.115482
0.000000 -8.971271 18.425871
0.000000 -5.738484 18.965527
0.000000 -2.430104 18.794583
0.000000 0.819239 18.000463
0.000000 3.909472 16.722552
0.000000 6.744676 15.110226
0.000000 9.270774 13.328866
0.000000 11.389133 11.478185
0.000000 12.788810 9.485877
0.000000 13.500196 7.314739
0.000000 13.625707 4.996587
0.000000 13.283600 2.587799
0.000000 12.592134 0.144749
0.000000 11.669571 -2.276184
0.000000 10.634162 -4.618627
0.000000 9.604172 -6.826202
3 0 1 2
3 0 2 3
3 0 3 4
3 0 4 5
3 0 5 6
3 0 6 7
3 0 7 8
3 0 8 9
3 0 9 10
3 0 10 11
3 0 11 12
3 0 12 13
3 0 13 14
3 0 14 15
3 0 15 16
3 0 16 17
3 0 17 18
3 0 18 19
3 0 19 20
3 0 20 21
3 0 21 22
3 0 22 23
3 0 23 24
3 0 24 25
3 0 25 26
3 0 26 27
3 0 27 28
3 0 28 29
3 0 29 30
3 0 30 31
3 0 31 32
3 0 32 33
3 0 33 34
3 0 34 35
3 0 35 36
3 0 36 1
3 1 37 38
3 1 38 2
3 2 38 39
3 2 39 3
3 3 39 40
3 3 40 4
3 4 40 41
3 4 41 5
3 5 41 42
3 5 42 6
3 6 42 43
3 6 43 7
3 7 43 44
3 7 44 8
3 8 44 45
3 8 45 9
3 9 45 46
3 9 46 10
3 10 46 47
3 10 47 11
3 11 47 48
3 11 48 12
3 12 48 49
3 12 49 13
3 13 49 50
3 13 50 14
3 14 50 51
3 14 51 15
3 15 51 52
3 15 52 16
3 16 52 53
3 16 53 17
3 17 53 54
3 17 54 18
3 18 54 55
3 18 55 19
3 19 55 56
3 19 56 20
3 20 56 57
3 20 57 21
3 21 57 58
3 21 58 22
3 22 58 59
3 22 59 23
3 23 59 60
3 23 60 24
3 24 60 61
3 24 61 25
3 25 61 62
3 25 62 26
3 26 62 63
3 26 63 27
3 27 63 64
3 27 64 28
3 28 64 65
3 28 65 29
3 29 65 66
3 29 66 30
3 30 66 67
3 30 67 31
3 31 67 68
3 31 68 32
3 32 68 69
3 32 69 33
3 33 69 70
3 33 70 34
3 34 70 71
3 34 71 35
3 35 71 72
3 35 72 36
3 36 72 37
3 36 37 1
3 37 73 74
3 37 74 38
3 38 74 75
3 38 75 39
3 39 75 76
3 39 76 40
3 40 76 77
3 40 77 41
3 41 77 78
3 41 78 42
3 42 78 79
3 42 79 43
3 43 79 80
3 43 80 44
3 44 80 81
3 44 81 45
3 45 81 82
3 45 82 46
3 46 82 83
3 46 83 47
3 47 83 84
3 47 84 48
3 48 84 85
3 48 85 49
3 49 85 86
3 49 86 50
3 50 86 87
3 50 87 51
3 51 87 88
3 51 88 52
3 52 88 89
3 52 89 53
3 53 89 90
3 53 90 54
3 54 90 91
3 54 91 55
3 55 91 92
3 55 92 56
3 56 92 93
3 56 93 57
3 57 93 94
3 57 94 58
3 58 94 95
3 58 95 59
3 59 95 96
3 59 96 60
3 60 96 97
3 60 97 61
3 61 97 98
3 61 98 62
3 62 98 99
3 62 99 63
3 63 99 100
3 63 100 64
3 64 100 101
3 64 101 65
3 65 101 102
3 65 102 66
3 66 102 103
3 66 103 67
3 67 103 104
3 67 104 68
3 68 104 105
3 68 105 69
3 69 105 106
3 69 106 70
3 70 106 107
3 70 107 71
3 71 107 108
3 71 108 72
3 72 108 73
3 72 73 37
3 73 109 110
3 73 110 74
3 74 110 111
3 74 111 75
3 75 111 112
3 75 112 76
3 76 112 113
3 76 113 77
3 77 113 114
3 77 114 78
3 78 114 115
3 78 115 79
3 79 115 116
3 79 116 80
3 80 116 117
3 80 117 81
3 81 117 118
3 81 118 82
3 82 118 119
3 82 119 83
3 83 119 120
3 83 120 84
3 84 120 121
3 84 121 85
3 85 121 122
3 85 122 86
3 86 122 123
3 86 123 87
3 87 123 124
3 87 124 88
3 88 124 125
3 88 125 89
3 89 125 126
3 89 126 90
3 90 126 127
3 90 127 91
3 91 127 128
3 91 128 92
3 92 128 129
3 92 129 93
3 93 129 130
3 93 130 94
3 94 130 131
3 94 131 95
3 95 131 132
3 95 132 96
3 96 132 133
3 96 133 97
3 97 133 134
3 97 134 98
3 98 134 135
3 98 135 99
3 99 135 136
3 99 136 100
3 100 136 137
3 100 137 101
3 101 137 138
3 101 138 102
3 102 138 139
3 102 139 103
3 103 139 140
3 103 140 104
3 104 140 141
3 104 141 105
3 105 141 142
3 105 142 106
3 106 142 143
3 106 143 107
3 107 143 144
3 107 144 108
3 108 144 109
3 108 109 73
3 109 145 146
3 109 146 110
3 110 146 147
3 110 147 111
3 111 147 148
3 111 148 112
3 112 148 149
3 112 149 113
3 113 149 150
3 113 150 114
3 114 150 151
3 114 151 115
3 115 151 152
3 115 152 116
3 116 152 153
3 116 153 117
3 117 153 154
3 117 154 118
3 118 154 155
3 118 155 119
3 119 155 156
3 119 156 120
3 120 156 157
3 120 157 121
3 121 157 158
3 121 158 122
3 122 158 159
3 122 159 123
3 123 159 160
3 123 160 124
3 124 160 161
3 124 161 125
3 125 161 162
3 125 162 126
3 126 162 163
3 126 163 127
3 127 163 164
3 127 164 128
3 128 164 165
3 128 165 129
3 129 165 166
3 129 166 130
3 130 166 167
3 130 167 131
3 131 167 168
3 131 168 132
3 132 168 169
3 132 169 133
3 133 169 170
3 133 170 134
3 134 170 171
3 134 171 135
3 135 171 172
3 135 172 136
3 136 172 173
3 136 173 137
3 137 173 174
3 137 174 138
3 138 174 175
3 138 175 139
3 139 175 176
3 139 176 140
3 140 176 177
3 140 177 141
3 141 177 178
3 141 178 142
3 142 178 179
3 142 179 143
3 143 179 180
3 143 180 144
3 144 180 145
3 144 145 109
3 145 181 182
3 145 182 146
3 146 182 183
3 146 183 147
3 147 183 184
3 147 184 148
3 148 184 185
3 148 185 149
3 149 185 186
3 149 186 150
3 150 186 187
3 150 187 151
3 151 187 188
3 151 188 152
3 152 188 189
3 152 189 153
3 153 189 190
3 153 190 154
3 154 190 191
3 154 191 155
3 155 191 192
3 155 192 156
3 156 192 193
3 156 193 157
3 157 193 194
3 157 194 158
3 158 194 195
3 158 195 159
3 159 195 196
3 159 196 160
3 160 196 197
3 160 197 161
3 161 197 198
3 161 198 162
3 162 198 199
3 162 199 163
3 163 199 200
3 163 200 164
3 164 200 201
3 164 201 165
3 165 201 202
3 165 202 166
3 166 202 203
3 166 203 167
3 167 203 204
3 167 204 168
3 168 204 205
3 168 205 169
3 169 205 206
3 169 206 170
3 170 206 207
3 170 207 171
3 171 207 208
3 171 208 172
3 172 208 209
3 172 209 173
3 173 209 210
3 173 210 174
3 174 210 211
3 174 211 175
3 175 211 212
3 175 212 176
3 176 212 213
3 176 213 177
3 177 213 214
3 177 214 178
3 178 214 215
3 178 215 179
3 179 215 216
3 179 216 180
3 180 216 181
3 180 181 145
3 181 217 218
3 181 218 182
3 182 218 219
3 182 219 183
3 183 219 220
3 183 220 184
3 184 220 221
3 184 221 185
3 185 221 222
3 185 222 186
3 186 222 223
3 186 223 187
3 187 223 224
3 187 224 188
3 188 224 225
3 188 225 189
3 189 225 226
3 189 226 190
3 190 226 227
3 190 227 191
3 191 227 228
3 191 228 192
3 192 228 229
3 192 229 193
3 193 229 230
3 193 230 194
3 194 230 231
3 194 231 195
3 195 231 232
3 195 232 196
3 196 232 233
3 196 233 197
3 197 233 234
3 197 234 198
3 198 234 235
3 198 235 199
3 199 235 236
3 199 236 200
3 200 236 237
3 200 237 201
3 201 237 238
3 201 238 202
3 202 238 239
3 202 239 203
3 203 239 240
3 203 240 204
3 204 240 241
3 204 241 205
3 205 241 242
3 205 242 206
3 206 242 243
3 206 243 207
3 207 243 244
3 207 244 208
3 208 244 245
3 208 245 209
3 209 245 246
3 209 246 210
3 210 246 247
3 210 247 211
3 211 247 248
3 211 248 212
3 212 248 249
3 212 249 213
3 213 249 250
3 213 250 214
3 214 250 251
3 214 251 215
3 215 251 252
3 215 252 216
3 216 252 217
3 216 217 181
3 217 253 254
3 217 254 218
3 218 254 255
3 218 255 219
3 219 255 256
3 219 256 220
3 220 256 257
3 220 257 221
3 221 257 258
3 221 258 222
3 222 258 259
3 222 259 223
3 223 259 260
3 223 260 224
3 224 260 261
3 224 261 225
3 225 261 262
3 225 262 226
3 226 262 263
3 226 263 227
3 227 263 264
3 227 264 228
3 228 264 265
3 228 265 229
3 229 265 266
3 229 266 230
3 230 266 267
3 230 267 231
3 231 267 268
3 231 268 232
3 232 268 269
3 232 269 233
3 233 269 270
3 233 270 234
3 234 270 271
3 234 271 235
3 235 271 272
3 235 272 236
3 236 272 273
3 236 273 237
3 237 273 274
3 237 274 238
3 238 274 275
3 238 275 239
3 239 275 276
3 239 276 240
3 240 276 277
3 240 277 241
3 241 277 278
3 241 278 242
3 242 278 279
3 242 279 243
3 243 279 280
3 243 280 244
3 244 280 281
3 244 281 245
3 245 281 282
3 245 282 246
3 246 282 283
3 246 283 247
3 247 283 284
3 247 284 248
3 248 284 285
3 248 285 249
3 249 285 286
3 249 286 250
3 250 286 287
3 250 287 251
3 251 287 288
3 251 288 252
3 252 288 253
3 252 253 217
3 253 289 290
3 253 290 254
3 254 290 291
3 254 291 255
3 255 291 292
3 255 292 256
3 256 292 293
3 256 293 257
3 257 293 294
3 257 294 258
3 258 294 295
3 258 295 259
3 259 295 296
3 259 296 260
3 260 296 297
3 260 297 261
3 261 297 298
3 261 298 262
3 262 298 299
3 262 299 263
3 263 299 300
3 263 300 264
3 264 300 301
3 264 301 265
3 265 301 302
3 265 302 266
3 266 302 303
3 266 303 267
3 267 303 304
3 267 304 268
3 268 304 305
3 268 305 269
3 269 305 306
3 269 306 270
3 270 306 307
3 270 307 271
3 271 307 308
3 271 308 272
3 272 308 309
3 272 309 273
3 273 309 310
3 273 310 274
3 274 310 311
3 274 311 275
3 275 311 312
3 275 312 276
3 276 312 313
3 276 313 277
3 277 313 314
3 277 314 278
3 278 314 315
3 278 315 279
3 279 315 316
3 279 316 280
3 280 316 317
3 280 317 281
3 281 317 318
3 281 318 282
3 282 318 319
3 282 319 283
3 283 319 320
3 283 320 284
3 284 320 321
3 284 321 285
3 285 321 322
3 285 322 286
3 286 322 323
3 286 323 287
3 287 323 324
3 287 324 288
3 288 324 289
3 288 289 253
3 289 325 326
3 289 326 290
3 290 326 327
3 290 327 291
3 291 327 328
3 291 328 292
3 292 328 329
3 292 329 293
3 293 329 330
3 293 330 294
3 294 330 331
3 294 331 295
3 295 331 332
3 295 332 296
3 296 332 333
3 296 333 297
3 297 333 334
3 297 334 298
3 298 334 335
3 298 335 299
3 299 335 336
3 299 336 300
3 300 336 337
3 300 337 301
3 301 337 338
3 301 338 302
3 302 338 339
3 302 339 303
3 303 339 340
3 303 340 304
3 304 340 341
3 304 341 305
3 305 341 342
3 305 342 306
3 306 342 343
3 306 343 307
3 307 343 344
3 307 344 308
3 308 344 345
3 308 345 309
3 309 345 346
3 309 346 310
3 310 346 347
3 310 347 311
3 311 347 348
3 311 348 312
3 312 348 349
3 312 349 313
3 313 349 350
3 313 350 314
3 314 350 351
3 314 351 315
3 315 351 352
3 315 352 316
3 316 352 353
3 316 353 317
3 317 353 354
3 317 354 318
3 318 354 355
3 318 355 319
3 319 355 356
3 319 356 320
3 320 356 357
3 320 357 321
3 321 357 358
3 321 358 322
3 322 358 359
3 322 359 323
3 323 359 360
3 323 360 324
3 324 360 325
3 324 325 289
3 325 361 362
3 325 362 326
3 326 362 363
3 326 363 327
3 327 363 364
3 327 364 328
3 328 364 365
3 328 365 329
3 329 365 366
3 329 366 330
3 330 366 367
3 330 367 331
3 331 367 368
3 331 368 332
3 332 368 369
3 332 369 333
3 333 369 370
3 333 370 334
3 334 370 371
3 334 371 335
3 335 371 372
3 335 372 336
3 336 372 373
3 336 373 337
3 337 373 374
3 337 374 338
3 338 374 375
3 338 375 339
3 339 375 376
3 339 376 340
3 340 376 377
3 340 377 341
3 341 377 378
3 341 378 342
3 342 378 379
3 342 379 343
3 343 379 380
3 343 380 344
3 344 380 381
3 344 381 345
3 345 381 382
3 345 382 346
3 346 382 383
3 346 383 347
3 347 383 384
3 347 384 348
3 348 384 385
3 348 385 349
3 349 385 386
3 349 386 350
3 350 386 387
3 350 387 351
3 351 387 388
3 351 388 352
3 352 388 389
3 352 389 353
3 353 389 390
3 353 390 354
3 354 390 391
3 354 391 355
3 355 391 392
3 355 392 356
3 356 392 393
3 356 393 357
3 357 393 394
3 357 394 358
3 358 394 395
3 358 395 359
3 359 395 396
3 359 396 360
3 360 396 361
3 360 361 325
3 361 397 398
3 361 398 362
3 362 398 399
3 362 399 363
3 363 399 400
3 363 400 364
3 364 400 401
3 364 401 365
3 365 401 402
3 365 402 366
3 366 402 403
3 366 403 367
3 367 403 404
3 367 404 368
3 368 404 405
3 368 405 369
3 369 405 406
3 369 406 370
3 370 406 407
3 370 407 371
3 371 407 408
3 371 408 372
3 372 408 409
3 372 409 373
3 373 409 410
3 373 410 374
3 374 410 411
3 374 411 375
3 375 411 412
3 375 412 376
3 376 412 413
3 376 413 377
3 377 413 414
3 377 414 378
3 378 414 415
3 378 415 379
3 379 415 416
3 379 416 380
3 380 416 417
3 380 417 381
3 381 417 418
3 381 418 382
3 382 418 419
3 382 419 383
3 383 419 420
3 383 420 384
3 384 420 421
3 384 421 385
3 385 421 422
3 385 422 386
3 386 422 423
3 386 423 387
3 387 423 424
3 387 424 388
3 388 424 425
3 388 425 389
3 389 425 426
3 389 426 390
3 390 426 427
3 390 427 391
3 391 427 428
3 391 428 392
3 392 428 429
3 392 429 393
3 393 429 430
3 393 430 394
3 394 430 431
3 394 431 395
3 395 431 432
3 395 432 396
3 396 432 397
3 396 397 361
3 397 433 434
3 397 434 398
3 398 434 435
3 398 435 399
3 399 435 436
3 399 436 400
3 400 436 437
3 400 437 401
3 401 437 438
3 401 438 402
3 402 438 439
3 402 439 403
3 403 439 440
3 403 440 404
3 404 440 441
3 404 441 405
3 405 441 442
3 405 442 406
3 406 442 443
3 406 443 407
3 407 443 444
3 407 444 408
3 408 444 445
3 408 445 409
3 409 445 446
3 409 446 410
3 410 446 447
3 410 447 411
3 411 447 448
3 411 448 412
3 412 448 449
3 412 449 413
3 413 449 450
3 413 450 414
3 414 450 451
3 414 451 415
3 415 451 452
3 415 452 416
3 416 452 453
3 416 453 417
3 417 453 454
3 417 454 418
3 418 454 455
3 418 455 419
3 419 455 456
3 419 456 420
3 420 456 457
3 420 457 421
3 421 457 458
3 421 458 422
3 422 458 459
3 422 459 423
3 423 459 460
3 423 460 424
3 424 460 461
3 424 461 425
3 425 461 462
3 425 462 426
3 426 462 463
3 426 463 427
3 427 463 464
3 427 464 428
3 428 464 465
3 428 465 429
3 429 465 466
3 429 466 430
3 430 466 467
3 430 467 431
3 431 467 468
3 431 468 432
3 432 468 433
3 432 433 397
3 433 469 470
3 433 470 434
3 434 470 471
3 434 471 435
3 435 471 472
3 435 472 436
3 436 472 473
3 436 473 437
3 437 473 474
3 437 474 438
3 438 474 475
3 438 475 439
3 439 475 476
3 439 476 440
3 440 476 477
3 440 477 441
3 441 477 478
3 441 478 442
3 442 478 479
3 442 479 443
3 443 479 480
3 443 480 444
3 444 480 481
3 444 481 445
3 445 481 482
3 445 482 446
3 446 482 483
3 446 483 447
3 447 483 484
3 447 484 448
3 448 484 485
3 448 485 449
3 449 485 486
3 449 486 450
3 450 486 487
3 450 487 451
3 451 487 488
3 451 488 452
3 452 488 489
3 452 489 453
3 453 489 490
3 453 490 454
3 454 490 491
3 454 491 455
3 455 491 492
3 455 492 456
3 456 492 493
3 456 493 457
3 457 493 494
3 457 494 458
3 458 494 495
3 458 495 459
3 459 495 496
3 459 496 460
3 460 496 497
3 460 497 461
3 461 497 498
3 461 498 462
3 462 498 499
3 462 499 463
3 463 499 500
3 463 500 464
3 464 500 501
3 464 501 465
3 465 501 502
3 465 502 466
3 466 502 503
3 466 503 467
3 467 503 504
3 467 504 468
3 468 504 469
3 468 469 433
3 469 505 506
3 469 506 470
3 470 506 507
3 470 507 471
3 471 507 508
3 471 508 472
3 472 508 509
3 472 509 473
3 473 509 510
3 473 510 474
3 474 510 511
3 474 511 475
3 475 511 512
3 475 512 476
3 476 512 513
3 476 513 477
3 477 513 514
3 477 514 478
3 478 514 515
3 478 515 479
3 479 515 516
3 479 516 480
3 480 516 517
3 480 517 481
3 481 517 518
3 481 518 482
3 482 518 519
3 482 519 483
3 483 519 520
3 483 520 484
3 484 520 521
3 484 521 485
3 485 521 522
3 485 522 486
3 486 522 523
3 486 523 487
3 487 523 524
3 487 524 488
3 488 524 525
3 488 525 489
3 489 525 526
3 489 526 490
3 490 526 527
3 490 527 491
3 491 527 528
3 491 528 492
3 492 528 529
3 492 529 493
3 493 529 530
3 493 530 494
3 494 530 531
3 494 531 495
3 495 531 532
3 495 532 496
3 496 532 533
3 496 533 497
3 497 533 534
3 497 534 498
3 498 534 535
3 498 535 499
3 499 535 536
3 499 536 500
3 500 536 537
3 500 537 501
3 501 537 538
3 501 538 502
3 502 538 539
3 502 539 503
3 503 539 540
3 503 540 504
3 504 540 505
3 504 505 469
3 505 541 542
3 505 542 506
3 506 542 543
3 506 543 507
3 507 543 544
3 507 544 508
3 508 544 545
3 508 545 509
3 509 545 546
3 509 546 510
3 510 546 547
3 510 547 511
3 511 547 548
3 511 548 512
3 512 548 549
3 512 549 513
3 513 549 550
3 513 550 514
3 514 550 551
3 514 551 515
3 515 551 552
3 515 552 516
3 516 552 553
3 516 553 517
3 517 553 554
3 517 554 518
3 518 554 555
3 518 555 519
3 519 555 556
3 519 556 520
3 520 556 557
3 520 557 521
3 521 557 558
3 521 558 522
3 522 558 559
3 522 559 523
3 523 559 560
3 523 560 524
3 524 560 561
3 524 561 525
3 525 561 562
3 525 562 526
3 526 562 563
3 526 563 527
3 527 563 564
3 527 564 528
3 528 564 565
3 528 565 529
3 529 565 566
3 529 566 530
3 530 566 567
3 530 567 531
3 531 567 568
3 531 568 532
3 532 568 569
3 532 569 533
3 533 569 570
3 533 570 534
3 534 570 571
3 534 571 535
3 535 571 572
3 535 572 536
3 536 572 573
3 536 573 537
3 537 573 574
3 537 574 538
3 538 574 575
3 538 575 539
3 539 575 576
3 539 576 540
3 540 576 541
3 540 541 505
3 541 577 578
3 541 578 542
3 542 578 579
3 542 579 543
3 543 579 580
3 543 580 544
3 544 580 581
3 544 581 545
3 545 581 582
3 545 582 546
3 546 582 583
3 546 583 547
3 547 583 584
3 547 584 548
3 548 584 585
3 548 585 549
3 549 585 586
3 549 586 550
3 550 586 587
3 550 587 551
3 551 587 588
3 551 588 552
3 552 588 589
3 552 589 553
3 553 589 590
3 553 590 554
3 554 590 591
3 554 591 555
3 555 591 592
3 555 592 556
3 556 592 593
3 556 593 557
3 557 593 594
3 557 594 558
3 558 594 595
3 558 595 559
3 559 595 596
3 559 596 560
3 560 596 597
3 560 597 561
3 561 597 598
3 561 598 562
3 562 598 599
3 562 599 563
3 563 599 600
3 563 600 564
3 564 600 601
3 564 601 565
3 565 601 602
3 565 602 566
3 566 602 603
3 566 603 567
3 567 603 604
3 567 604 568
3 568 604 605
3 568 605 569
3 569 605 606
3 569 606 570
3 570 606 607
3 570 607 571
3 571 607 608
3 571 608 572
3 572 608 609
3 572 609 573
3 573 609 610
3 573 610 574
3 574 610 611
3 574 611 575
3 575 611 612
3 575 612 576
3 576 612 577
3 576 577 541
3 577 613 614
3 577 614 578
3 578 614 615
3 578 615 579
3 579 615 616
3 579 616 580
3 580 616 617
3 580 617 581
3 581 617 618
3 581 618 582
3 582 618 619
3 582 619 583
3 583 619 620
3 583 620 584
3 584 620 621
3 584 621 585
3 585 621 622
3 585 622 586
3 586 622 623
3 586 623 587
3 587 623 624
3 587 624 588
3 588 624 625
3 588 625 589
3 589 625 626
3 589 626 590
3 590 626 627
3 590 627 591
3 591 627 628
3 591 628 592
3 592 628 629
3 592 629 593
3 593 629 630
3 593 630 594
3 594 630 631
3 594 631 595
3 595 631 632
3 595 632 596
3 596 632 633
3 596 633 597
3 597 633 634
3 597 634 598
3 598 634 635
3 598 635 599
3 599 635 636
3 599 636 600
3 600 636 637
3 600 637 601
3 601 637 638
3 601 638 602
3 602 638 639
3 602 639 603
3 603 639 640
3 603 640 604
3 604 640 641
3 604 641 605
3 605 641 642
3 605 642 606
3 606 642 643
3 606 643 607
3 607 643 644
3 607 644 608
3 608 644 645
3 608 645 609
3 609 645 646
3 609 646 610
3 610 646 647
3 610 647 611
3 611 647 648
3 611 648 612
3 612 648 613
3 612 613 577
3 613 649 650
3 613 650 614
3 614 650 651
3 614 651 615
3 615 651 652
3 615 652 616
3 616 652 653
3 616 653 617
3 617 653 654
3 617 654 618
3 618 654 655
3 618 655 619
3 619 655 656
3 619 656 620
3 620 656 657
3 620 657 621
3 621 657 658
3 621 658 622
3 622 658 659
3 622 659 623
3 623 659 660
3 623 660 624
3 624 660 661
3 624 661 625
3 625 661 662
3 625 662 626
3 626 662 663
3 626 663 627
3 627 663 664
3 627 664 628
3 628 664 665
3 628 665 629
3 629 665 666
3 629 666 630
3 630 666 667
3 630 667 631
3 631 667 668
3 631 668 632
3 632 668 669
3 632 669 633
3 633 669 670
3 633 670 634
3 634 670 671
3 634 671 635
3 635 671 672
3 635 672 636
3 636 672 673
3 636 673 637
3 637 673 674
3 637 674 638
3 638 674 675
3 638 675 639
3 639 675 676
3 639 676 640
3 640 676 677
3 640 677 641
3 641 677 678
3 641 678 642
3 642 678 679
3 642 679 643
3 643 679 680
3 643 680 644
3 644 680 681
3 644 681 645
3 645 681 682
3 645 682 646
3 646 682 683
3 646 683 647
3 647 683 684
3 647 684 648
3 648 684 649
3 648 649 613
3 649 685 686
3 649 686 650
3 650 686 687
3 650 687 651
3 651 687 688
3 651 688 652
3 652 688 689
3 652 689 653
3 653 689 690
3 653 690 654
3 654 690 691
3 654 691 655
3 655 691 692
3 655 692 656
3 656 692 693
3 656 693 657
3 657 693 694
3 657 694 658
3 658 694 695
3 658 695 659
3 659 695 696
3 659 696 660
3 660 696 697
3 660 697 661
3 661 697 698
3 661 698 662
3 662 698 699
3 662 699 663
3 663 699 700
3 663 700 664
3 664 700 701
3 664 701 665
3 665 701 702
3 665 702 666
3 666 702 703
3 666 703 667
3 667 703 704
3 667 704 668
3 668 704 705
3 668 705 669
3 669 705 706
3 669 706 670
3 670 706 707
3 670 707 671
3 671 707 708
3 671 708 672
3 672 708 709
3 672 709 673
3 673 709 710
3 673 710 674
3 674 710 711
3 674 711 675
3 675 711 712
3 675 712 676
3 676 712 713
3 676 713 677
3 677 713 714
3 677 714 678
3 678 714 715
3 678 715 679
3 679 715 716
3 679 716 680
3 680 716 717
3 680 717 681
3 681 717 718
3 681 718 682
3 682 718 719
3 682 719 683
3 683 719 720
3 683 720 684
3 684 720 685
3 684 685 649
3 685 721 722
3 685 722 686
3 686 722 723
3 686 723 687
3 687 723 724
3 687 724 688
3 688 724 725
3 688 725 689
3 689 725 726
3 689 726 690
3 690 726 727
3 690 727 691
3 691 727 728
3 691 728 692
3 692 728 729
3 692 729 693
3 693 729 730
3 693 730 694
3 694 730 731
3 694 731 695
3 695 731 732
3 695 732 696
3 696 732 733
3 696 733 697
3 697 733 734
3 697 734 698
3 698 734 735
3 698 735 699
3 699 735 736
3 699 736 700
3 700 736 737
3 700 737 701
3 701 737 738
3 701 738 702
3 702 738 739
3 702 739 703
3 703 739 740
3 703 740 704
3 704 740 741
3 704 741 705
3 705 741 742
3 705 742 706
3 706 742 743
3 706 743 707
3 707 743 744
3 707 744 708
3 708 744 745
3 708 745 709
3 709 745 746
3 709 746 710
3 710 746 747
3 710 747 711
3 711 747 748
3 711 748 712
3 712 748 749
3 712 749 713
3 713 749 750
3 713 750 714
3 714 750 751
3 714 751 715
3 715 751 752
3 715 752 716
3 716 752 753
3 716 753 717
3 717 753 754
3 717 754 718
3 718 754 755
3 718 755 719
3 719 755 756
3 719 756 720
3 720 756 721
3 720 721 685
3 721 757 758
3 721 758 722
3 722 758 759
3 722 759 723
3 723 759 760
3 723 760 724
3 724 760 761
3 724 761 725
3 725 761 762
3 725 762 726
3 726 762 763
3 726 763 727
3 727 763 764
3 727 764 728
3 728 764 765
3 728 765 729
3 729 765 766
3 729 766 730
3 730 766 767
3 730 767 731
3 731 767 768
3 731 768 732
3 732 768 769
3 732 769 733
3 733 769 770
3 733 770 734
3 734 770 771
3 734 771 735
3 735 771 772
3 735 772 736
3 736 772 773
3 736 773 737
3 737 773 774
3 737 774 738
3 738 774 775
3 738 775 739
3 739 775 776
3 739 776 740
3 740 776 777
3 740 777 741
3 741 777 778
3 741 778 742
3 742 778 779
3 742 779 743
3 743 779 780
3 743 780 744
3 744 780 781
3 744 781 745
3 745 781 782
3 745 782 746
3 746 782 783
3 746 783 747
3 747 783 784
3 747 784 748
3 748 784 785
3 748 785 749
3 749 785 786
3 749 786 750
3 750 786 787
3 750 787 751
3 751 787 788
3 751 788 752
3 752 788 789
3 752 789 753
3 753 789 790
3 753 790 754
3 754 790 791
3 754 791 755
3 755 791 792
3 755 792 756
3 756 792 757
3 756 757 721
3 757 793 794
3 757 794 758
3 758 794 795
3 758 795 759
3 759 795 796
3 759 796 760
3 760 796 797
3 760 797 761
3 761 797 798
3 761 798 762
3 762 798 799
3 762 799 763
3 763 799 800
3 763 800 764
3 764 800 801
3 764 801 765
3 765 801 802
3 765 802 766
3 766 802 803
3 766 803 767
3 767 803 804
3 767 804 768
3 768 804 805
3 768 805 769
3 769 805 806
3 769 806 770
3 770 806 807
3 770 807 771
3 771 807 808
3 771 808 772
3 772 808 809
3 772 809 773
3 773 809 810
3 773 810 774
3 774 810 811
3 774 811 775
3 775 811 812
3 775 812 776
3 776 812 813
3 776 813 777
3 777 813 814
3 777 814 778
3 778 814 815
3 778 815 779
3 779 815 816
3 779 816 780
3 780 816 817
3 780 817 781
3 781 817 818
3 781 818 782
3 782 818 819
3 782 819 783
3 783 819 820
3 783 820 784
3 784 820 821
3 784 821 785
3 785 821 822
3 785 822 786
3 786 822 823
3 786 823 787
3 787 823 824
3 787 824 788
3 788 824 825
3 788 825 789
3 789 825 826
3 789 826 790
3 790 826 827
3 790 827 791
3 791 827 828
3 791 828 792
3 792 828 793
3 792 793 757
3 793 829 830
3 793 830 794
3 794 830 831
3 794 831 795
3 795 831 832
3 795 832 796
3 796 832 833
3 796 833 797
3 797 833 834
3 797 834 798
3 798 834 835
3 798 835 799
3 799 835 836
3 799 836 800
3 800 836 837
3 800 837 801
3 801 837 838
3 801 838 802
3 802 838 839
3 802 839 803
3 803 839 840
3 803 840 804
3 804 840 841
3 804 841 805
3 805 841 842
3 805 842 806
3 806 842 843
3 806 843 807
3 807 843 844
3 807 844 808
3 808 844 845
3 808 845 809
3 809 845 846
3 809 846 810
3 810 846 847
3 810 847 811
3 811 847 848
3 811 848 812
3 812 848 849
3 812 849 813
3 813 849 850
3 813 850 814
3 814 850 851
3 814 851 815
3 815 851 852
3 815 852 816
3 816 852 853
3 816 853 817
3 817 853 854
3 817 854 818
3 818 854 855
3 818 855 819
3 819 855 856
3 819 856 820
3 820 856 857
3 820 857 821
3 821 857 858
3 821 858 822
3 822 858 859
3 822 859 823
3 823 859 860
3 823 860 824
3 824 860 861
3 824 861 825
3 825 861 862
3 825 862 826
3 826 862 863
3 826 863 827
3 827 863 864
3 827 864 828
3 828 864 829
3 828 829 793
3 829 865 866
3 829 866 830
3 830 866 867
3 830 867 831
3 831 867 868
3 831 868 832
3 832 868 869
3 832 869 833
3 833 869 870
3 833 870 834
3 834 870 871
3 834 871 835
3 835 871 872
3 835 872 836
3 836 872 873
3 836 873 837
3 837 873 874
3 837 874 838
3 838 874 875
3 838 875 839
3 839 875 876
3 839 876 840
3 840 876 877
3 840 877 841
3 841 877 878
3 841 878 842
3 842 878 879
3 842 879 843
3 843 879 880
3 843 880 844
3 844 880 881
3 844 881 845
3 845 881 882
3 845 882 846
3 846 882 883
3 846 883 847
3 847 883 884
3 847 884 848
3 848 884 885
3 848 885 849
3 849 885 886
3 849 886 850
3 850 886 887
3 850 887 851
3 851 887 888
3 851 888 852
3 852 888 889
3 852 889 853
3 853 889 890
3 853 890 854
3 854 890 891
3 854 891 855
3 855 891 892
3 855 892 856
3 856 892 893
3 856 893 857
3 857 893 894
3 857 894 858
3 858 894 895
3 858 895 859
3 859 895 896
3 859 896 860
3 860 896 897
3 860 897 861
3 861 897 898
3 861 898 862
3 862 898 899
3 862 899 863
3 863 899 900
3 863 900 864
3 864 900 865
3 864 865 829
3 865 901 902
3 865 902 866
3 866 902 903
3 866 903 867
3 867 903 904
3 867 904 868
3 868 904 905
3 868 905 869
3 869 905 906
3 869 906 870
3 870 906 907
3 870 907 871
3 871 907 908
3 871 908 872
3 872 908 909
3 872 909 873
3 873 909 910
3 873 910 874
3 874 910 911
3 874 911 875
3 875 911 912
3 875 912 876
3 876 912 913
3 876 913 877
3 877 913 914
3 877 914 878
3 878 914 915
3 878 915 879
3 879 915 916
3 879 916 880
3 880 916 917
3 880 917 881
3 881 917 918
3 881 918 882
3 882 918 919
3 882 919 883
3 883 919 920
3 883 920 884
3 884 920 921
3 884 921 885
3 885 921 922
3 885 922 886
3 886 922 923
3 886 923 887
3 887 923 924
3 887 924 888
3 888 924 925
3 888 925 889
3 889 925 926
3 889 926 890
3 890 926 927
3 890 927 891
3 891 927 928
3 891 928 892
3 892 928 929
3 892 929 893
3 893 929 930
3 893 930 894
3 894 930 931
3 894 931 895
3 895 931 932
3 895 932 896
3 896 932 933
3 896 933 897
3 897 933 934
3 897 934 898
3 898 934 935
3 898 935 899
3 899 935 936
3 899 936 900
3 900 936 901
3 900 901 865
3 901 937 938
3 901 938 902
3 902 938 939
3 902 939 903
3 903 939 940
3 903 940 904
3 904 940 941
3 904 941 905
3 905 941 942
3 905 942 906
3 906 942 943
3 906 943 907
3 907 943 944
3 907 944 908
3 908 944 945
3 908 945 909
3 909 945 946
3 909 946 910
3 910 946 947
3 910 947 911
3 911 947 948
3 911 948 912
3 912 948 949
3 912 949 913
3 913 949 950
3 913 950 914
3 914 950 951
3 914 951 915
3 915 951 952
3 915 952 916
3 916 952 953
3 916 953 917
3 917 953 954
3 917 954 918
3 918 954 955
3 918 955 919
3 919 955 956
3 919 956 920
3 920 956 957
3 920 957 921
3 921 957 958
3 921 958 922
3 922 958 959
3 922 959 923
3 923 959 960
3 923 960 924
3 924 960 961
3 924 961 925
3 925 961 962
3 925 962 926
3 926 962 963
3 926 963 927
3 927 963 964
3 927 964 928
3 928 964 965
3 928 965 929
3 929 965 966
3 929 966 930
3 930 966 967
3 930 967 931
3 931 967 968
3 931 968 932
3 932 968 969
3 932 969 933
3 933 969 970
3 933 970 934
3 934 970 971
3 934 971 935
3 935 971 972
3 935 972 936
3 936 972 937
3 936 937 901
3 937 973 974
3 937 974 938
3 938 974 975
3 938 975 939
3 939 975 976
3 939 976 940
3 940 976 977
3 940 977 941
3 941 977 978
3 941 978 942
3 942 978 979
3 942 979 943
3 943 979 980
3 943 980 944
3 944 980 981
3 944 981 945
3 945 981 982
3 945 982 946
3 946 982 983
3 946 983 947
3 947 983 984
3 947 984 948
3 948 984 985
3 948 985 949
3 949 985 986
3 949 986 950
3 950 986 987
3 950 987 951
3 951 987 988
3 951 988 952
3 952 988 989
3 952 989 953
3 953 989 990
3 953 990 954
3 954 990 991
3 954 991 955
3 955 991 992
3 955 992 956
3 956 992 993
3 956 993 957
3 957 993 994
3 957 994 958
3 958 994 995
3 958 995 959
3 959 995 996
3 959 996 960
3 960 996 997
3 960 997 961
3 961 997 998
3 961 998 962
3 962 998 999
3 962 999 963
3 963 999 1000
3 963 1000 964
3 964 1000 1001
3 964 1001 965
3 965 1001 1002
3 965 1002 966
3 966 1002 1003
3 966 1003 967
3 967 1003 1004
3 967 1004 968
3 968 1004 1005
3 968 1005 969
3 969 1005 1006
3 969 1006 970
3 970 1006 1007
3 970 1007 971
3 971 1007 1008
3 971 1008 972
3 972 1008 973
3 972 973 937
3 973 1009 1010
3 973 1010 974
3 974 1010 1011
3 974 1011 975
3 975 1011 1012
3 975 1012 976
3 976 1012 1013
3 976 1013 977
3 977 1013 1014
3 977 1014 978
3 978 1014 1015
3 978 1015 979
3 979 1015 1016
3 979 1016 980
3 980 1016 1017
3 980 1017 981
3 981 1017 1018
3 981 1018 982
3 982 1018 1019
3 982 1019 983
3 983 1019 1020
3 983 1020 984
3 984 1020 1021
3 984 1021 985
3 985 1021 1022
3 985 1022 986
3 986 1022 1023
3 986 1023 987
3 987 1023 1024
3 987 1024 988
3 988 1024 1025
3 988 1025 989
3 989 1025 1026
3 989 1026 990
3 990 1026 1027
3 990 1027 991
3 991 1027 1028
3 991 1028 992
3 992 1028 1029
3 992 1029 993
3 993 1029 1030
3 993 1030 994
3 994 1030 1031
3 994 1031 995
3 995 1031 1032
3 995 1032 996
3 996 1032 1033
3 996 1033 997
3 997 1033 1034
3 997 1034 998
3 998 1034 1035
3 998 1035 999
3 999 1035 1036
3 999 1036 1000
3 1000 1036 1037
3 1000 1037 1001
3 1001 1037 1038
3 1001 1038 1002
3 1002 1038 1039
3 1002 1039 1003
3 1003 1039 1040
3 1003 1040 1004
3 1004 1040 1041
3 1004 1041 1005
3 1005 1041 1042
3 1005 1042 1006
3 1006 1042 1043
3 1006 1043 1007
3 1007 1043 1044
3 1007 1044 1008
3 1008 1044 1009
3 1008 1009 973
3 1009 1045 1046
3 1009 1046 1010
3 1010 1046 1047
3 1010 1047 1011
3 1011 1047 1048
3 1011 1048 1012
3 1012 1048 1049
3 1012 1049 1013
3 1013 1049 1050
3 1013 1050 1014
3 1014 1050 1051
3 1014 1051 1015
3 1015 1051 1052
3 1015 1052 1016
3 1016 1052 1053
3 1016 1053 1017
3 1017 1053 1054
3 1017 1054 1018
3 1018 1054 1055
3 1018 1055 1019
3 1019 1055 1056
3 1019 1056 1020
3 1020 1056 1057
3 1020 1057 1021
3 1021 1057 1058
3 1021 1058 1022
3 1022 1058 1059
3 1022 1059 1023
3 1023 1059 1060
3 1023 1060 1024
3 1024 1060 1061
3 1024 1061 1025
3 1025 1061 1062
3 1025 1062 1026
3 1026 1062 1063
3 1026 1063 1027
3 1027 1063 1064
3 1027 1064 1028
3 1028 1064 1065
3 1028 1065 1029
3 1029 1065 1066
3 1029 1066 1030
3 1030 1066 1067
3 1030 1067 1031
3 1031 1067 1068
3 1031 1068 1032
3 1032 1068 1069
3 1032 1069 1033
3 1033 1069 1070
3 1033 1070 1034
3 1034 1070 1071
3 1034 1071 1035
3 1035 1071 1072
3 1035 1072 1036
3 1036 1072 1073
3 1036 1073 1037
3 1037 1073 1074
3 1037 1074 1038
3 1038 1074 1075
3 1038 1075 1039
3 1039 1075 1076
3 1039 1076 1040
3 1040 1076 1077
3 1040 1077 1041
3 1041 1077 1078
3 1041 1078 1042
3 1042 1078 1079
3 1042 1079 1043
3 1043 1079 1080
3 1043 1080 1044
3 1044 1080 1045
3 1044 1045 1009
3 1045 1081 1082
3 1045 1082 1046
3 1046 1082 1083
3 1046 1083 1047
3 1047 1083 1084
3 1047 1084 1048
3 1048 1084 1085
3 1048 1085 1049
3 1049 1085 1086
3 1049 1086 1050
3 1050 1086 1087
3 1050 1087 1051
3 1051 1087 1088
3 1051 1088 1052
3 1052 1088 1089
3 1052 1089 1053
3 1053 1089 1090
3 1053 1090 1054
3 1054 1090 1091
3 1054 1091 1055
3 1055 1091 1092
3 1055 1092 1056
3 1056 1092 1093
3 1056 1093 1057
3 1057 1093 1094
3 1057 1094 1058
3 1058 1094 1095
3 1058 1095 1059
3 1059 1095 1096
3 1059 1096 1060
3 1060 1096 1097
3 1060 1097 1061
3 1061 1097 1098
3 1061 1098 1062
3 1062 1098 1099
3 1062 1099 1063
3 1063 1099 1100
3 1063 1100 1064
3 1064 1100 1101
3 1064 1101 1065
3 1065 1101 1102
3 1065 1102 1066
3 1066 1102 1103
3 1066 1103 1067
3 1067 1103 1104
3 1067 1104 1068
3 1068 1104 1105
3 1068 1105 1069
3 1069 1105 1106
3 1069 1106 1070
3 1070 1106 1107
3 1070 1107 1071
3 1071 1107 1108
3 1071 1108 1072
3 1072 1108 1109
3 1072 1109 1073
3 1073 1109 1110
3 1073 1110 1074
3 1074 1110 1111
3 1074 1111 1075
3 1075 1111 1112
3 1075 1112 1076
3 1076 1112 1113
3 1076 1113 1077
3 1077 1113 1114
3 1077 1114 1078
3 1078 1114 1115
3 1078 1115 1079
3 1079 1115 1116
3 1079 1116 1080
3 1080 1116 1081
3 1080 1081 1045
3 1081 1117 1118
3 1081 1118 1082
3 1082 1118 1119
3 1082 1119 1083
3 1083 1119 1120
3 1083 1120 1084
3 1084 1120 1121
3 1084 1121 1085
3 1085 1121 1122
3 1085 1122 1086
3 1086 1122 1123
3 1086 1123 1087
3 1087 1123 1124
3 1087 1124 1088
3 1088 1124 1125
3 1088 1125 1089
3 1089 1125 1126
3 1089 1126 1090
3 1090 1126 1127
3 1090 1127 1091
3 1091 1127 1128
3 1091 1128 1092
3 1092 1128 1129
3 1092 1129 1093
3 1093 1129 1130
3 1093 1130 1094
3 1094 1130 1131
3 1094 1131 1095
3 1095 1131 1132
3 1095 1132 1096
3 1096 1132 1133
3 1096 1133 1097
3 1097 1133 1134
3 1097 1134 1098
3 1098 1134 1135
3 1098 1135 1099
3 1099 1135 1136
3 1099 1136 1100
3 1100 1136 1137
3 1100 1137 1101
3 1101 1137 1138
3 1101 1138 1102
3 1102 1138 1139
3 1102 1139 1103
3 1103 1139 1140
3 1103 1140 1104
3 1104 1140 1141
3 1104 1141 1105
3 1105 1141 1142
3 1105 1142 1106
3 1106 1142 1143
3 1106 1143 1107
3 1107 1143 1144
3 1107 1144 1108
3 1108 1144 1145
3 1108 1145 1109
3 1109 1145 1146
3 1109 1146 1110
3 1110 1146 1147
3 1110 1147 1111
3 1111 1147 1148
3 1111 1148 1112
3 1112 1148 1149
3 1112 1149 1113
3 1113 1149 1150
3 1113 1150 1114
3 1114 1150 1151
3 1114 1151 1115
3 1115 1151 1152
3 1115 1152 1116
3 1116 1152 1117
3 1116 1117 1081
3 1117 1153 1154
3 1117 1154 1118
3 1118 1154 1155
3 1118 1155 1119
3 1119 1155 1156
3 1119 1156 1120
3 1120 1156 1157
3 1120 1157 1121
3 1121 1157 1158
3 1121 1158 1122
3 1122 1158 1159
3 1122 1159 1123
3 1123 1159 1160
3 1123 1160 1124
3 1124 1160 1161
3 1124 1161 1125
3 1125 1161 1162
3 1125 1162 1126
3 1126 1162 1163
3 1126 1163 1127
3 1127 1163 1164
3 1127 1164 1128
3 1128 1164 1165
3 1128 1165 1129
3 1129 1165 1166
3 1129 1166 1130
3 1130 1166 1167
3 1130 1167 1131
3 1131 1167 1168
3 1131 1168 1132
3 1132 1168 1169
3 1132 1169 1133
3 1133 1169 1170
3 1133 1170 1134
3 1134 1170 1171
3 1134 1171 1135
3 1135 1171 1172
3 1135 1172 1136
3 1136 1172 1173
3 1136 1173 1137
3 1137 1173 1174
3 1137 1174 1138
3 1138 1174 1175
3 1138 1175 1139
3 1139 1175 1176
3 1139 1176 1140
3 1140 1176 1177
3 1140 1177 1141
3 1141 1177 1178
3 1141 1178 1142
3 1142 1178 1179
3 1142 1179 1143
3 1143 1179 1180
3 1143 1180 1144
3 1144 1180 1181
3 1144 1181 1145
3 1145 1181 1182
3 1145 1182 1146
3 1146 1182 1183
3 1146 1183 1147
3 1147 1183 1184
3 1147 1184 1148
3 1148 1184 1185
3 1148 1185 1149
3 1149 1185 1186
3 1149 1186 1150
3 1150 1186 1187
3 1150 1187 1151
3 1151 1187 1188
3 1151 1188 1152
3 1152 1188 1153
3 1152 1153 1117
3 1153 1189 1190
3 1153 1190 1154
3 1154 1190 1191
3 1154 1191 1155
3 1155 1191 1192
3 1155 1192 1156
3 1156 1192 1193
3 1156 1193 1157
3 1157 1193 1194
3 1157 1194 1158
3 1158 1194 1195
3 1158 1195 1159
3 1159 1195 1196
3 1159 1196 1160
3 1160 1196 1197
3 1160 1197 1161
3 1161 1197 1198
3 1161 1198 1162
3 1162 1198 1199
3 1162 1199 1163
3 1163 1199 1200
3 1163 1200 1164
3 1164 1200 1201
3 1164 1201 1165
3 1165 1201 1202
3 1165 1202 1166
3 1166 1202 1203
3 1166 1203 1167
3 1167 1203 1204
3 1167 1204 1168
3 1168 1204 1205
3 1168 1205 1169
3 1169 1205 1206
3 1169 1206 1170
3 1170 1206 1207
3 1170 1207 1171
3 1171 1207 1208
3 1171 1208 1172
3 1172 1208 1209
3 1172 1209 1173
3 1173 1209 1210
3 1173 1210 1174
3 1174 1210 1211
3 1174 1211 1175
3 1175 1211 1212
3 1175 1212 1176
3 1176 1212 1213
3 1176 1213 1177
3 1177 1213 1214
3 1177 1214 1178
3 1178 1214 1215
3 1178 1215 1179
3 1179 1215 1216
3 1179 1216 1180
3 1180 1216 1217
3 1180 1217 1181
3 1181 1217 1218
3 1181 1218 1182
3 1182 1218 1219
3 1182 1219 1183
3 1183 1219 1220
3 1183 1220 1184
3 1184 1220 1221
3 1184 1221 1185
3 1185 1221 1222
3 1185 1222 1186
3 1186 1222 1223
3 1186 1223 1187
3 1187 1223 1224
3 1187 1224 1188
3 1188 1224 1189
3 1188 1189 1153
3 1189 1225 1226
3 1189 1226 1190
3 1190 1226 1227
3 1190 1227 1191
3 1191 1227 1228
3 1191 1228 1192
3 1192 1228 1229
3 1192 1229 1193
3 1193 1229 1230
3 1193 1230 1194
3 1194 1230 1231
3 1194 1231 1195
3 1195 1231 1232
3 1195 1232 1196
3 1196 1232 1233
3 1196 1233 1197
3 1197 1233 1234
3 1197 1234 1198
3 1198 1234 1235
3 1198 1235 1199
3 1199 1235 1236
3 1199 1236 1200
3 1200 1236 1237
3 1200 1237 1201
3 1201 1237 1238
3 1201 1238 1202
3 1202 1238 1239
3 1202 1239 1203
3 1203 1239 1240
3 1203 1240 1204
3 1204 1240 1241
3 1204 1241 1205
3 1205 1241 1242
3 1205 1242 1206
3 1206 1242 1243
3 1206 1243 1207
3 1207 1243 1244
3 1207 1244 1208
3 1208 1244 1245
3 1208 1245 1209
3 1209 1245 1246
3 1209 1246 1210
3 1210 1246 1247
3 1210 1247 1211
3 1211 1247 1248
3 1211 1248 1212
3 1212 1248 1249
3 1212 1249 1213
3 1213 1249 1250
3 1213 1250 1214
3 1214 1250 1251
3 1214 1251 1215
3 1215 1251 1252
3 1215 1252 1216
3 1216 1252 1253
3 1216 1253 1217
3 1217 1253 1254
3 1217 1254 1218
3 1218 1254 1255
3 1218 1255 1219
3 1219 1255 1256
3 1219 1256 1220
3 1220 1256 1257
3 1220 1257 1221
3 1221 1257 1258
3 1221 1258 1222
3 1222 1258 1259
3 1222 1259 1223
3 1223 1259 1260
3 1223 1260 1224
3 1224 1260 1225
3 1224 1225 1189
3 1225 1261 1262
3 1225 1262 1226
3 1226 1262 1263
3 1226 1263 1227
3 1227 1263 1264
3 1227 1264 1228
3 1228 1264 1265
3 1228 1265 1229
3 1229 1265 1266
3 1229 1266 1230
3 1230 1266 1267
3 1230 1267 1231
3 1231 1267 1268
3 1231 1268 1232
3 1232 1268 1269
3 1232 1269 1233
3 1233 1269 1270
3 1233 1270 1234
3 1234 1270 1271
3 1234 1271 1235
3 1235 1271 1272
3 1235 1272 1236
3 1236 1272 1273
3 1236 1273 1237
3 1237 1273 1274
3 1237 1274 1238
3 1238 1274 1275
3 1238 1275 1239
3 1239 1275 1276
3 1239 1276 1240
3 1240 1276 1277
3 1240 1277 1241
3 1241 1277 1278
3 1241 1278 1242
3 1242 1278 1279
3 1242 1279 1243
3 1243 1279 1280
3 1243 1280 1244
3 1244 1280 1281
3 1244 1281 1245
3 1245 1281 1282
3 1245 1282 1246
3 1246 1282 1283
3 1246 1283 1247
3 1247 1283 1284
3 1247 1284 1248
3 1248 1284 1285
3 1248 1285 1249
3 1249 1285 1286
3 1249 1286 1250
3 1250 1286 1287
3 1250 1287 1251
3 1251 1287 1288
3 1251 1288 1252
3 1252 1288 1289
3 1252 1289 1253
3 1253 1289 1290
3 1253 1290 1254
3 1254 1290 1291
3 1254 1291 1255
3 1255 1291 1292
3 1255 1292 1256
3 1256 1292 1293
3 1256 1293 1257
3 1257 1293 1294
3 1257 1294 1258
3 1258 1294 1295
3 1258 1295 1259
3 1259 1295 1296
3 1259 1296 1260
3 1260 1296 1261
3 1260 1261 1225
