ply 
format ascii 1.0 
comment this is a surface 
element vertex 1297 
property float x 
property float y 
property float z 
element face 2556 
property list uchar int vertex_index 
end_header 
33.999239 0.014890 -0.013796
33.979378 0.742005 -0.012235
33.984356 0.694817 -0.069982
33.994938 0.613051 -0.162165
34.009396 0.507730 -0.276868
34.025990 0.389876 -0.402171
34.042995 0.270512 -0.526157
34.058674 0.160663 -0.636908
34.071297 0.071350 -0.722506
34.079128 0.013597 -0.771033
34.080292 -0.013016 -0.770972
34.073650 -0.066553 -0.721850
34.061043 -0.148504 -0.635247
34.044613 -0.248964 -0.523343
34.026505 -0.358024 -0.398321
34.008862 -0.465780 -0.272361
33.993820 -0.562325 -0.157647
33.983532 -0.637751 -0.066358
33.980137 -0.682153 -0.010678
33.983822 -0.685542 0.010128
33.984646 -0.645243 0.061784
33.981846 -0.571009 0.146061
33.976574 -0.473536 0.251861
33.969986 -0.363521 0.368083
33.963242 -0.251657 0.483631
33.957489 -0.148642 0.587404
33.953884 -0.065170 0.668303
33.953579 -0.011937 0.715230
33.957134 0.012415 0.717390
33.961594 0.069194 0.673860
33.966148 0.158950 0.595200
33.970528 0.270141 0.492594
33.974468 0.391230 0.377225
33.977699 0.510675 0.260278
33.979950 0.616937 0.152937
33.980953 0.698477 0.066384
33.980442 0.743753 0.011805
33.497440 2.133517 -0.064993
33.515259 2.007184 -0.276967
33.561024 1.794122 -0.572124
33.626511 1.519017 -0.919099
33.703495 1.206553 -1.286530
33.783760 0.881414 -1.643052
33.859085 0.568285 -1.957301
33.921246 0.291852 -2.197914
33.962025 0.076798 -2.333527
33.970474 -0.074097 -2.333272
33.930355 -0.269601 -2.193110
33.851997 -0.512087 -1.944398
33.749386 -0.782250 -1.620701
33.636505 -1.060783 -1.255585
33.527344 -1.328377 -0.882616
33.435883 -1.565727 -0.535361
33.376106 -1.753526 -0.247385
33.362000 -1.872466 -0.052254
33.396832 -1.899990 0.049681
33.426384 -1.814203 0.226126
33.443951 -1.635777 0.481792
33.453106 -1.390517 0.788394
33.457428 -1.104226 1.117648
33.460487 -0.802707 1.441270
33.465862 -0.511763 1.730973
33.477127 -0.257199 1.958475
33.497860 -0.064817 2.095490
33.528259 0.066677 2.113566
33.550831 0.272918 2.004901
33.563633 0.552265 1.795980
33.568012 0.875853 1.515846
33.565311 1.214815 1.193541
33.556873 1.540287 0.858107
33.544044 1.823402 0.538588
33.528168 2.035294 0.264023
33.510586 2.147098 0.063458
32.630199 3.392687 -0.146905
32.664429 3.207172 -0.551096
32.758972 2.901548 -1.064449
32.896404 2.504957 -1.641352
33.059292 2.046543 -2.236191
33.230209 1.555448 -2.803354
33.391731 1.060815 -3.297228
33.526432 0.591786 -3.672200
33.616882 0.177506 -3.882656
33.638039 -0.171731 -3.882761
33.545685 -0.544262 -3.661900
33.363167 -0.940997 -3.267069
33.123566 -1.344489 -2.749524
32.859951 -1.737288 -2.160520
32.605392 -2.101946 -1.551314
32.392967 -2.421013 -0.973160
32.255745 -2.677043 -0.477313
32.226803 -2.852584 -0.115030
32.315117 -2.920770 0.109386
32.399086 -2.826850 0.430813
32.461826 -2.593082 0.856242
32.509418 -2.253279 1.346204
32.547947 -1.841255 1.861231
32.583500 -1.390822 2.361851
32.622154 -0.935793 2.808597
32.669994 -0.509981 3.162000
32.733105 -0.147200 3.382589
32.809799 0.150798 3.429026
32.859211 0.540452 3.281005
32.878826 1.014601 2.974838
32.873875 1.533791 2.552083
32.849586 2.058567 2.054297
32.811188 2.549474 1.523037
32.763908 2.967056 0.999860
32.712971 3.271860 0.526322
32.663605 3.424429 0.143984
31.450712 4.508703 -0.247700
31.504576 4.283560 -0.865706
31.655396 3.919006 -1.600976
31.875397 3.441810 -2.398056
32.136803 2.878742 -3.201490
32.411835 2.256569 -3.955826
32.672718 1.602063 -4.605608
32.891674 0.941991 -5.095382
33.040932 0.303124 -5.369692
33.078773 -0.293707 -5.371495
32.925251 -0.864567 -5.081159
32.618950 -1.407107 -4.557631
32.215893 -1.913846 -3.866495
31.772097 -2.377301 -3.073334
31.343575 -2.789993 -2.243731
30.986347 -3.144438 -1.443268
30.756428 -3.433157 -0.737528
30.709839 -3.648665 -0.192097
30.862747 -3.766100 0.182553
31.014299 -3.690050 0.659019
31.135229 -3.437566 1.246100
31.234137 -3.044908 1.898322
31.319620 -2.548335 2.570215
31.400288 -1.984106 3.216306
31.484734 -1.388483 3.791123
31.581566 -0.797721 4.249197
31.699383 -0.248085 4.545051
31.833584 0.253517 4.628674
31.914320 0.843832 4.462934
31.938971 1.508116 4.088861
31.918205 2.201943 3.555985
31.862686 2.880882 2.913838
31.783083 3.500506 2.211951
31.690063 4.016383 1.499856
31.594294 4.384089 0.827081
31.506441 4.559189 0.243162
30.032026 5.470753 -0.357103
30.108404 5.225123 -1.194137
30.316898 4.830172 -2.143542
30.619814 4.305834 -3.143643
30.979456 3.672043 -4.132763
31.358130 2.948735 -5.049227
31.718140 2.155843 -5.831357
32.021793 1.313303 -6.417480
32.231396 0.441048 -6.745916
32.288483 -0.427811 -6.751529
32.074669 -1.204548 -6.403827
31.643734 -1.882292 -5.770457
31.075104 -2.468489 -4.928299
30.448202 -2.970584 -3.954236
29.842457 -3.396025 -2.925147
29.337292 -3.752255 -1.917915
29.012133 -4.046722 -1.009419
28.946405 -4.286870 -0.276543
29.163790 -4.454199 0.262491
29.383577 -4.410667 0.893921
29.563925 -4.163870 1.628054
29.715887 -3.748486 2.417778
29.850513 -3.199192 3.215985
29.978861 -2.550665 3.975562
30.111982 -1.837583 4.649398
30.260929 -1.094624 5.190384
30.436758 -0.356464 5.551408
30.631441 0.363572 5.677415
30.743753 1.155093 5.511451
30.771318 1.994971 5.095134
30.731083 2.838295 4.482232
30.639994 3.640159 3.726510
30.514997 4.355652 2.881737
30.373039 4.939867 2.001678
30.231070 5.347894 1.140100
30.106031 5.534823 0.350770
28.447197 6.268024 -0.464843
28.548628 6.020639 -1.509726
28.810089 5.618723 -2.653982
29.185974 5.073288 -3.832544
29.630674 4.395343 -4.980345
30.098585 3.595900 -6.032318
30.544100 2.685968 -6.923396
30.921608 1.676558 -7.588513
31.185505 0.578682 -7.962599
31.262957 -0.561831 -7.974920
30.999552 -1.538234 -7.582846
30.461908 -2.338424 -6.859919
29.749931 -2.986585 -5.891620
28.963528 -3.506898 -4.763432
28.202604 -3.923548 -3.560840
27.567070 -4.260718 -2.369326
27.156834 -4.542593 -1.274371
27.071798 -4.793354 -0.361463
27.342312 -5.003285 0.342509
27.618469 -4.995568 1.118692
27.847677 -4.766639 1.978793
28.043297 -4.347100 2.877605
28.218695 -3.767553 3.769925
28.387232 -3.058602 4.610547
28.562269 -2.250847 5.354267
28.757172 -1.374891 5.955882
28.985300 -0.461339 6.370182
29.235203 0.469701 6.540155
29.375103 1.446272 6.387316
29.403116 2.437322 5.950743
29.342598 3.400836 5.285501
29.216898 4.294796 4.446657
29.049368 5.077185 3.489278
28.863361 5.705989 2.468430
28.682226 6.139192 1.439177
28.529318 6.334773 0.456589
26.769276 6.889704 -0.560645
26.897957 6.658885 -1.785812
27.201578 6.268337 -3.094132
27.630201 5.720432 -4.419190
28.133886 5.017536 -5.694572
28.662697 4.162019 -6.853860
29.166693 3.156247 -7.830643
29.595940 2.002596 -8.558498
29.900494 0.703423 -8.971020
29.997999 -0.683554 -8.993725
29.705517 -1.839657 -8.571157
29.097864 -2.747378 -7.780387
28.289112 -3.446301 -6.713139
27.393330 -3.976005 -5.461133
26.524588 -4.376071 -4.116089
25.796959 -4.686087 -2.769728
25.324505 -4.945621 -1.513772
25.221308 -5.194272 -0.439940
25.522383 -5.431576 0.415917
25.830523 -5.451617 1.316509
26.086243 -5.240513 2.275006
26.304996 -4.823833 3.250834
26.502234 -4.227145 4.203421
26.693407 -3.476020 5.092193
26.893970 -2.596024 5.876581
27.119375 -1.612730 6.516006
27.385075 -0.551700 6.969903
27.676704 0.560643 7.181798
27.835957 1.689403 7.051292
27.861610 2.797329 6.612773
27.782833 3.847549 5.920474
27.628786 4.803189 5.028625
27.428638 5.627374 3.991461
27.211554 6.283237 2.863212
27.006697 6.733893 1.698114
26.843235 6.942483 0.550393
25.071314 7.324980 -0.634238
25.229099 7.128635 -1.995732
25.557972 6.762690 -3.425828
26.008814 6.223524 -4.858014
26.532515 5.507516 -6.225780
27.079954 4.611047 -7.462617
27.602024 3.530499 -8.502011
28.049604 2.262246 -9.277461
28.373583 0.802677 -9.722449
28.489403 -0.780769 -9.759999
28.198174 -2.082848 -9.321698
27.575993 -3.081029 -8.486237
26.741383 -3.825804 -7.349543
25.812868 -4.367664 -6.007545
24.908972 -4.757102 -4.556170
24.148216 -5.044603 -3.091349
23.649132 -5.280672 -1.709006
23.530230 -5.515785 -0.505072
23.828066 -5.757290 0.476024
24.131289 -5.785680 1.470546
24.379389 -5.580135 2.493382
24.589609 -5.161770 3.510496
24.779196 -4.551695 4.487856
24.965399 -3.771023 5.391429
25.165461 -2.840868 6.187180
25.396629 -1.782338 6.841081
25.676151 -0.616551 7.319093
25.987772 0.625137 7.567250
26.153908 1.856523 7.464142
26.174051 3.037153 7.038312
26.081871 4.136425 6.341828
25.911045 5.123737 5.426758
25.695244 5.968493 4.345169
25.468142 6.640084 3.149129
25.263412 7.107921 1.890706
25.114727 7.341393 0.621969
23.426365 7.563039 -0.675347
23.614769 7.418669 -2.112826
23.945881 7.085458 -3.610905
24.378139 6.558824 -5.103443
24.869984 5.834179 -6.524303
25.379854 4.906941 -7.807344
25.866190 3.772530 -8.886428
26.287428 2.426355 -9.695415
26.602005 0.863833 -10.168168
26.732967 -0.841263 -10.225800
26.483139 -2.241837 -9.787411
25.920683 -3.311248 -8.931837
25.155479 -4.103260 -7.757514
24.297401 -4.671638 -6.362876
23.456327 -5.070144 -4.846364
22.742126 -5.352539 -3.306415
22.264679 -5.572585 -1.841460
22.133867 -5.784056 -0.549943
22.383430 -5.998647 0.516139
22.632318 -6.004622 1.563979
22.826872 -5.780149 2.610608
22.985762 -5.343996 3.629621
23.127653 -4.714929 4.594614
23.271215 -3.911716 5.479181
23.435114 -2.953128 6.256919
23.638018 -1.857925 6.901422
23.898594 -0.644879 7.386287
24.200239 0.651920 7.661415
24.356548 1.919667 7.586626
24.367683 3.118949 7.184444
24.269800 4.225446 6.504245
24.099062 5.214839 5.595401
23.891626 6.062806 4.507288
23.683653 6.745027 3.289283
23.511301 7.237181 1.990756
23.410732 7.514953 0.661085
21.905445 7.627783 -0.680748
22.121387 7.544589 -2.129251
22.428177 7.243464 -3.638994
22.798359 6.724783 -5.144247
23.204477 5.988921 -6.579285
23.619076 5.036255 -7.878380
24.014696 3.867160 -8.975805
24.363884 2.482012 -9.805834
24.639181 0.881186 -10.302738
24.781158 -0.859592 -10.385921
24.613657 -2.305883 -9.962448
24.187542 -3.428079 -9.110196
23.590450 -4.273923 -7.928798
22.910023 -4.891161 -6.517886
22.233894 -5.327539 -4.977095
21.649706 -5.630802 -3.406058
21.245089 -5.848693 -1.904407
21.107687 -6.028960 -0.571779
21.264069 -6.183189 0.533912
21.409882 -6.131462 1.593609
21.506300 -5.857990 2.626745
21.572723 -5.381954 3.614400
21.628550 -4.722534 4.537651
21.693178 -3.898910 5.377578
21.786009 -2.930262 6.115259
21.926437 -1.835768 6.731773
22.133863 -0.634611 7.208198
22.393032 0.639157 7.498748
22.521658 1.877037 7.448061
22.520468 3.044787 7.073611
22.425541 4.123031 6.422485
22.272957 5.092391 5.541773
22.098789 5.933490 4.478562
21.939117 6.626953 3.279944
21.830021 7.153402 1.993004
21.807575 7.493460 0.664832
20.531660 7.715865 -0.685815
20.748999 7.659126 -2.140499
21.017803 7.366551 -3.652735
21.321993 6.842248 -5.158694
21.645481 6.090325 -6.594549
21.972191 5.114889 -7.896471
22.286037 3.920049 -9.000633
22.570940 2.509912 -9.843208
22.810816 0.888586 -10.360368
22.961519 -0.869072 -10.470857
22.869698 -2.350831 -10.067743
22.570726 -3.523668 -9.226831
22.131514 -4.427130 -8.048182
21.618959 -5.100761 -6.631856
21.099966 -5.584109 -5.077911
20.641439 -5.916719 -3.486409
20.310278 -6.138136 -1.957409
20.173389 -6.287906 -0.590972
20.251345 -6.377051 0.551029
20.314785 -6.265944 1.629744
20.337534 -5.945096 2.665309
20.337706 -5.432647 3.643240
20.333416 -4.746740 4.549053
20.342785 -3.905515 5.368262
20.383926 -2.927115 6.086383
20.474958 -1.829681 6.688932
20.633999 -0.631355 7.161424
20.847088 0.635103 7.460467
20.945902 1.864086 7.420915
20.931843 3.023456 7.057600
20.839058 4.095722 6.416795
20.701689 5.063390 5.544771
20.553881 5.908970 4.487800
20.429779 6.614970 3.292156
20.363529 7.163897 2.004107
20.389275 7.538259 0.669928
19.279629 7.849128 -0.695906
19.474712 7.785534 -2.162340
19.697737 7.480196 -3.677656
19.940233 6.938862 -5.181119
20.193726 6.167282 -6.611994
20.449743 5.171203 -7.909545
20.699814 3.956377 -9.013038
20.935465 2.528549 -9.861737
21.148224 0.893472 -10.394906
21.305420 -0.876829 -10.531640
21.275288 -2.392623 -10.150402
21.081116 -3.616871 -9.324151
20.772821 -4.580336 -8.152704
20.400322 -5.313776 -6.735879
20.013535 -5.847953 -5.173494
19.662376 -6.213628 -3.565368
19.396769 -6.441562 -2.011316
19.266626 -6.562515 -0.611158
19.288378 -6.587255 0.571096
19.297924 -6.420775 1.682925
19.278250 -6.058980 2.743252
19.244370 -5.517126 3.738796
19.211304 -4.810466 4.656278
19.194069 -3.954255 5.482418
19.207682 -2.963746 6.203936
19.267162 -1.854194 6.807551
19.387527 -0.640852 7.279985
19.555819 0.645504 7.578499
19.625154 1.895420 7.535467
19.597780 3.075376 7.165429
19.504576 4.167253 6.514873
19.376421 5.152932 5.630286
19.244198 6.014294 4.558159
19.138786 6.733220 3.344979
19.091066 7.291591 2.037233
19.131920 7.671289 0.681412
18.121819 8.014611 -0.709705
18.278034 7.920573 -2.192747
18.451216 7.587540 -3.713047
18.637413 7.021341 -5.213501
18.832684 6.227810 -6.637007
19.033081 5.212777 -7.926462
19.234657 3.982072 -9.024761
19.433468 2.541526 -9.874804
19.625568 0.896971 -10.419486
19.786638 -0.883763 -10.579010
19.805557 -2.433135 -10.218624
19.696428 -3.709630 -9.408073
19.495398 -4.734878 -8.246303
19.238609 -5.530509 -6.832252
18.962208 -6.118152 -5.264866
18.702341 -6.519438 -3.643088
18.495153 -6.755996 -2.065858
18.376787 -6.849455 -0.632121
18.361004 -6.810609 0.593635
18.340017 -6.592056 1.750663
18.303066 -6.194366 2.854888
18.260714 -5.628501 3.891278
18.223518 -4.905425 4.844802
18.202044 -4.036099 5.700428
18.206848 -3.031488 6.443123
18.248495 -1.902554 7.057857
18.337545 -0.660260 7.529596
18.461824 0.667007 7.815112
18.501539 1.960191 7.753488
18.459972 3.181855 7.361046
18.363802 4.311595 6.684896
18.239716 5.329007 5.772149
18.114395 6.213685 4.669912
18.014524 6.945224 3.425296
17.966787 7.503220 2.085409
17.997869 7.867268 0.697362
17.030695 8.199353 -0.725894
17.138477 8.061001 -2.229697
17.261475 7.691722 -3.758201
17.397867 7.096404 -5.257821
17.545834 6.279931 -6.674974
17.703550 5.247189 -7.956078
17.869202 4.003064 -9.047546
18.040960 2.552441 -9.895797
18.217010 0.900207 -10.447247
18.378960 -0.890778 -10.623705
18.435629 -2.474243 -10.280606
18.394381 -3.803885 -9.484520
18.280260 -4.892094 -8.332919
18.118317 -5.751264 -6.923273
17.933596 -6.393787 -5.353052
17.751150 -6.832056 -3.719727
17.596024 -7.078461 -2.120767
17.493267 -7.145396 -0.653644
17.455059 -7.043917 0.618172
17.421783 -6.775891 1.830470
17.386608 -6.345975 2.994534
17.354734 -5.759881 4.090899
17.331373 -5.023324 5.100101
17.321728 -4.142018 6.002674
17.331003 -3.121675 6.779153
17.364408 -1.968009 7.410072
17.427149 -0.686734 7.875967
17.507700 0.696261 8.132573
17.517179 2.047550 8.036745
17.460110 3.324203 7.608400
17.358444 4.502722 6.895045
17.234135 5.559610 5.944187
17.109129 6.471370 4.803332
17.005383 7.214504 3.519989
16.944847 7.765516 2.141662
16.949471 8.100909 0.715859
15.978724 8.390394 -0.743156
16.035549 8.203577 -2.271165
16.111755 7.795887 -3.812409
16.205927 7.170766 -5.316058
16.316647 6.331663 -6.731282
16.442501 5.282020 -8.007251
16.582075 4.025283 -9.093134
16.733952 2.564897 -9.938101
16.896719 0.904307 -10.491322
17.056162 -0.898776 -10.676463
17.140631 -2.517823 -10.344545
17.152691 -3.901576 -9.559411
17.108431 -5.053321 -8.416496
17.023939 -5.976346 -7.011238
16.915306 -6.673940 -5.439073
16.798622 -7.149390 -3.795439
16.689976 -7.405982 -2.175772
16.605453 -7.447005 -0.675510
16.556377 -7.283985 0.644230
16.523945 -6.968383 1.919856
16.503492 -6.508531 3.156505
16.494431 -5.904377 4.327872
16.496174 -5.155877 5.407651
16.508133 -4.262980 6.369539
16.529722 -3.225640 7.187232
16.560352 -2.043807 7.834424
16.599436 -0.717434 8.284811
16.636047 0.729915 8.493151
16.614197 2.146652 8.347008
16.539890 3.483729 7.871439
16.430210 4.714604 7.113496
16.302238 5.812733 6.120231
16.173058 6.751574 4.938695
16.059750 7.504582 3.615941
15.979395 8.045215 2.199019
15.949078 8.346930 0.734983
14.938373 8.574772 -0.760175
14.948762 8.345062 -2.315125
14.985294 7.903173 -3.874963
15.045922 7.251147 -5.390193
15.128599 6.391025 -6.811317
15.231278 5.324849 -8.088840
15.351911 4.054657 -9.173268
15.488455 2.582494 -10.015101
15.638856 0.910397 -10.564846
15.792027 -0.908658 -10.748023
15.895689 -2.565750 -10.418641
15.949080 -4.004644 -9.638665
15.960933 -5.219896 -8.500974
15.939978 -6.206060 -7.098444
15.894949 -6.957693 -5.523953
15.834579 -7.469348 -3.870382
15.767595 -7.735582 -2.230605
15.702739 -7.750951 -0.697503
15.650796 -7.527618 0.671331
15.627220 -7.165636 2.016335
15.628341 -6.676755 3.335118
15.647798 -6.055099 4.592407
15.679230 -5.294792 5.752927
15.716277 -4.389957 6.781404
15.752579 -3.334717 7.642565
15.781775 -2.123196 8.301136
15.797503 -0.749517 8.721841
15.789463 0.764617 8.859112
15.734715 2.246646 8.646045
15.641005 3.641742 8.114112
15.520805 4.921213 7.308428
15.386592 6.056370 6.274109
15.250835 7.018522 5.056272
15.126009 7.778979 3.700034
15.024588 8.309051 2.250507
14.959042 8.580045 0.752812
13.882107 8.739528 -0.775633
13.857623 8.482214 -2.359555
13.865329 8.016724 -3.945157
13.902187 7.344263 -5.482205
13.965167 6.466038 -6.920466
14.051229 5.383254 -8.209705
14.157345 4.097117 -9.299688
14.280474 2.608831 -10.140184
14.417585 0.919604 -10.680956
14.560338 -0.921327 -10.849123
14.675929 -2.619900 -10.511090
14.761265 -4.115032 -9.728205
14.818784 -5.393157 -8.590294
14.850926 -6.440710 -7.187188
14.860131 -7.244126 -5.608717
14.848837 -7.789841 -3.944711
14.819484 -8.064287 -2.284997
14.774509 -8.053902 -0.719406
14.724152 -7.771623 0.699002
14.712331 -7.363751 2.117417
14.735776 -6.845370 3.524688
14.782834 -6.205156 4.874717
14.841852 -5.431780 6.121404
14.901175 -4.513916 7.218652
14.949151 -3.440240 8.120361
14.974126 -2.199423 8.780433
14.964447 -0.780140 9.152769
14.910546 0.797015 9.192725
14.820856 2.336686 8.895626
14.705147 3.779551 8.300367
14.571939 5.096522 7.448019
14.429756 6.258514 6.379653
14.287120 7.236441 5.136339
14.152553 8.001217 3.759150
14.034577 8.523755 2.289156
13.941716 8.774971 0.767428
12.782392 8.871699 -0.788213
12.741644 8.611793 -2.402427
12.735097 8.139679 -4.022280
12.759056 7.456832 -5.594075
12.809823 6.564720 -7.064114
12.883704 5.464816 -8.378701
12.977003 4.158589 -9.484140
13.086023 2.647511 -10.326735
13.207069 0.933052 -10.852789
13.334876 -0.937685 -10.990502
13.456478 -2.682148 -10.630092
13.566963 -4.234678 -9.833947
13.663007 -5.574440 -8.688397
13.741282 -6.680599 -7.279768
13.798461 -7.532322 -5.694387
13.831218 -8.108773 -4.018582
13.836227 -8.389120 -2.338677
13.810163 -8.352526 -0.741003
13.762280 -8.012804 0.726763
13.759995 -7.558832 2.220613
13.800417 -7.009100 3.719530
13.867537 -6.347657 5.165013
13.945347 -5.558551 6.498559
14.017841 -4.625830 7.661664
14.069015 -3.533542 8.595826
14.082857 -2.265736 9.242540
14.043364 -0.806459 9.543305
13.941894 0.823758 9.456258
13.814745 2.405924 9.057520
13.674010 3.878465 8.394154
13.525316 5.214501 7.500447
13.374292 6.387158 6.410689
13.226566 7.369555 5.159168
13.087766 8.134818 3.780172
12.963518 8.656065 2.307990
12.859451 8.906421 0.776912
11.620544 8.961111 -0.797276
11.584234 8.723323 -2.442736
11.578325 8.263078 -4.106065
11.599288 7.582559 -5.727257
11.643592 6.683954 -7.246305
11.707706 5.569448 -8.603199
11.788102 4.241228 -9.737934
11.881249 2.701476 -10.590502
11.983617 0.952381 -11.100894
12.093649 -0.959405 -11.197191
12.217678 -2.755667 -10.801665
12.349110 -4.366208 -9.979766
12.479154 -5.764274 -8.814830
12.599021 -6.923114 -7.390193
12.699925 -7.815974 -5.789192
12.773076 -8.416102 -4.095162
12.809685 -8.696745 -2.391438
12.800963 -8.631149 -0.761359
12.754485 -8.234397 0.752682
12.755867 -7.733422 2.317555
12.803062 -7.150165 3.902539
12.877242 -6.465030 5.436477
12.959579 -5.658422 6.848215
13.031245 -4.710744 8.066596
13.073413 -3.602401 9.020466
13.067255 -2.313797 9.638669
12.993942 -0.825336 9.850049
12.845997 0.841866 9.617349
12.681263 2.447313 9.108914
12.514190 3.929442 8.379801
12.348832 5.265643 7.455182
12.189244 6.433306 6.360229
12.039480 7.409821 5.120115
11.903595 8.172578 3.760013
11.785642 8.698967 2.305094
11.689674 8.966377 0.780532
10.433027 9.020688 -0.806092
10.397281 8.779234 -2.484889
10.389190 8.324889 -4.197234
10.405577 7.655013 -5.876803
10.443264 6.766963 -7.457273
10.499074 5.658098 -8.872322
10.569830 4.325776 -10.055625
10.652354 2.767356 -10.940861
10.743468 0.980196 -11.461704
10.844258 -0.990294 -11.542564
10.973594 -2.846290 -11.118518
11.123564 -4.511348 -10.259686
11.281607 -5.955725 -9.051798
11.435161 -7.149678 -7.580581
11.571662 -8.063465 -5.931762
11.678550 -8.667344 -4.191070
11.743261 -8.931573 -2.444230
11.753234 -8.826409 -0.776973
11.713959 -8.370070 0.769112
11.718700 -7.822999 2.376050
11.766570 -7.209624 4.009738
11.838346 -6.506685 5.592264
11.914808 -5.690919 7.045715
11.976735 -4.739064 8.292176
12.004907 -3.627860 9.253736
11.980102 -2.334043 9.852481
11.883100 -0.834353 10.010497
11.707644 0.852186 9.693723
11.520721 2.477584 9.123810
11.337584 3.978014 8.359883
11.161459 5.329985 7.421268
10.995572 6.510006 6.327293
10.843148 7.494589 5.097283
10.707415 8.260242 3.750565
10.591596 8.783477 2.306465
10.498917 9.040801 0.784310
9.228996 9.063723 -0.815348
9.187118 8.792229 -2.528746
9.171886 8.335208 -4.292449
9.180559 7.680465 -6.034503
9.210393 6.815802 -7.682950
9.258643 5.729021 -9.165837
9.322568 4.407925 -10.411207
9.399422 2.840317 -11.347106
9.486463 1.014000 -11.901576
9.586328 -1.027632 -11.992577
9.724056 -2.947438 -11.549332
9.890762 -4.661710 -10.647472
10.071683 -6.140577 -9.379572
10.252049 -7.354173 -7.838203
10.417098 -8.272629 -6.115939
10.552062 -8.866076 -4.305351
10.642176 -9.104644 -2.499013
10.672673 -8.958466 -0.789497
10.646677 -8.449815 0.778175
10.655725 -7.863107 2.401964
10.700296 -7.224253 4.050200
10.762874 -6.507182 5.644237
10.825932 -5.685820 7.105433
10.871951 -4.734096 8.355145
10.883409 -3.625937 9.314728
10.842784 -2.335271 9.905540
10.732555 -0.836025 10.048938
10.547688 0.856778 9.712378
10.353271 2.501895 9.129772
10.163903 4.031309 8.360469
9.982549 5.415791 7.421709
9.812171 6.626115 6.330735
9.655735 7.633054 5.104789
9.516204 8.407380 3.761112
9.396542 8.919866 2.316947
9.299712 9.141284 0.789536
8.009970 9.101743 -0.825110
7.957173 8.783253 -2.573184
7.931011 8.317061 -4.387801
7.929306 7.678748 -6.192252
7.949875 6.843890 -7.909823
7.990541 5.788068 -9.463805
8.049124 4.486861 -10.777485
8.123442 2.915846 -11.774151
8.211316 1.050603 -12.377092
8.316194 -1.067738 -12.496323
8.464528 -3.050809 -12.042475
8.646689 -4.807740 -11.096762
8.846850 -6.311048 -9.761113
9.049185 -7.533251 -8.137460
9.237866 -8.446868 -6.327733
9.397068 -9.024416 -4.433862
9.510964 -9.238413 -2.557778
9.563728 -9.061377 -0.801411
9.555871 -8.519230 0.783624
9.570172 -7.905156 2.407663
9.608664 -7.245700 4.045552
9.657104 -6.514031 5.622969
9.701253 -5.683318 7.065593
9.726871 -4.726730 8.299101
9.719716 -3.617437 9.249172
9.665550 -2.328607 9.841486
9.550132 -0.833408 10.001719
9.369620 0.857552 9.697519
9.178705 2.522134 9.141137
8.990265 4.087510 8.389061
8.807504 5.515582 7.459671
8.633626 6.768254 6.371351
8.471836 7.807429 5.142481
8.325339 8.595011 3.791444
8.197342 9.092902 2.336622
8.091045 9.263006 0.796395
6.777465 9.146276 -0.835445
6.710876 8.773252 -2.617081
6.671162 8.293474 -4.479381
6.656886 7.669691 -6.341946
6.666609 6.864647 -8.124379
6.698895 5.841091 -9.746283
6.752305 4.561769 -11.127258
6.825401 2.989428 -12.186910
6.916747 1.086815 -12.844838
7.030189 -1.106928 -13.002899
7.190473 -3.148103 -12.546315
7.387326 -4.939888 -11.561189
7.604578 -6.459352 -10.159379
7.826059 -7.683561 -8.452747
8.035597 -8.589583 -6.553154
8.217022 -9.154487 -4.572458
8.354162 -9.355337 -2.622519
8.430849 -9.169204 -0.815198
8.444770 -8.623912 0.789215
8.465281 -8.000556 2.405512
8.496092 -7.325613 4.017427
8.527318 -6.574743 5.559036
8.549072 -5.723604 6.964417
8.551470 -4.747858 8.167645
8.524624 -3.623162 9.102799
8.458648 -2.325177 9.703955
8.343656 -0.829562 9.905189
8.176936 0.856417 9.673355
7.996818 2.540188 9.172241
7.813787 4.144798 8.453160
7.631725 5.621875 7.538323
7.454518 6.923043 6.449936
7.286048 7.999928 5.210209
7.130200 8.804156 3.841351
6.990858 9.287354 2.365570
6.871904 9.401146 0.805076
5.533000 9.208852 -0.846419
5.451656 8.783173 -2.659318
5.396935 8.287475 -4.563279
5.368370 7.673125 -6.475481
5.365491 6.891490 -8.313104
5.387830 5.893939 -9.993327
5.434919 4.631836 -11.433331
5.506289 3.056549 -12.550294
5.601473 1.119445 -13.261395
5.724652 -1.141523 -13.461400
5.897352 -3.231018 -13.009219
6.108656 -5.048602 -11.994389
6.342336 -6.577704 -10.537332
6.582168 -7.801753 -8.758466
6.811924 -8.704178 -6.778213
7.015378 -9.268409 -4.716993
7.176306 -9.477875 -2.695228
7.278480 -9.316006 -0.833337
7.316607 -8.809457 0.798702
7.344282 -8.200716 2.407876
7.367001 -7.515641 3.987454
7.379795 -6.736827 5.483013
7.377693 -5.846872 6.840129
7.355727 -4.828370 8.004379
7.308927 -3.663917 8.921338
7.232325 -2.336109 9.536585
7.120950 -0.827542 9.795693
6.973131 0.855283 9.664090
6.807403 2.557944 9.237418
6.631585 4.201357 8.560270
6.450616 5.727189 7.660832
6.269431 7.077102 6.567287
6.092968 8.192764 5.307822
5.926163 9.015839 3.910623
5.773953 9.487990 2.403875
5.641274 9.550885 0.815761
4.278091 9.300996 -0.858100
4.182941 8.833960 -2.698772
4.112928 8.322089 -4.635585
4.068829 7.708882 -6.584752
4.051419 6.937840 -8.462485
4.061475 5.952462 -10.184999
4.099775 4.696246 -11.668505
4.167095 3.112697 -12.829217
4.264211 1.145307 -13.583349
4.395916 -1.167838 -13.820921
4.580628 -3.291254 -13.379553
4.806661 -5.124330 -12.349998
5.057593 -6.658319 -10.857927
5.317006 -7.884476 -9.029011
5.568479 -8.794053 -6.988920
5.795594 -9.378304 -4.863327
5.981930 -9.628482 -2.777896
6.111069 -9.535841 -0.858307
6.174610 -9.121463 0.815841
6.210413 -8.557047 2.427121
6.225814 -7.867433 3.977265
6.220815 -7.047796 5.425475
6.195415 -6.093312 6.730953
6.149618 -4.999157 7.852901
6.083422 -3.760504 8.750522
5.996828 -2.372530 9.383013
5.889839 -0.830410 9.709582
5.761700 0.856058 9.693932
5.610252 2.577290 9.351006
5.440778 4.255370 8.717892
5.259577 5.824042 7.830366
5.072948 7.217054 6.724200
4.887191 8.368151 5.435170
4.708605 9.211076 3.999052
4.543488 9.679581 2.451614
4.398141 9.707404 0.828638
3.014256 9.434237 -0.870553
2.908162 8.946559 -2.734322
2.823738 8.420341 -4.692390
2.763332 7.796792 -6.661654
2.729289 7.017114 -8.559010
2.723956 6.022511 -10.301353
2.749679 4.754191 -11.805583
2.808804 3.153352 -12.988593
2.903678 1.161207 -13.767282
3.040318 -1.182193 -14.030557
3.235765 -3.320509 -13.605685
3.477324 -5.157520 -12.581653
3.747818 -6.693414 -11.084128
4.030067 -7.928381 -9.238783
4.306895 -8.862611 -7.171287
4.561122 -9.496292 -5.007308
4.775572 -9.829616 -2.872521
4.933064 -9.862769 -0.892592
5.022011 -9.605526 0.844386
5.066906 -9.120956 2.475611
5.076951 -8.432635 4.008489
5.056658 -7.555158 5.416996
5.010542 -6.503118 6.675112
4.943120 -5.291110 7.756813
4.858902 -3.933728 8.636075
4.762408 -2.445565 9.286880
4.658147 -0.841219 9.683200
4.546136 0.860652 9.787086
4.405160 2.600114 9.527338
4.238482 4.305017 8.933528
4.054011 5.904954 8.050094
3.859653 7.329518 6.921472
3.663314 8.508300 5.592103
3.472903 9.370894 4.106424
3.296326 9.846889 2.508874
3.141491 9.865884 0.843892
1.743013 9.620104 -0.883844
1.630746 9.141915 -2.764846
1.533961 8.605262 -4.729785
1.456950 7.956687 -6.698083
1.403999 7.142731 -8.589165
1.379400 6.109938 -10.322452
1.387439 4.804849 -11.817368
1.432407 3.174009 -12.993336
1.518593 1.163953 -13.769778
1.654193 -1.180905 -14.039403
1.858222 -3.310483 -13.635983
2.116627 -5.138620 -12.642987
2.410479 -6.675202 -11.178893
2.720847 -7.930117 -9.362179
3.028804 -8.913253 -7.311322
3.315420 -9.634496 -5.144800
3.561765 -10.103732 -2.981088
3.748913 -10.330853 -0.938673
3.862041 -10.307244 0.888093
3.916998 -9.943855 2.565713
3.924832 -9.262898 4.102757
3.893604 -8.306424 5.488152
3.831375 -7.116480 6.710828
3.746209 -5.735119 7.759714
3.646166 -4.204391 8.623734
3.539309 -2.566345 9.291820
3.433700 -0.863028 9.752901
3.329936 0.870974 9.967760
3.191920 2.628302 9.780753
3.021816 4.348483 9.214680
2.829319 5.962444 8.323181
2.624127 7.401116 7.159898
2.415933 8.595428 5.778469
2.214436 9.476310 4.232535
2.029329 9.974691 2.575734
1.870310 10.021499 0.861709
0.463908 9.856974 -0.897243
0.349542 9.427544 -2.788179
0.242595 8.888360 -4.744133
0.149436 8.200206 -6.688806
0.076434 7.323864 -8.545899
0.029958 6.220118 -10.239117
0.016376 4.849752 -11.692157
0.042059 3.173549 -12.828723
0.113374 1.152293 -13.572516
0.241610 -1.162474 -13.825197
0.452054 -3.258023 -13.445808
0.728934 -5.063944 -12.508713
1.050381 -6.599764 -11.117825
1.394528 -7.885012 -9.377054
1.739507 -8.939217 -7.390316
2.063450 -9.781906 -5.261522
2.344488 -10.432608 -3.094584
2.560755 -10.910851 -0.993417
2.694403 -11.183412 0.944289
2.759673 -10.974550 2.691985
2.769333 -10.305378 4.254274
2.733462 -9.252121 5.633983
2.662139 -7.891005 6.833942
2.565440 -6.298255 7.856980
2.453445 -4.550100 8.705926
2.336231 -2.722762 9.383607
2.223878 -0.892471 9.892854
2.117356 0.883906 10.194466
1.972581 2.651842 10.061149
1.791750 4.368684 9.510045
1.586223 5.973037 8.602776
1.367354 7.403511 7.400960
1.146503 8.598711 5.966221
0.935027 9.497247 4.360178
0.744282 10.037724 2.644451
0.585627 10.158751 0.880662
-0.830911 10.069985 -0.906092
-0.956436 9.727281 -2.797686
-1.076210 9.203928 -4.735278
-1.183165 8.479671 -6.647015
-1.270234 7.534257 -8.461040
-1.330353 6.347433 -10.105499
-1.356453 4.898942 -11.508537
-1.341470 3.168533 -12.598301
-1.278336 1.135950 -13.302933
-1.153718 -1.138097 -13.532816
-0.934912 -3.190286 -13.170642
-0.639177 -4.965548 -12.283003
-0.291371 -6.490021 -10.961046
0.083651 -7.789846 -9.295918
0.461031 -8.891161 -7.378765
0.815913 -9.820107 -5.300735
1.123441 -10.602819 -3.152973
1.358756 -11.265442 -1.026627
1.502305 -11.755701 0.978844
1.574168 -11.658146 2.761658
1.588332 -10.994306 4.322620
1.554942 -9.867333 5.675204
1.484143 -8.380379 6.832885
1.386080 -6.636593 7.809139
1.270897 -4.739128 8.617440
1.148739 -2.791132 9.271263
1.029750 -0.895757 9.784083
0.915025 0.873250 10.120936
0.760940 2.608402 10.022609
0.569990 4.285132 9.500029
0.353781 5.851603 8.614559
0.123919 7.255979 7.427563
-0.107987 8.446426 6.000404
-0.330333 9.371108 4.394447
-0.531511 9.978190 2.671052
-0.699914 10.215837 0.891585
-2.135628 10.238391 -0.909843
-2.280520 10.006421 -2.793147
-2.415399 9.513264 -4.705005
-2.533762 8.759768 -6.577894
-2.629107 7.746786 -8.344294
-2.694935 6.475168 -9.936681
-2.724742 4.945763 -11.287533
-2.712027 3.159421 -12.329327
-2.650290 1.116994 -12.994542
-2.525248 -1.110864 -13.201108
-2.296519 -3.115809 -12.850073
-1.982539 -4.856155 -12.002100
-1.610945 -6.361280 -10.738600
-1.209373 -7.660564 -9.140986
-0.805463 -8.783385 -7.290674
-0.426851 -9.759124 -5.269074
-0.101174 -10.617156 -3.157601
0.143930 -11.386863 -1.037666
0.288354 -12.003620 0.990821
0.363304 -11.967254 2.773644
0.383570 -11.301218 4.308399
0.357926 -10.126798 5.615416
0.295147 -8.565276 6.715026
0.204009 -6.737942 7.627559
0.093286 -4.766079 8.373346
-0.028247 -2.770969 8.972716
-0.151814 -0.873903 9.446001
-0.276478 0.841130 9.766243
-0.439744 2.506337 9.682400
-0.638777 4.113755 9.199088
-0.862820 5.621433 8.369586
-1.101118 6.987422 7.247170
-1.342914 8.169770 5.885119
-1.577452 9.126528 4.336710
-1.793976 9.815745 2.655218
-1.981730 10.195471 0.893924
-3.442184 10.353765 -0.908752
-3.611120 10.241856 -2.775470
-3.761966 9.786998 -4.655058
-3.889629 9.011330 -6.484213
-3.989013 7.936992 -8.199637
-4.055023 6.586122 -9.738029
-4.082564 4.980859 -11.036091
-4.066542 3.143339 -12.030519
-4.001861 1.095706 -12.658017
-3.874064 -1.081885 -12.842938
-3.635108 -3.038490 -12.499491
-3.304327 -4.743337 -11.683846
-2.911883 -6.225819 -10.470250
-2.487940 -7.515332 -8.932949
-2.062662 -8.641270 -7.146189
-1.666213 -9.633028 -5.184217
-1.328756 -10.520001 -3.121277
-1.080455 -11.331584 -1.031616
-0.941194 -11.996465 0.985789
-0.865682 -11.978127 2.744849
-0.838584 -11.303202 4.239915
-0.853316 -10.103281 5.494125
-0.903294 -8.509960 6.530616
-0.981933 -6.654831 7.372527
-1.082646 -4.669491 8.042995
-1.198851 -2.685527 8.565158
-1.323961 -0.834542 8.962154
-1.457493 0.794926 9.217785
-1.628414 2.366700 9.125153
-1.833552 3.887180 8.683346
-2.063518 5.323848 7.931452
-2.308922 6.644186 6.908561
-2.560374 7.815673 5.653759
-2.808485 8.805792 4.206137
-3.043865 9.582023 2.604779
-3.257125 10.111849 0.888778
-4.742523 10.407680 -0.903077
-4.936645 10.410475 -2.745567
-5.102907 9.995761 -4.587183
-5.238040 9.205190 -6.368738
-5.338778 8.080417 -8.031045
-5.401853 6.663094 -9.514915
-5.423996 4.994876 -10.761161
-5.401942 3.117415 -11.710597
-5.332422 1.072366 -12.304033
-5.201251 -1.052268 -12.471171
-4.953021 -2.962228 -12.134282
-4.607718 -4.634665 -11.346087
-4.197730 -6.095916 -10.175763
-3.755446 -7.372313 -8.692493
-3.313255 -8.490193 -6.965458
-2.903546 -9.475890 -5.063837
-2.558707 -10.355739 -3.056810
-2.311127 -11.156074 -1.013559
-2.180081 -11.803532 0.969316
-2.105552 -11.767017 2.692182
-2.071760 -11.077346 4.145476
-2.074514 -9.869557 5.350839
-2.109626 -8.278693 6.329910
-2.172904 -6.439795 7.104330
-2.260159 -4.487903 7.695740
-2.367200 -2.558058 8.125779
-2.489838 -0.785303 8.416089
-2.628365 0.742019 8.562958
-2.804014 2.210544 8.435496
-3.013339 3.638034 8.028921
-3.248250 5.000165 7.363752
-3.500655 6.272615 6.460511
-3.762464 7.431063 5.339718
-4.025585 8.451184 4.021895
-4.281928 9.308659 2.527563
-4.523402 9.979161 0.877243
-6.028584 10.391706 -0.893074
-6.245506 10.489170 -2.704345
-6.425214 10.110183 -4.503127
-6.566269 9.312181 -6.234237
-6.667230 8.152602 -7.842491
-6.726658 6.688883 -9.272704
-6.743113 4.978461 -10.469694
-6.715157 3.078774 -11.378275
-6.641349 1.047259 -11.943264
-6.507893 -1.023122 -12.098671
-6.252598 -2.890919 -11.769835
-5.895889 -4.537713 -11.006661
-5.472030 -5.983849 -9.874902
-5.015288 -7.249674 -8.440307
-4.559930 -8.355536 -6.768626
-4.140221 -9.321779 -4.925611
-3.790428 -10.168753 -2.977011
-3.544818 -10.916802 -0.988576
-3.422049 -11.494116 0.946968
-3.349070 -11.410176 2.632550
-3.309589 -10.700739 4.053388
-3.301398 -9.498396 5.225064
-3.322292 -7.935739 6.163159
-3.370064 -6.145363 6.883255
-3.442509 -4.259857 7.400932
-3.537421 -2.411810 7.731771
-3.652592 -0.733823 7.891355
-3.789435 0.689789 7.889162
-3.965487 2.058925 7.698063
-4.177142 3.398944 7.311935
-4.416955 4.691703 6.730080
-4.677482 5.919059 5.951798
-4.951281 7.062870 4.976390
-5.230907 8.104993 3.803158
-5.508917 9.027285 2.431399
-5.777867 9.811604 0.860418
-7.292311 10.297417 -0.879000
-7.526114 10.454832 -2.652713
-7.715884 10.100894 -4.404635
-7.861589 9.303137 -6.083478
-7.963196 8.129091 -7.637951
-8.020674 6.646288 -9.016768
-8.033991 4.922262 -10.168637
-8.003114 3.024540 -11.042272
-7.928013 1.020658 -11.586381
-7.795073 -0.995556 -11.738301
-7.536181 -2.828463 -11.421535
-7.172016 -4.460051 -10.683415
-6.738327 -5.901896 -9.587433
-6.270863 -7.165578 -8.197078
-5.805374 -8.262675 -6.575842
-5.377609 -9.204765 -4.787216
-5.023320 -10.003428 -2.894687
-4.778255 -10.670239 -0.961752
-4.660840 -11.137515 0.924314
-4.588999 -10.983854 2.582859
-4.545702 -10.250468 3.991956
-4.529697 -9.062568 5.156308
-4.539738 -7.545362 6.080617
-4.574574 -5.824067 6.769588
-4.632958 -4.023885 7.227923
-4.713638 -2.270041 7.460327
-4.815368 -0.687730 7.471499
-4.941046 0.645615 7.283796
-5.111778 1.932896 6.997483
-5.323963 3.202538 6.608510
-5.569570 4.439780 6.094032
-5.840567 5.629861 5.431200
-6.128922 6.758022 4.597169
-6.426604 7.809500 3.569088
-6.725581 8.769537 2.324118
-7.017822 9.623370 0.839401
-8.525643 10.116386 -0.861113
-8.766879 10.284351 -2.591582
-8.961911 9.938526 -4.293454
-9.111275 9.148891 -5.919227
-9.215504 7.985425 -7.421401
-9.275135 6.518108 -8.752473
-9.290702 4.816919 -9.864942
-9.262743 2.951844 -10.711305
-9.191790 0.992853 -11.244060
-9.063875 -0.970678 -11.402927
-8.806111 -2.778758 -11.104772
-8.439277 -4.409251 -10.394191
-8.000164 -5.862336 -9.333120
-7.525565 -7.138190 -7.983495
-7.052274 -8.236992 -6.407251
-6.617083 -9.158918 -4.666325
-6.256783 -9.904146 -2.822650
-6.008170 -10.472855 -0.938163
-5.890196 -10.803024 0.906921
-5.818102 -10.564303 2.560018
-5.773729 -9.803620 3.989487
-5.755143 -8.634839 5.184076
-5.760409 -7.171824 6.132537
-5.787594 -5.528434 6.823617
-5.834762 -3.818539 7.246068
-5.899980 -2.155992 7.388636
-5.981313 -0.654662 7.240070
-6.083541 0.616879 6.834256
-6.241828 1.853511 6.418385
-6.452806 3.081442 5.994766
-6.706032 4.285714 5.519201
-6.991072 5.451369 4.947495
-7.297484 6.563448 4.235447
-7.614830 7.606996 3.338864
-7.932673 8.567050 2.213542
-8.240572 9.428654 0.815291
-9.720523 9.840185 -0.839670
-9.956211 9.954619 -2.521859
-10.150289 9.593708 -4.171328
-10.302598 8.820275 -5.744254
-10.412981 7.697145 -7.196815
-10.481277 6.287141 -8.485189
-10.507326 4.653088 -9.565555
-10.490971 2.857803 -10.394091
-10.432052 0.964123 -10.926973
-10.315385 -0.949599 -11.105412
-10.064730 -2.745700 -10.834932
-9.700847 -4.392886 -10.156831
-9.261086 -5.877447 -9.131729
-8.782793 -7.185676 -7.820246
-8.303319 -8.303865 -6.283002
-7.860013 -9.218307 -4.580616
-7.490220 -9.915294 -2.773707
-7.231292 -10.381115 -0.922897
-7.103860 -10.559941 0.900357
-7.029142 -10.227775 2.580934
-6.987303 -9.437286 4.074287
-6.973464 -8.287989 5.347879
-6.982750 -6.879389 6.369172
-7.010282 -5.311004 7.105630
-7.051182 -3.682345 7.524715
-7.100571 -2.092921 7.593889
-7.153574 -0.642245 7.280616
-7.217263 0.610959 6.627942
-7.354584 1.841824 6.045402
-7.562673 3.068285 5.546824
-7.826281 4.270825 5.069186
-8.130161 5.429929 4.549459
-8.459064 6.526081 3.924620
-8.797740 7.539760 3.131646
-9.130941 8.451455 2.107508
-9.443422 9.241648 0.789180
3 0 1 2
3 0 2 3
3 0 3 4
3 0 4 5
3 0 5 6
3 0 6 7
3 0 7 8
3 0 8 9
3 0 9 10
3 0 10 11
3 0 11 12
3 0 12 13
3 0 13 14
3 0 14 15
3 0 15 16
3 0 16 17
3 0 17 18
3 0 18 19
3 0 19 20
3 0 20 21
3 0 21 22
3 0 22 23
3 0 23 24
3 0 24 25
3 0 25 26
3 0 26 27
3 0 27 28
3 0 28 29
3 0 29 30
3 0 30 31
3 0 31 32
3 0 32 33
3 0 33 34
3 0 34 35
3 0 35 36
3 0 36 1
3 1 37 38
3 1 38 2
3 2 38 39
3 2 39 3
3 3 39 40
3 3 40 4
3 4 40 41
3 4 41 5
3 5 41 42
3 5 42 6
3 6 42 43
3 6 43 7
3 7 43 44
3 7 44 8
3 8 44 45
3 8 45 9
3 9 45 46
3 9 46 10
3 10 46 47
3 10 47 11
3 11 47 48
3 11 48 12
3 12 48 49
3 12 49 13
3 13 49 50
3 13 50 14
3 14 50 51
3 14 51 15
3 15 51 52
3 15 52 16
3 16 52 53
3 16 53 17
3 17 53 54
3 17 54 18
3 18 54 55
3 18 55 19
3 19 55 56
3 19 56 20
3 20 56 57
3 20 57 21
3 21 57 58
3 21 58 22
3 22 58 59
3 22 59 23
3 23 59 60
3 23 60 24
3 24 60 61
3 24 61 25
3 25 61 62
3 25 62 26
3 26 62 63
3 26 63 27
3 27 63 64
3 27 64 28
3 28 64 65
3 28 65 29
3 29 65 66
3 29 66 30
3 30 66 67
3 30 67 31
3 31 67 68
3 31 68 32
3 32 68 69
3 32 69 33
3 33 69 70
3 33 70 34
3 34 70 71
3 34 71 35
3 35 71 72
3 35 72 36
3 36 72 37
3 36 37 1
3 37 73 74
3 37 74 38
3 38 74 75
3 38 75 39
3 39 75 76
3 39 76 40
3 40 76 77
3 40 77 41
3 41 77 78
3 41 78 42
3 42 78 79
3 42 79 43
3 43 79 80
3 43 80 44
3 44 80 81
3 44 81 45
3 45 81 82
3 45 82 46
3 46 82 83
3 46 83 47
3 47 83 84
3 47 84 48
3 48 84 85
3 48 85 49
3 49 85 86
3 49 86 50
3 50 86 87
3 50 87 51
3 51 87 88
3 51 88 52
3 52 88 89
3 52 89 53
3 53 89 90
3 53 90 54
3 54 90 91
3 54 91 55
3 55 91 92
3 55 92 56
3 56 92 93
3 56 93 57
3 57 93 94
3 57 94 58
3 58 94 95
3 58 95 59
3 59 95 96
3 59 96 60
3 60 96 97
3 60 97 61
3 61 97 98
3 61 98 62
3 62 98 99
3 62 99 63
3 63 99 100
3 63 100 64
3 64 100 101
3 64 101 65
3 65 101 102
3 65 102 66
3 66 102 103
3 66 103 67
3 67 103 104
3 67 104 68
3 68 104 105
3 68 105 69
3 69 105 106
3 69 106 70
3 70 106 107
3 70 107 71
3 71 107 108
3 71 108 72
3 72 108 73
3 72 73 37
3 73 109 110
3 73 110 74
3 74 110 111
3 74 111 75
3 75 111 112
3 75 112 76
3 76 112 113
3 76 113 77
3 77 113 114
3 77 114 78
3 78 114 115
3 78 115 79
3 79 115 116
3 79 116 80
3 80 116 117
3 80 117 81
3 81 117 118
3 81 118 82
3 82 118 119
3 82 119 83
3 83 119 120
3 83 120 84
3 84 120 121
3 84 121 85
3 85 121 122
3 85 122 86
3 86 122 123
3 86 123 87
3 87 123 124
3 87 124 88
3 88 124 125
3 88 125 89
3 89 125 126
3 89 126 90
3 90 126 127
3 90 127 91
3 91 127 128
3 91 128 92
3 92 128 129
3 92 129 93
3 93 129 130
3 93 130 94
3 94 130 131
3 94 131 95
3 95 131 132
3 95 132 96
3 96 132 133
3 96 133 97
3 97 133 134
3 97 134 98
3 98 134 135
3 98 135 99
3 99 135 136
3 99 136 100
3 100 136 137
3 100 137 101
3 101 137 138
3 101 138 102
3 102 138 139
3 102 139 103
3 103 139 140
3 103 140 104
3 104 140 141
3 104 141 105
3 105 141 142
3 105 142 106
3 106 142 143
3 106 143 107
3 107 143 144
3 107 144 108
3 108 144 109
3 108 109 73
3 109 145 146
3 109 146 110
3 110 146 147
3 110 147 111
3 111 147 148
3 111 148 112
3 112 148 149
3 112 149 113
3 113 149 150
3 113 150 114
3 114 150 151
3 114 151 115
3 115 151 152
3 115 152 116
3 116 152 153
3 116 153 117
3 117 153 154
3 117 154 118
3 118 154 155
3 118 155 119
3 119 155 156
3 119 156 120
3 120 156 157
3 120 157 121
3 121 157 158
3 121 158 122
3 122 158 159
3 122 159 123
3 123 159 160
3 123 160 124
3 124 160 161
3 124 161 125
3 125 161 162
3 125 162 126
3 126 162 163
3 126 163 127
3 127 163 164
3 127 164 128
3 128 164 165
3 128 165 129
3 129 165 166
3 129 166 130
3 130 166 167
3 130 167 131
3 131 167 168
3 131 168 132
3 132 168 169
3 132 169 133
3 133 169 170
3 133 170 134
3 134 170 171
3 134 171 135
3 135 171 172
3 135 172 136
3 136 172 173
3 136 173 137
3 137 173 174
3 137 174 138
3 138 174 175
3 138 175 139
3 139 175 176
3 139 176 140
3 140 176 177
3 140 177 141
3 141 177 178
3 141 178 142
3 142 178 179
3 142 179 143
3 143 179 180
3 143 180 144
3 144 180 145
3 144 145 109
3 145 181 182
3 145 182 146
3 146 182 183
3 146 183 147
3 147 183 184
3 147 184 148
3 148 184 185
3 148 185 149
3 149 185 186
3 149 186 150
3 150 186 187
3 150 187 151
3 151 187 188
3 151 188 152
3 152 188 189
3 152 189 153
3 153 189 190
3 153 190 154
3 154 190 191
3 154 191 155
3 155 191 192
3 155 192 156
3 156 192 193
3 156 193 157
3 157 193 194
3 157 194 158
3 158 194 195
3 158 195 159
3 159 195 196
3 159 196 160
3 160 196 197
3 160 197 161
3 161 197 198
3 161 198 162
3 162 198 199
3 162 199 163
3 163 199 200
3 163 200 164
3 164 200 201
3 164 201 165
3 165 201 202
3 165 202 166
3 166 202 203
3 166 203 167
3 167 203 204
3 167 204 168
3 168 204 205
3 168 205 169
3 169 205 206
3 169 206 170
3 170 206 207
3 170 207 171
3 171 207 208
3 171 208 172
3 172 208 209
3 172 209 173
3 173 209 210
3 173 210 174
3 174 210 211
3 174 211 175
3 175 211 212
3 175 212 176
3 176 212 213
3 176 213 177
3 177 213 214
3 177 214 178
3 178 214 215
3 178 215 179
3 179 215 216
3 179 216 180
3 180 216 181
3 180 181 145
3 181 217 218
3 181 218 182
3 182 218 219
3 182 219 183
3 183 219 220
3 183 220 184
3 184 220 221
3 184 221 185
3 185 221 222
3 185 222 186
3 186 222 223
3 186 223 187
3 187 223 224
3 187 224 188
3 188 224 225
3 188 225 189
3 189 225 226
3 189 226 190
3 190 226 227
3 190 227 191
3 191 227 228
3 191 228 192
3 192 228 229
3 192 229 193
3 193 229 230
3 193 230 194
3 194 230 231
3 194 231 195
3 195 231 232
3 195 232 196
3 196 232 233
3 196 233 197
3 197 233 234
3 197 234 198
3 198 234 235
3 198 235 199
3 199 235 236
3 199 236 200
3 200 236 237
3 200 237 201
3 201 237 238
3 201 238 202
3 202 238 239
3 202 239 203
3 203 239 240
3 203 240 204
3 204 240 241
3 204 241 205
3 205 241 242
3 205 242 206
3 206 242 243
3 206 243 207
3 207 243 244
3 207 244 208
3 208 244 245
3 208 245 209
3 209 245 246
3 209 246 210
3 210 246 247
3 210 247 211
3 211 247 248
3 211 248 212
3 212 248 249
3 212 249 213
3 213 249 250
3 213 250 214
3 214 250 251
3 214 251 215
3 215 251 252
3 215 252 216
3 216 252 217
3 216 217 181
3 217 253 254
3 217 254 218
3 218 254 255
3 218 255 219
3 219 255 256
3 219 256 220
3 220 256 257
3 220 257 221
3 221 257 258
3 221 258 222
3 222 258 259
3 222 259 223
3 223 259 260
3 223 260 224
3 224 260 261
3 224 261 225
3 225 261 262
3 225 262 226
3 226 262 263
3 226 263 227
3 227 263 264
3 227 264 228
3 228 264 265
3 228 265 229
3 229 265 266
3 229 266 230
3 230 266 267
3 230 267 231
3 231 267 268
3 231 268 232
3 232 268 269
3 232 269 233
3 233 269 270
3 233 270 234
3 234 270 271
3 234 271 235
3 235 271 272
3 235 272 236
3 236 272 273
3 236 273 237
3 237 273 274
3 237 274 238
3 238 274 275
3 238 275 239
3 239 275 276
3 239 276 240
3 240 276 277
3 240 277 241
3 241 277 278
3 241 278 242
3 242 278 279
3 242 279 243
3 243 279 280
3 243 280 244
3 244 280 281
3 244 281 245
3 245 281 282
3 245 282 246
3 246 282 283
3 246 283 247
3 247 283 284
3 247 284 248
3 248 284 285
3 248 285 249
3 249 285 286
3 249 286 250
3 250 286 287
3 250 287 251
3 251 287 288
3 251 288 252
3 252 288 253
3 252 253 217
3 253 289 290
3 253 290 254
3 254 290 291
3 254 291 255
3 255 291 292
3 255 292 256
3 256 292 293
3 256 293 257
3 257 293 294
3 257 294 258
3 258 294 295
3 258 295 259
3 259 295 296
3 259 296 260
3 260 296 297
3 260 297 261
3 261 297 298
3 261 298 262
3 262 298 299
3 262 299 263
3 263 299 300
3 263 300 264
3 264 300 301
3 264 301 265
3 265 301 302
3 265 302 266
3 266 302 303
3 266 303 267
3 267 303 304
3 267 304 268
3 268 304 305
3 268 305 269
3 269 305 306
3 269 306 270
3 270 306 307
3 270 307 271
3 271 307 308
3 271 308 272
3 272 308 309
3 272 309 273
3 273 309 310
3 273 310 274
3 274 310 311
3 274 311 275
3 275 311 312
3 275 312 276
3 276 312 313
3 276 313 277
3 277 313 314
3 277 314 278
3 278 314 315
3 278 315 279
3 279 315 316
3 279 316 280
3 280 316 317
3 280 317 281
3 281 317 318
3 281 318 282
3 282 318 319
3 282 319 283
3 283 319 320
3 283 320 284
3 284 320 321
3 284 321 285
3 285 321 322
3 285 322 286
3 286 322 323
3 286 323 287
3 287 323 324
3 287 324 288
3 288 324 289
3 288 289 253
3 289 325 326
3 289 326 290
3 290 326 327
3 290 327 291
3 291 327 328
3 291 328 292
3 292 328 329
3 292 329 293
3 293 329 330
3 293 330 294
3 294 330 331
3 294 331 295
3 295 331 332
3 295 332 296
3 296 332 333
3 296 333 297
3 297 333 334
3 297 334 298
3 298 334 335
3 298 335 299
3 299 335 336
3 299 336 300
3 300 336 337
3 300 337 301
3 301 337 338
3 301 338 302
3 302 338 339
3 302 339 303
3 303 339 340
3 303 340 304
3 304 340 341
3 304 341 305
3 305 341 342
3 305 342 306
3 306 342 343
3 306 343 307
3 307 343 344
3 307 344 308
3 308 344 345
3 308 345 309
3 309 345 346
3 309 346 310
3 310 346 347
3 310 347 311
3 311 347 348
3 311 348 312
3 312 348 349
3 312 349 313
3 313 349 350
3 313 350 314
3 314 350 351
3 314 351 315
3 315 351 352
3 315 352 316
3 316 352 353
3 316 353 317
3 317 353 354
3 317 354 318
3 318 354 355
3 318 355 319
3 319 355 356
3 319 356 320
3 320 356 357
3 320 357 321
3 321 357 358
3 321 358 322
3 322 358 359
3 322 359 323
3 323 359 360
3 323 360 324
3 324 360 325
3 324 325 289
3 325 361 362
3 325 362 326
3 326 362 363
3 326 363 327
3 327 363 364
3 327 364 328
3 328 364 365
3 328 365 329
3 329 365 366
3 329 366 330
3 330 366 367
3 330 367 331
3 331 367 368
3 331 368 332
3 332 368 369
3 332 369 333
3 333 369 370
3 333 370 334
3 334 370 371
3 334 371 335
3 335 371 372
3 335 372 336
3 336 372 373
3 336 373 337
3 337 373 374
3 337 374 338
3 338 374 375
3 338 375 339
3 339 375 376
3 339 376 340
3 340 376 377
3 340 377 341
3 341 377 378
3 341 378 342
3 342 378 379
3 342 379 343
3 343 379 380
3 343 380 344
3 344 380 381
3 344 381 345
3 345 381 382
3 345 382 346
3 346 382 383
3 346 383 347
3 347 383 384
3 347 384 348
3 348 384 385
3 348 385 349
3 349 385 386
3 349 386 350
3 350 386 387
3 350 387 351
3 351 387 388
3 351 388 352
3 352 388 389
3 352 389 353
3 353 389 390
3 353 390 354
3 354 390 391
3 354 391 355
3 355 391 392
3 355 392 356
3 356 392 393
3 356 393 357
3 357 393 394
3 357 394 358
3 358 394 395
3 358 395 359
3 359 395 396
3 359 396 360
3 360 396 361
3 360 361 325
3 361 397 398
3 361 398 362
3 362 398 399
3 362 399 363
3 363 399 400
3 363 400 364
3 364 400 401
3 364 401 365
3 365 401 402
3 365 402 366
3 366 402 403
3 366 403 367
3 367 403 404
3 367 404 368
3 368 404 405
3 368 405 369
3 369 405 406
3 369 406 370
3 370 406 407
3 370 407 371
3 371 407 408
3 371 408 372
3 372 408 409
3 372 409 373
3 373 409 410
3 373 410 374
3 374 410 411
3 374 411 375
3 375 411 412
3 375 412 376
3 376 412 413
3 376 413 377
3 377 413 414
3 377 414 378
3 378 414 415
3 378 415 379
3 379 415 416
3 379 416 380
3 380 416 417
3 380 417 381
3 381 417 418
3 381 418 382
3 382 418 419
3 382 419 383
3 383 419 420
3 383 420 384
3 384 420 421
3 384 421 385
3 385 421 422
3 385 422 386
3 386 422 423
3 386 423 387
3 387 423 424
3 387 424 388
3 388 424 425
3 388 425 389
3 389 425 426
3 389 426 390
3 390 426 427
3 390 427 391
3 391 427 428
3 391 428 392
3 392 428 429
3 392 429 393
3 393 429 430
3 393 430 394
3 394 430 431
3 394 431 395
3 395 431 432
3 395 432 396
3 396 432 397
3 396 397 361
3 397 433 434
3 397 434 398
3 398 434 435
3 398 435 399
3 399 435 436
3 399 436 400
3 400 436 437
3 400 437 401
3 401 437 438
3 401 438 402
3 402 438 439
3 402 439 403
3 403 439 440
3 403 440 404
3 404 440 441
3 404 441 405
3 405 441 442
3 405 442 406
3 406 442 443
3 406 443 407
3 407 443 444
3 407 444 408
3 408 444 445
3 408 445 409
3 409 445 446
3 409 446 410
3 410 446 447
3 410 447 411
3 411 447 448
3 411 448 412
3 412 448 449
3 412 449 413
3 413 449 450
3 413 450 414
3 414 450 451
3 414 451 415
3 415 451 452
3 415 452 416
3 416 452 453
3 416 453 417
3 417 453 454
3 417 454 418
3 418 454 455
3 418 455 419
3 419 455 456
3 419 456 420
3 420 456 457
3 420 457 421
3 421 457 458
3 421 458 422
3 422 458 459
3 422 459 423
3 423 459 460
3 423 460 424
3 424 460 461
3 424 461 425
3 425 461 462
3 425 462 426
3 426 462 463
3 426 463 427
3 427 463 464
3 427 464 428
3 428 464 465
3 428 465 429
3 429 465 466
3 429 466 430
3 430 466 467
3 430 467 431
3 431 467 468
3 431 468 432
3 432 468 433
3 432 433 397
3 433 469 470
3 433 470 434
3 434 470 471
3 434 471 435
3 435 471 472
3 435 472 436
3 436 472 473
3 436 473 437
3 437 473 474
3 437 474 438
3 438 474 475
3 438 475 439
3 439 475 476
3 439 476 440
3 440 476 477
3 440 477 441
3 441 477 478
3 441 478 442
3 442 478 479
3 442 479 443
3 443 479 480
3 443 480 444
3 444 480 481
3 444 481 445
3 445 481 482
3 445 482 446
3 446 482 483
3 446 483 447
3 447 483 484
3 447 484 448
3 448 484 485
3 448 485 449
3 449 485 486
3 449 486 450
3 450 486 487
3 450 487 451
3 451 487 488
3 451 488 452
3 452 488 489
3 452 489 453
3 453 489 490
3 453 490 454
3 454 490 491
3 454 491 455
3 455 491 492
3 455 492 456
3 456 492 493
3 456 493 457
3 457 493 494
3 457 494 458
3 458 494 495
3 458 495 459
3 459 495 496
3 459 496 460
3 460 496 497
3 460 497 461
3 461 497 498
3 461 498 462
3 462 498 499
3 462 499 463
3 463 499 500
3 463 500 464
3 464 500 501
3 464 501 465
3 465 501 502
3 465 502 466
3 466 502 503
3 466 503 467
3 467 503 504
3 467 504 468
3 468 504 469
3 468 469 433
3 469 505 506
3 469 506 470
3 470 506 507
3 470 507 471
3 471 507 508
3 471 508 472
3 472 508 509
3 472 509 473
3 473 509 510
3 473 510 474
3 474 510 511
3 474 511 475
3 475 511 512
3 475 512 476
3 476 512 513
3 476 513 477
3 477 513 514
3 477 514 478
3 478 514 515
3 478 515 479
3 479 515 516
3 479 516 480
3 480 516 517
3 480 517 481
3 481 517 518
3 481 518 482
3 482 518 519
3 482 519 483
3 483 519 520
3 483 520 484
3 484 520 521
3 484 521 485
3 485 521 522
3 485 522 486
3 486 522 523
3 486 523 487
3 487 523 524
3 487 524 488
3 488 524 525
3 488 525 489
3 489 525 526
3 489 526 490
3 490 526 527
3 490 527 491
3 491 527 528
3 491 528 492
3 492 528 529
3 492 529 493
3 493 529 530
3 493 530 494
3 494 530 531
3 494 531 495
3 495 531 532
3 495 532 496
3 496 532 533
3 496 533 497
3 497 533 534
3 497 534 498
3 498 534 535
3 498 535 499
3 499 535 536
3 499 536 500
3 500 536 537
3 500 537 501
3 501 537 538
3 501 538 502
3 502 538 539
3 502 539 503
3 503 539 540
3 503 540 504
3 504 540 505
3 504 505 469
3 505 541 542
3 505 542 506
3 506 542 543
3 506 543 507
3 507 543 544
3 507 544 508
3 508 544 545
3 508 545 509
3 509 545 546
3 509 546 510
3 510 546 547
3 510 547 511
3 511 547 548
3 511 548 512
3 512 548 549
3 512 549 513
3 513 549 550
3 513 550 514
3 514 550 551
3 514 551 515
3 515 551 552
3 515 552 516
3 516 552 553
3 516 553 517
3 517 553 554
3 517 554 518
3 518 554 555
3 518 555 519
3 519 555 556
3 519 556 520
3 520 556 557
3 520 557 521
3 521 557 558
3 521 558 522
3 522 558 559
3 522 559 523
3 523 559 560
3 523 560 524
3 524 560 561
3 524 561 525
3 525 561 562
3 525 562 526
3 526 562 563
3 526 563 527
3 527 563 564
3 527 564 528
3 528 564 565
3 528 565 529
3 529 565 566
3 529 566 530
3 530 566 567
3 530 567 531
3 531 567 568
3 531 568 532
3 532 568 569
3 532 569 533
3 533 569 570
3 533 570 534
3 534 570 571
3 534 571 535
3 535 571 572
3 535 572 536
3 536 572 573
3 536 573 537
3 537 573 574
3 537 574 538
3 538 574 575
3 538 575 539
3 539 575 576
3 539 576 540
3 540 576 541
3 540 541 505
3 541 577 578
3 541 578 542
3 542 578 579
3 542 579 543
3 543 579 580
3 543 580 544
3 544 580 581
3 544 581 545
3 545 581 582
3 545 582 546
3 546 582 583
3 546 583 547
3 547 583 584
3 547 584 548
3 548 584 585
3 548 585 549
3 549 585 586
3 549 586 550
3 550 586 587
3 550 587 551
3 551 587 588
3 551 588 552
3 552 588 589
3 552 589 553
3 553 589 590
3 553 590 554
3 554 590 591
3 554 591 555
3 555 591 592
3 555 592 556
3 556 592 593
3 556 593 557
3 557 593 594
3 557 594 558
3 558 594 595
3 558 595 559
3 559 595 596
3 559 596 560
3 560 596 597
3 560 597 561
3 561 597 598
3 561 598 562
3 562 598 599
3 562 599 563
3 563 599 600
3 563 600 564
3 564 600 601
3 564 601 565
3 565 601 602
3 565 602 566
3 566 602 603
3 566 603 567
3 567 603 604
3 567 604 568
3 568 604 605
3 568 605 569
3 569 605 606
3 569 606 570
3 570 606 607
3 570 607 571
3 571 607 608
3 571 608 572
3 572 608 609
3 572 609 573
3 573 609 610
3 573 610 574
3 574 610 611
3 574 611 575
3 575 611 612
3 575 612 576
3 576 612 577
3 576 577 541
3 577 613 614
3 577 614 578
3 578 614 615
3 578 615 579
3 579 615 616
3 579 616 580
3 580 616 617
3 580 617 581
3 581 617 618
3 581 618 582
3 582 618 619
3 582 619 583
3 583 619 620
3 583 620 584
3 584 620 621
3 584 621 585
3 585 621 622
3 585 622 586
3 586 622 623
3 586 623 587
3 587 623 624
3 587 624 588
3 588 624 625
3 588 625 589
3 589 625 626
3 589 626 590
3 590 626 627
3 590 627 591
3 591 627 628
3 591 628 592
3 592 628 629
3 592 629 593
3 593 629 630
3 593 630 594
3 594 630 631
3 594 631 595
3 595 631 632
3 595 632 596
3 596 632 633
3 596 633 597
3 597 633 634
3 597 634 598
3 598 634 635
3 598 635 599
3 599 635 636
3 599 636 600
3 600 636 637
3 600 637 601
3 601 637 638
3 601 638 602
3 602 638 639
3 602 639 603
3 603 639 640
3 603 640 604
3 604 640 641
3 604 641 605
3 605 641 642
3 605 642 606
3 606 642 643
3 606 643 607
3 607 643 644
3 607 644 608
3 608 644 645
3 608 645 609
3 609 645 646
3 609 646 610
3 610 646 647
3 610 647 611
3 611 647 648
3 611 648 612
3 612 648 613
3 612 613 577
3 613 649 650
3 613 650 614
3 614 650 651
3 614 651 615
3 615 651 652
3 615 652 616
3 616 652 653
3 616 653 617
3 617 653 654
3 617 654 618
3 618 654 655
3 618 655 619
3 619 655 656
3 619 656 620
3 620 656 657
3 620 657 621
3 621 657 658
3 621 658 622
3 622 658 659
3 622 659 623
3 623 659 660
3 623 660 624
3 624 660 661
3 624 661 625
3 625 661 662
3 625 662 626
3 626 662 663
3 626 663 627
3 627 663 664
3 627 664 628
3 628 664 665
3 628 665 629
3 629 665 666
3 629 666 630
3 630 666 667
3 630 667 631
3 631 667 668
3 631 668 632
3 632 668 669
3 632 669 633
3 633 669 670
3 633 670 634
3 634 670 671
3 634 671 635
3 635 671 672
3 635 672 636
3 636 672 673
3 636 673 637
3 637 673 674
3 637 674 638
3 638 674 675
3 638 675 639
3 639 675 676
3 639 676 640
3 640 676 677
3 640 677 641
3 641 677 678
3 641 678 642
3 642 678 679
3 642 679 643
3 643 679 680
3 643 680 644
3 644 680 681
3 644 681 645
3 645 681 682
3 645 682 646
3 646 682 683
3 646 683 647
3 647 683 684
3 647 684 648
3 648 684 649
3 648 649 613
3 649 685 686
3 649 686 650
3 650 686 687
3 650 687 651
3 651 687 688
3 651 688 652
3 652 688 689
3 652 689 653
3 653 689 690
3 653 690 654
3 654 690 691
3 654 691 655
3 655 691 692
3 655 692 656
3 656 692 693
3 656 693 657
3 657 693 694
3 657 694 658
3 658 694 695
3 658 695 659
3 659 695 696
3 659 696 660
3 660 696 697
3 660 697 661
3 661 697 698
3 661 698 662
3 662 698 699
3 662 699 663
3 663 699 700
3 663 700 664
3 664 700 701
3 664 701 665
3 665 701 702
3 665 702 666
3 666 702 703
3 666 703 667
3 667 703 704
3 667 704 668
3 668 704 705
3 668 705 669
3 669 705 706
3 669 706 670
3 670 706 707
3 670 707 671
3 671 707 708
3 671 708 672
3 672 708 709
3 672 709 673
3 673 709 710
3 673 710 674
3 674 710 711
3 674 711 675
3 675 711 712
3 675 712 676
3 676 712 713
3 676 713 677
3 677 713 714
3 677 714 678
3 678 714 715
3 678 715 679
3 679 715 716
3 679 716 680
3 680 716 717
3 680 717 681
3 681 717 718
3 681 718 682
3 682 718 719
3 682 719 683
3 683 719 720
3 683 720 684
3 684 720 685
3 684 685 649
3 685 721 722
3 685 722 686
3 686 722 723
3 686 723 687
3 687 723 724
3 687 724 688
3 688 724 725
3 688 725 689
3 689 725 726
3 689 726 690
3 690 726 727
3 690 727 691
3 691 727 728
3 691 728 692
3 692 728 729
3 692 729 693
3 693 729 730
3 693 730 694
3 694 730 731
3 694 731 695
3 695 731 732
3 695 732 696
3 696 732 733
3 696 733 697
3 697 733 734
3 697 734 698
3 698 734 735
3 698 735 699
3 699 735 736
3 699 736 700
3 700 736 737
3 700 737 701
3 701 737 738
3 701 738 702
3 702 738 739
3 702 739 703
3 703 739 740
3 703 740 704
3 704 740 741
3 704 741 705
3 705 741 742
3 705 742 706
3 706 742 743
3 706 743 707
3 707 743 744
3 707 744 708
3 708 744 745
3 708 745 709
3 709 745 746
3 709 746 710
3 710 746 747
3 710 747 711
3 711 747 748
3 711 748 712
3 712 748 749
3 712 749 713
3 713 749 750
3 713 750 714
3 714 750 751
3 714 751 715
3 715 751 752
3 715 752 716
3 716 752 753
3 716 753 717
3 717 753 754
3 717 754 718
3 718 754 755
3 718 755 719
3 719 755 756
3 719 756 720
3 720 756 721
3 720 721 685
3 721 757 758
3 721 758 722
3 722 758 759
3 722 759 723
3 723 759 760
3 723 760 724
3 724 760 761
3 724 761 725
3 725 761 762
3 725 762 726
3 726 762 763
3 726 763 727
3 727 763 764
3 727 764 728
3 728 764 765
3 728 765 729
3 729 765 766
3 729 766 730
3 730 766 767
3 730 767 731
3 731 767 768
3 731 768 732
3 732 768 769
3 732 769 733
3 733 769 770
3 733 770 734
3 734 770 771
3 734 771 735
3 735 771 772
3 735 772 736
3 736 772 773
3 736 773 737
3 737 773 774
3 737 774 738
3 738 774 775
3 738 775 739
3 739 775 776
3 739 776 740
3 740 776 777
3 740 777 741
3 741 777 778
3 741 778 742
3 742 778 779
3 742 779 743
3 743 779 780
3 743 780 744
3 744 780 781
3 744 781 745
3 745 781 782
3 745 782 746
3 746 782 783
3 746 783 747
3 747 783 784
3 747 784 748
3 748 784 785
3 748 785 749
3 749 785 786
3 749 786 750
3 750 786 787
3 750 787 751
3 751 787 788
3 751 788 752
3 752 788 789
3 752 789 753
3 753 789 790
3 753 790 754
3 754 790 791
3 754 791 755
3 755 791 792
3 755 792 756
3 756 792 757
3 756 757 721
3 757 793 794
3 757 794 758
3 758 794 795
3 758 795 759
3 759 795 796
3 759 796 760
3 760 796 797
3 760 797 761
3 761 797 798
3 761 798 762
3 762 798 799
3 762 799 763
3 763 799 800
3 763 800 764
3 764 800 801
3 764 801 765
3 765 801 802
3 765 802 766
3 766 802 803
3 766 803 767
3 767 803 804
3 767 804 768
3 768 804 805
3 768 805 769
3 769 805 806
3 769 806 770
3 770 806 807
3 770 807 771
3 771 807 808
3 771 808 772
3 772 808 809
3 772 809 773
3 773 809 810
3 773 810 774
3 774 810 811
3 774 811 775
3 775 811 812
3 775 812 776
3 776 812 813
3 776 813 777
3 777 813 814
3 777 814 778
3 778 814 815
3 778 815 779
3 779 815 816
3 779 816 780
3 780 816 817
3 780 817 781
3 781 817 818
3 781 818 782
3 782 818 819
3 782 819 783
3 783 819 820
3 783 820 784
3 784 820 821
3 784 821 785
3 785 821 822
3 785 822 786
3 786 822 823
3 786 823 787
3 787 823 824
3 787 824 788
3 788 824 825
3 788 825 789
3 789 825 826
3 789 826 790
3 790 826 827
3 790 827 791
3 791 827 828
3 791 828 792
3 792 828 793
3 792 793 757
3 793 829 830
3 793 830 794
3 794 830 831
3 794 831 795
3 795 831 832
3 795 832 796
3 796 832 833
3 796 833 797
3 797 833 834
3 797 834 798
3 798 834 835
3 798 835 799
3 799 835 836
3 799 836 800
3 800 836 837
3 800 837 801
3 801 837 838
3 801 838 802
3 802 838 839
3 802 839 803
3 803 839 840
3 803 840 804
3 804 840 841
3 804 841 805
3 805 841 842
3 805 842 806
3 806 842 843
3 806 843 807
3 807 843 844
3 807 844 808
3 808 844 845
3 808 845 809
3 809 845 846
3 809 846 810
3 810 846 847
3 810 847 811
3 811 847 848
3 811 848 812
3 812 848 849
3 812 849 813
3 813 849 850
3 813 850 814
3 814 850 851
3 814 851 815
3 815 851 852
3 815 852 816
3 816 852 853
3 816 853 817
3 817 853 854
3 817 854 818
3 818 854 855
3 818 855 819
3 819 855 856
3 819 856 820
3 820 856 857
3 820 857 821
3 821 857 858
3 821 858 822
3 822 858 859
3 822 859 823
3 823 859 860
3 823 860 824
3 824 860 861
3 824 861 825
3 825 861 862
3 825 862 826
3 826 862 863
3 826 863 827
3 827 863 864
3 827 864 828
3 828 864 829
3 828 829 793
3 829 865 866
3 829 866 830
3 830 866 867
3 830 867 831
3 831 867 868
3 831 868 832
3 832 868 869
3 832 869 833
3 833 869 870
3 833 870 834
3 834 870 871
3 834 871 835
3 835 871 872
3 835 872 836
3 836 872 873
3 836 873 837
3 837 873 874
3 837 874 838
3 838 874 875
3 838 875 839
3 839 875 876
3 839 876 840
3 840 876 877
3 840 877 841
3 841 877 878
3 841 878 842
3 842 878 879
3 842 879 843
3 843 879 880
3 843 880 844
3 844 880 881
3 844 881 845
3 845 881 882
3 845 882 846
3 846 882 883
3 846 883 847
3 847 883 884
3 847 884 848
3 848 884 885
3 848 885 849
3 849 885 886
3 849 886 850
3 850 886 887
3 850 887 851
3 851 887 888
3 851 888 852
3 852 888 889
3 852 889 853
3 853 889 890
3 853 890 854
3 854 890 891
3 854 891 855
3 855 891 892
3 855 892 856
3 856 892 893
3 856 893 857
3 857 893 894
3 857 894 858
3 858 894 895
3 858 895 859
3 859 895 896
3 859 896 860
3 860 896 897
3 860 897 861
3 861 897 898
3 861 898 862
3 862 898 899
3 862 899 863
3 863 899 900
3 863 900 864
3 864 900 865
3 864 865 829
3 865 901 902
3 865 902 866
3 866 902 903
3 866 903 867
3 867 903 904
3 867 904 868
3 868 904 905
3 868 905 869
3 869 905 906
3 869 906 870
3 870 906 907
3 870 907 871
3 871 907 908
3 871 908 872
3 872 908 909
3 872 909 873
3 873 909 910
3 873 910 874
3 874 910 911
3 874 911 875
3 875 911 912
3 875 912 876
3 876 912 913
3 876 913 877
3 877 913 914
3 877 914 878
3 878 914 915
3 878 915 879
3 879 915 916
3 879 916 880
3 880 916 917
3 880 917 881
3 881 917 918
3 881 918 882
3 882 918 919
3 882 919 883
3 883 919 920
3 883 920 884
3 884 920 921
3 884 921 885
3 885 921 922
3 885 922 886
3 886 922 923
3 886 923 887
3 887 923 924
3 887 924 888
3 888 924 925
3 888 925 889
3 889 925 926
3 889 926 890
3 890 926 927
3 890 927 891
3 891 927 928
3 891 928 892
3 892 928 929
3 892 929 893
3 893 929 930
3 893 930 894
3 894 930 931
3 894 931 895
3 895 931 932
3 895 932 896
3 896 932 933
3 896 933 897
3 897 933 934
3 897 934 898
3 898 934 935
3 898 935 899
3 899 935 936
3 899 936 900
3 900 936 901
3 900 901 865
3 901 937 938
3 901 938 902
3 902 938 939
3 902 939 903
3 903 939 940
3 903 940 904
3 904 940 941
3 904 941 905
3 905 941 942
3 905 942 906
3 906 942 943
3 906 943 907
3 907 943 944
3 907 944 908
3 908 944 945
3 908 945 909
3 909 945 946
3 909 946 910
3 910 946 947
3 910 947 911
3 911 947 948
3 911 948 912
3 912 948 949
3 912 949 913
3 913 949 950
3 913 950 914
3 914 950 951
3 914 951 915
3 915 951 952
3 915 952 916
3 916 952 953
3 916 953 917
3 917 953 954
3 917 954 918
3 918 954 955
3 918 955 919
3 919 955 956
3 919 956 920
3 920 956 957
3 920 957 921
3 921 957 958
3 921 958 922
3 922 958 959
3 922 959 923
3 923 959 960
3 923 960 924
3 924 960 961
3 924 961 925
3 925 961 962
3 925 962 926
3 926 962 963
3 926 963 927
3 927 963 964
3 927 964 928
3 928 964 965
3 928 965 929
3 929 965 966
3 929 966 930
3 930 966 967
3 930 967 931
3 931 967 968
3 931 968 932
3 932 968 969
3 932 969 933
3 933 969 970
3 933 970 934
3 934 970 971
3 934 971 935
3 935 971 972
3 935 972 936
3 936 972 937
3 936 937 901
3 937 973 974
3 937 974 938
3 938 974 975
3 938 975 939
3 939 975 976
3 939 976 940
3 940 976 977
3 940 977 941
3 941 977 978
3 941 978 942
3 942 978 979
3 942 979 943
3 943 979 980
3 943 980 944
3 944 980 981
3 944 981 945
3 945 981 982
3 945 982 946
3 946 982 983
3 946 983 947
3 947 983 984
3 947 984 948
3 948 984 985
3 948 985 949
3 949 985 986
3 949 986 950
3 950 986 987
3 950 987 951
3 951 987 988
3 951 988 952
3 952 988 989
3 952 989 953
3 953 989 990
3 953 990 954
3 954 990 991
3 954 991 955
3 955 991 992
3 955 992 956
3 956 992 993
3 956 993 957
3 957 993 994
3 957 994 958
3 958 994 995
3 958 995 959
3 959 995 996
3 959 996 960
3 960 996 997
3 960 997 961
3 961 997 998
3 961 998 962
3 962 998 999
3 962 999 963
3 963 999 1000
3 963 1000 964
3 964 1000 1001
3 964 1001 965
3 965 1001 1002
3 965 1002 966
3 966 1002 1003
3 966 1003 967
3 967 1003 1004
3 967 1004 968
3 968 1004 1005
3 968 1005 969
3 969 1005 1006
3 969 1006 970
3 970 1006 1007
3 970 1007 971
3 971 1007 1008
3 971 1008 972
3 972 1008 973
3 972 973 937
3 973 1009 1010
3 973 1010 974
3 974 1010 1011
3 974 1011 975
3 975 1011 1012
3 975 1012 976
3 976 1012 1013
3 976 1013 977
3 977 1013 1014
3 977 1014 978
3 978 1014 1015
3 978 1015 979
3 979 1015 1016
3 979 1016 980
3 980 1016 1017
3 980 1017 981
3 981 1017 1018
3 981 1018 982
3 982 1018 1019
3 982 1019 983
3 983 1019 1020
3 983 1020 984
3 984 1020 1021
3 984 1021 985
3 985 1021 1022
3 985 1022 986
3 986 1022 1023
3 986 1023 987
3 987 1023 1024
3 987 1024 988
3 988 1024 1025
3 988 1025 989
3 989 1025 1026
3 989 1026 990
3 990 1026 1027
3 990 1027 991
3 991 1027 1028
3 991 1028 992
3 992 1028 1029
3 992 1029 993
3 993 1029 1030
3 993 1030 994
3 994 1030 1031
3 994 1031 995
3 995 1031 1032
3 995 1032 996
3 996 1032 1033
3 996 1033 997
3 997 1033 1034
3 997 1034 998
3 998 1034 1035
3 998 1035 999
3 999 1035 1036
3 999 1036 1000
3 1000 1036 1037
3 1000 1037 1001
3 1001 1037 1038
3 1001 1038 1002
3 1002 1038 1039
3 1002 1039 1003
3 1003 1039 1040
3 1003 1040 1004
3 1004 1040 1041
3 1004 1041 1005
3 1005 1041 1042
3 1005 1042 1006
3 1006 1042 1043
3 1006 1043 1007
3 1007 1043 1044
3 1007 1044 1008
3 1008 1044 1009
3 1008 1009 973
3 1009 1045 1046
3 1009 1046 1010
3 1010 1046 1047
3 1010 1047 1011
3 1011 1047 1048
3 1011 1048 1012
3 1012 1048 1049
3 1012 1049 1013
3 1013 1049 1050
3 1013 1050 1014
3 1014 1050 1051
3 1014 1051 1015
3 1015 1051 1052
3 1015 1052 1016
3 1016 1052 1053
3 1016 1053 1017
3 1017 1053 1054
3 1017 1054 1018
3 1018 1054 1055
3 1018 1055 1019
3 1019 1055 1056
3 1019 1056 1020
3 1020 1056 1057
3 1020 1057 1021
3 1021 1057 1058
3 1021 1058 1022
3 1022 1058 1059
3 1022 1059 1023
3 1023 1059 1060
3 1023 1060 1024
3 1024 1060 1061
3 1024 1061 1025
3 1025 1061 1062
3 1025 1062 1026
3 1026 1062 1063
3 1026 1063 1027
3 1027 1063 1064
3 1027 1064 1028
3 1028 1064 1065
3 1028 1065 1029
3 1029 1065 1066
3 1029 1066 1030
3 1030 1066 1067
3 1030 1067 1031
3 1031 1067 1068
3 1031 1068 1032
3 1032 1068 1069
3 1032 1069 1033
3 1033 1069 1070
3 1033 1070 1034
3 1034 1070 1071
3 1034 1071 1035
3 1035 1071 1072
3 1035 1072 1036
3 1036 1072 1073
3 1036 1073 1037
3 1037 1073 1074
3 1037 1074 1038
3 1038 1074 1075
3 1038 1075 1039
3 1039 1075 1076
3 1039 1076 1040
3 1040 1076 1077
3 1040 1077 1041
3 1041 1077 1078
3 1041 1078 1042
3 1042 1078 1079
3 1042 1079 1043
3 1043 1079 1080
3 1043 1080 1044
3 1044 1080 1045
3 1044 1045 1009
3 1045 1081 1082
3 1045 1082 1046
3 1046 1082 1083
3 1046 1083 1047
3 1047 1083 1084
3 1047 1084 1048
3 1048 1084 1085
3 1048 1085 1049
3 1049 1085 1086
3 1049 1086 1050
3 1050 1086 1087
3 1050 1087 1051
3 1051 1087 1088
3 1051 1088 1052
3 1052 1088 1089
3 1052 1089 1053
3 1053 1089 1090
3 1053 1090 1054
3 1054 1090 1091
3 1054 1091 1055
3 1055 1091 1092
3 1055 1092 1056
3 1056 1092 1093
3 1056 1093 1057
3 1057 1093 1094
3 1057 1094 1058
3 1058 1094 1095
3 1058 1095 1059
3 1059 1095 1096
3 1059 1096 1060
3 1060 1096 1097
3 1060 1097 1061
3 1061 1097 1098
3 1061 1098 1062
3 1062 1098 1099
3 1062 1099 1063
3 1063 1099 1100
3 1063 1100 1064
3 1064 1100 1101
3 1064 1101 1065
3 1065 1101 1102
3 1065 1102 1066
3 1066 1102 1103
3 1066 1103 1067
3 1067 1103 1104
3 1067 1104 1068
3 1068 1104 1105
3 1068 1105 1069
3 1069 1105 1106
3 1069 1106 1070
3 1070 1106 1107
3 1070 1107 1071
3 1071 1107 1108
3 1071 1108 1072
3 1072 1108 1109
3 1072 1109 1073
3 1073 1109 1110
3 1073 1110 1074
3 1074 1110 1111
3 1074 1111 1075
3 1075 1111 1112
3 1075 1112 1076
3 1076 1112 1113
3 1076 1113 1077
3 1077 1113 1114
3 1077 1114 1078
3 1078 1114 1115
3 1078 1115 1079
3 1079 1115 1116
3 1079 1116 1080
3 1080 1116 1081
3 1080 1081 1045
3 1081 1117 1118
3 1081 1118 1082
3 1082 1118 1119
3 1082 1119 1083
3 1083 1119 1120
3 1083 1120 1084
3 1084 1120 1121
3 1084 1121 1085
3 1085 1121 1122
3 1085 1122 1086
3 1086 1122 1123
3 1086 1123 1087
3 1087 1123 1124
3 1087 1124 1088
3 1088 1124 1125
3 1088 1125 1089
3 1089 1125 1126
3 1089 1126 1090
3 1090 1126 1127
3 1090 1127 1091
3 1091 1127 1128
3 1091 1128 1092
3 1092 1128 1129
3 1092 1129 1093
3 1093 1129 1130
3 1093 1130 1094
3 1094 1130 1131
3 1094 1131 1095
3 1095 1131 1132
3 1095 1132 1096
3 1096 1132 1133
3 1096 1133 1097
3 1097 1133 1134
3 1097 1134 1098
3 1098 1134 1135
3 1098 1135 1099
3 1099 1135 1136
3 1099 1136 1100
3 1100 1136 1137
3 1100 1137 1101
3 1101 1137 1138
3 1101 1138 1102
3 1102 1138 1139
3 1102 1139 1103
3 1103 1139 1140
3 1103 1140 1104
3 1104 1140 1141
3 1104 1141 1105
3 1105 1141 1142
3 1105 1142 1106
3 1106 1142 1143
3 1106 1143 1107
3 1107 1143 1144
3 1107 1144 1108
3 1108 1144 1145
3 1108 1145 1109
3 1109 1145 1146
3 1109 1146 1110
3 1110 1146 1147
3 1110 1147 1111
3 1111 1147 1148
3 1111 1148 1112
3 1112 1148 1149
3 1112 1149 1113
3 1113 1149 1150
3 1113 1150 1114
3 1114 1150 1151
3 1114 1151 1115
3 1115 1151 1152
3 1115 1152 1116
3 1116 1152 1117
3 1116 1117 1081
3 1117 1153 1154
3 1117 1154 1118
3 1118 1154 1155
3 1118 1155 1119
3 1119 1155 1156
3 1119 1156 1120
3 1120 1156 1157
3 1120 1157 1121
3 1121 1157 1158
3 1121 1158 1122
3 1122 1158 1159
3 1122 1159 1123
3 1123 1159 1160
3 1123 1160 1124
3 1124 1160 1161
3 1124 1161 1125
3 1125 1161 1162
3 1125 1162 1126
3 1126 1162 1163
3 1126 1163 1127
3 1127 1163 1164
3 1127 1164 1128
3 1128 1164 1165
3 1128 1165 1129
3 1129 1165 1166
3 1129 1166 1130
3 1130 1166 1167
3 1130 1167 1131
3 1131 1167 1168
3 1131 1168 1132
3 1132 1168 1169
3 1132 1169 1133
3 1133 1169 1170
3 1133 1170 1134
3 1134 1170 1171
3 1134 1171 1135
3 1135 1171 1172
3 1135 1172 1136
3 1136 1172 1173
3 1136 1173 1137
3 1137 1173 1174
3 1137 1174 1138
3 1138 1174 1175
3 1138 1175 1139
3 1139 1175 1176
3 1139 1176 1140
3 1140 1176 1177
3 1140 1177 1141
3 1141 1177 1178
3 1141 1178 1142
3 1142 1178 1179
3 1142 1179 1143
3 1143 1179 1180
3 1143 1180 1144
3 1144 1180 1181
3 1144 1181 1145
3 1145 1181 1182
3 1145 1182 1146
3 1146 1182 1183
3 1146 1183 1147
3 1147 1183 1184
3 1147 1184 1148
3 1148 1184 1185
3 1148 1185 1149
3 1149 1185 1186
3 1149 1186 1150
3 1150 1186 1187
3 1150 1187 1151
3 1151 1187 1188
3 1151 1188 1152
3 1152 1188 1153
3 1152 1153 1117
3 1153 1189 1190
3 1153 1190 1154
3 1154 1190 1191
3 1154 1191 1155
3 1155 1191 1192
3 1155 1192 1156
3 1156 1192 1193
3 1156 1193 1157
3 1157 1193 1194
3 1157 1194 1158
3 1158 1194 1195
3 1158 1195 1159
3 1159 1195 1196
3 1159 1196 1160
3 1160 1196 1197
3 1160 1197 1161
3 1161 1197 1198
3 1161 1198 1162
3 1162 1198 1199
3 1162 1199 1163
3 1163 1199 1200
3 1163 1200 1164
3 1164 1200 1201
3 1164 1201 1165
3 1165 1201 1202
3 1165 1202 1166
3 1166 1202 1203
3 1166 1203 1167
3 1167 1203 1204
3 1167 1204 1168
3 1168 1204 1205
3 1168 1205 1169
3 1169 1205 1206
3 1169 1206 1170
3 1170 1206 1207
3 1170 1207 1171
3 1171 1207 1208
3 1171 1208 1172
3 1172 1208 1209
3 1172 1209 1173
3 1173 1209 1210
3 1173 1210 1174
3 1174 1210 1211
3 1174 1211 1175
3 1175 1211 1212
3 1175 1212 1176
3 1176 1212 1213
3 1176 1213 1177
3 1177 1213 1214
3 1177 1214 1178
3 1178 1214 1215
3 1178 1215 1179
3 1179 1215 1216
3 1179 1216 1180
3 1180 1216 1217
3 1180 1217 1181
3 1181 1217 1218
3 1181 1218 1182
3 1182 1218 1219
3 1182 1219 1183
3 1183 1219 1220
3 1183 1220 1184
3 1184 1220 1221
3 1184 1221 1185
3 1185 1221 1222
3 1185 1222 1186
3 1186 1222 1223
3 1186 1223 1187
3 1187 1223 1224
3 1187 1224 1188
3 1188 1224 1189
3 1188 1189 1153
3 1189 1225 1226
3 1189 1226 1190
3 1190 1226 1227
3 1190 1227 1191
3 1191 1227 1228
3 1191 1228 1192
3 1192 1228 1229
3 1192 1229 1193
3 1193 1229 1230
3 1193 1230 1194
3 1194 1230 1231
3 1194 1231 1195
3 1195 1231 1232
3 1195 1232 1196
3 1196 1232 1233
3 1196 1233 1197
3 1197 1233 1234
3 1197 1234 1198
3 1198 1234 1235
3 1198 1235 1199
3 1199 1235 1236
3 1199 1236 1200
3 1200 1236 1237
3 1200 1237 1201
3 1201 1237 1238
3 1201 1238 1202
3 1202 1238 1239
3 1202 1239 1203
3 1203 1239 1240
3 1203 1240 1204
3 1204 1240 1241
3 1204 1241 1205
3 1205 1241 1242
3 1205 1242 1206
3 1206 1242 1243
3 1206 1243 1207
3 1207 1243 1244
3 1207 1244 1208
3 1208 1244 1245
3 1208 1245 1209
3 1209 1245 1246
3 1209 1246 1210
3 1210 1246 1247
3 1210 1247 1211
3 1211 1247 1248
3 1211 1248 1212
3 1212 1248 1249
3 1212 1249 1213
3 1213 1249 1250
3 1213 1250 1214
3 1214 1250 1251
3 1214 1251 1215
3 1215 1251 1252
3 1215 1252 1216
3 1216 1252 1253
3 1216 1253 1217
3 1217 1253 1254
3 1217 1254 1218
3 1218 1254 1255
3 1218 1255 1219
3 1219 1255 1256
3 1219 1256 1220
3 1220 1256 1257
3 1220 1257 1221
3 1221 1257 1258
3 1221 1258 1222
3 1222 1258 1259
3 1222 1259 1223
3 1223 1259 1260
3 1223 1260 1224
3 1224 1260 1225
3 1224 1225 1189
3 1225 1261 1262
3 1225 1262 1226
3 1226 1262 1263
3 1226 1263 1227
3 1227 1263 1264
3 1227 1264 1228
3 1228 1264 1265
3 1228 1265 1229
3 1229 1265 1266
3 1229 1266 1230
3 1230 1266 1267
3 1230 1267 1231
3 1231 1267 1268
3 1231 1268 1232
3 1232 1268 1269
3 1232 1269 1233
3 1233 1269 1270
3 1233 1270 1234
3 1234 1270 1271
3 1234 1271 1235
3 1235 1271 1272
3 1235 1272 1236
3 1236 1272 1273
3 1236 1273 1237
3 1237 1273 1274
3 1237 1274 1238
3 1238 1274 1275
3 1238 1275 1239
3 1239 1275 1276
3 1239 1276 1240
3 1240 1276 1277
3 1240 1277 1241
3 1241 1277 1278
3 1241 1278 1242
3 1242 1278 1279
3 1242 1279 1243
3 1243 1279 1280
3 1243 1280 1244
3 1244 1280 1281
3 1244 1281 1245
3 1245 1281 1282
3 1245 1282 1246
3 1246 1282 1283
3 1246 1283 1247
3 1247 1283 1284
3 1247 1284 1248
3 1248 1284 1285
3 1248 1285 1249
3 1249 1285 1286
3 1249 1286 1250
3 1250 1286 1287
3 1250 1287 1251
3 1251 1287 1288
3 1251 1288 1252
3 1252 1288 1289
3 1252 1289 1253
3 1253 1289 1290
3 1253 1290 1254
3 1254 1290 1291
3 1254 1291 1255
3 1255 1291 1292
3 1255 1292 1256
3 1256 1292 1293
3 1256 1293 1257
3 1257 1293 1294
3 1257 1294 1258
3 1258 1294 1295
3 1258 1295 1259
3 1259 1295 1296
3 1259 1296 1260
3 1260 1296 1261
3 1260 1261 1225
