ply 
format ascii 1.0 
comment this is a surface 
element vertex 1297 
property float x 
property float y 
property float z 
element face 2556 
property list uchar int vertex_index 
end_header 
50.769111 0.014216 13.101119
50.527946 0.430278 14.006494
50.564666 0.483766 13.924460
50.622568 0.562841 13.780373
50.694112 0.657867 13.594222
50.771749 0.759208 13.385995
50.847944 0.857227 13.175681
50.915151 0.942290 12.983267
50.965824 1.004758 12.828741
50.992422 1.034997 12.732094
50.992744 1.016989 12.697708
50.993546 0.914980 12.647652
50.998415 0.744051 12.575321
51.005858 0.527016 12.489235
51.014363 0.286690 12.397914
51.022443 0.045889 12.309879
51.028591 -0.172572 12.233649
51.031311 -0.345881 12.177745
51.029099 -0.451221 12.150687
51.017671 -0.482492 12.166982
50.981951 -0.523076 12.260038
50.925698 -0.581965 12.416160
50.855823 -0.652095 12.614438
50.779232 -0.726401 12.833965
50.702824 -0.797818 13.053827
50.633505 -0.859281 13.253117
50.578181 -0.903725 13.410925
50.543756 -0.924084 13.506342
50.533093 -0.906893 13.534338
50.526381 -0.816783 13.574405
50.520228 -0.666114 13.634625
50.515007 -0.474771 13.707766
50.511101 -0.262634 13.786601
50.508881 -0.049591 13.863901
50.508732 0.144476 13.932437
50.511029 0.299685 13.984981
50.516152 0.396151 14.014303
49.785842 1.322836 15.628626
49.919846 1.553154 15.399099
50.101881 1.833149 14.998570
50.312053 2.136992 14.478295
50.530469 2.438860 13.889529
50.737231 2.712923 13.283527
50.912443 2.933356 12.711546
51.036213 3.074333 12.224840
51.088636 3.110027 11.874664
51.066886 3.001944 11.676674
51.057766 2.679197 11.457104
51.069660 2.182353 11.202487
51.094375 1.568083 10.933685
51.123712 0.893055 10.671568
51.149480 0.213940 10.436997
51.163483 -0.412592 10.250842
51.157533 -0.929870 10.133964
51.123432 -1.281226 10.107233
51.051334 -1.449535 10.204460
50.931100 -1.629725 10.496855
50.773247 -1.841245 10.948350
50.590841 -2.065586 11.506894
50.396939 -2.284242 12.120434
50.204602 -2.478704 12.736918
50.026894 -2.630462 13.304293
49.876875 -2.721012 13.770509
49.767606 -2.731844 14.083512
49.705695 -2.631944 14.228900
49.660855 -2.352274 14.393621
49.627775 -1.924432 14.596674
49.607093 -1.395243 14.820864
49.599435 -0.811531 15.048994
49.605434 -0.220123 15.263868
49.625718 0.332156 15.448287
49.660918 0.798481 15.585055
49.711666 1.132028 15.656977
48.815649 2.238800 17.130518
49.067055 2.719763 16.769754
49.377785 3.245247 16.148943
49.718538 3.776599 15.340249
50.059996 4.275172 14.415831
50.372857 4.702312 13.447850
50.627807 5.019369 12.508468
50.795540 5.187693 11.669842
50.846745 5.168631 11.004139
50.781671 4.911908 10.540595
50.752431 4.352525 10.077270
50.769625 3.551105 9.601028
50.814755 2.584727 9.139811
50.869319 1.530462 8.721564
50.914809 0.465386 8.374227
50.932722 -0.533429 8.125742
50.904562 -1.388908 8.004054
50.811822 -2.023976 8.037106
50.642153 -2.411637 8.267123
50.425273 -2.794322 8.770652
50.177681 -3.193699 9.495102
49.910971 -3.583477 10.369473
49.636734 -3.937364 11.322766
49.366558 -4.229067 12.283984
49.112047 -4.432294 13.182128
48.884786 -4.520755 13.946200
48.696372 -4.468154 14.505197
48.555199 -4.236477 14.836274
48.449443 -3.761319 15.175553
48.376605 -3.087055 15.546759
48.336912 -2.273367 15.927491
48.330599 -1.379936 16.295352
48.357891 -0.466446 16.627941
48.419017 0.407424 16.902857
48.514206 1.181992 17.097701
48.643685 1.797572 17.190073
47.635085 3.155061 18.497706
48.010003 3.937290 18.014939
48.446146 4.737884 17.202630
48.906881 5.507841 16.144981
49.355581 6.198160 14.926200
49.755619 6.759841 13.630490
50.070359 7.143883 12.342056
50.263176 7.301285 11.145101
50.297437 7.183045 10.123832
50.178661 6.735338 9.322187
50.125275 5.931084 8.562812
50.148323 4.846524 7.838602
50.216958 3.568384 7.180497
50.300318 2.183388 6.619438
50.367555 0.778260 6.186365
50.387804 -0.560273 5.912219
50.330214 -1.745492 5.827939
50.163934 -2.690665 5.964468
49.876012 -3.359570 6.364015
49.556723 -3.989599 7.083474
49.228046 -4.598572 8.058549
48.895588 -5.156160 9.209049
48.564940 -5.632040 10.454778
48.241704 -5.995882 11.715543
47.931474 -6.217362 12.911145
47.639854 -6.266155 13.961395
47.372433 -6.111929 14.786091
47.138232 -5.717841 15.354851
46.960967 -5.049100 15.907258
46.843508 -4.157407 16.466482
46.785055 -3.104836 17.008224
46.784790 -1.953458 17.508176
46.841910 -0.765347 17.942037
46.955602 0.397424 18.285502
47.125061 1.472786 18.514269
47.349473 2.398660 18.604033
46.261859 4.048505 19.715721
46.752398 5.159434 19.113170
47.302812 6.249811 18.130763
47.870401 7.261868 16.857390
48.412466 8.137840 15.381936
48.886301 8.819957 13.793290
49.249202 9.250453 12.180336
49.458470 9.371560 10.631962
49.471402 9.125509 9.237057
49.299401 8.460685 8.054161
49.224035 7.410996 6.968393
49.255774 6.064825 5.982866
49.350938 4.510490 5.128627
49.465850 2.836309 4.436726
49.556833 1.130602 3.938212
49.580213 -0.518313 3.664135
49.492306 -2.022116 3.645540
49.249434 -3.292490 3.913476
48.838805 -4.284110 4.504179
48.417681 -5.188293 5.437357
48.013378 -6.015107 6.640826
47.624053 -6.734029 8.032496
47.247890 -7.314542 9.530284
46.883045 -7.726124 11.052103
46.527702 -7.938254 12.515868
46.180017 -7.920414 13.839493
45.838174 -7.642082 14.940891
45.511420 -7.073389 15.783030
45.264241 -6.220800 16.575792
45.105283 -5.138913 17.337450
45.032088 -3.885342 18.043631
45.042189 -2.517706 18.669961
45.133126 -1.093618 19.192068
45.302430 0.329300 19.585575
45.547641 1.693437 19.826110
45.866295 2.941173 19.889299
44.713687 4.896020 20.770098
45.297940 6.339890 20.042960
45.943639 7.719777 18.904482
46.602411 8.969836 17.442370
47.225891 10.024227 15.744337
47.765693 10.817106 13.898088
48.173450 11.282633 11.991332
48.400793 11.354965 10.111777
48.399339 10.968256 8.347134
48.185441 10.076404 6.769231
48.096451 8.788386 5.348676
48.141985 7.202227 4.101477
48.266651 5.402480 3.057088
48.415043 3.473702 2.244966
48.531775 1.500448 1.694572
48.561438 -0.432730 1.435356
48.448644 -2.241281 1.496778
48.137989 -3.840639 1.908295
47.616414 -5.176029 2.696657
47.100407 -6.363140 3.834347
46.622716 -7.402551 5.244063
46.175745 -8.267481 6.846687
45.751901 -8.931147 8.563100
45.343597 -9.366765 10.314183
44.943238 -9.547555 12.020821
44.543225 -9.446739 13.603896
44.135970 -9.037526 14.984284
43.731393 -8.300473 16.119208
43.428088 -7.281604 17.168214
43.238728 -6.034995 18.141266
43.158601 -4.610577 19.014290
43.182991 -3.058284 19.763209
43.307185 -1.428049 20.363946
43.526464 0.230196 20.792425
43.836113 1.866520 21.024574
44.231421 3.430983 21.036311
43.008277 5.674494 21.646371
43.650329 7.432357 20.782824
44.364476 9.086530 19.494917
45.096228 10.562896 17.864819
45.791094 11.787338 15.974698
46.394588 12.685738 13.906726
46.852219 13.183982 11.743065
47.109495 13.207946 9.565894
47.111932 12.683522 7.457370
46.878335 11.570947 5.500110
46.790263 10.059372 3.758326
46.856982 8.254944 2.262092
47.014054 6.235791 1.038763
47.197039 4.080043 0.115694
47.341492 1.865831 -0.479762
47.382974 -0.328721 -0.720254
47.257048 -2.425473 -0.578419
46.899266 -4.346315 -0.026915
46.294730 -6.026102 0.950495
45.697136 -7.486874 2.276483
45.145097 -8.720150 3.870394
44.630021 -9.706907 5.658493
44.143308 -10.428125 7.567041
43.676366 -10.864781 9.522297
43.220596 -10.997857 11.450532
42.767411 -10.808326 13.277996
42.308208 -10.277173 14.930969
41.854781 -9.396441 16.361783
41.521323 -8.236695 17.671579
41.320634 -6.849080 18.859535
41.245170 -5.276236 19.900773
41.287388 -3.560803 20.770416
41.439733 -1.745426 21.443587
41.694671 0.127260 21.895414
42.044651 2.014600 22.101011
42.482124 3.873972 22.035512
41.163345 6.360814 22.330071
41.813281 8.390532 21.311279
42.561186 10.288823 19.873209
43.345163 11.972204 18.089634
44.103326 13.357189 16.034322
44.773772 14.360301 13.781043
45.294609 14.898048 11.403567
45.603941 14.886959 8.975657
45.639876 14.243541 6.571093
45.419632 12.932768 4.279510
45.353202 11.220078 2.252003
45.450772 9.219193 0.532368
45.643105 7.001857 -0.853461
45.860960 4.639809 -1.879557
46.035110 2.204788 -2.519989
46.096312 -0.231460 -2.748822
45.975329 -2.597206 -2.540136
45.602928 -4.820698 -1.867993
44.959643 -6.825101 -0.725263
44.300115 -8.532232 0.765805
43.669568 -9.927149 2.521952
43.066252 -11.002704 4.474788
42.488430 -11.751752 6.555920
41.934360 -12.167146 8.696962
41.402306 -12.241738 10.829518
40.890513 -11.968385 12.885206
40.397258 -11.339938 14.795626
39.938208 -10.358646 16.509147
39.612765 -9.091256 18.072946
39.427800 -7.584589 19.473862
39.372375 -5.878007 20.683655
39.435561 -4.010869 21.674084
39.606417 -2.022538 22.416907
39.874014 0.047624 22.883884
40.227408 2.160265 23.046778
40.655669 4.276011 22.877344
39.196600 6.931868 22.806735
39.790490 9.168112 21.606835
40.529616 11.265402 20.010492
41.342538 13.128905 18.081713
42.157826 14.663795 15.884506
42.904035 15.775235 13.482881
43.509737 16.368397 10.940853
43.903492 16.348445 8.322422
44.013870 15.620553 5.691603
43.850879 14.150320 3.140145
43.833013 12.266623 0.884372
43.973374 10.091194 -1.020035
44.203759 7.692117 -2.546698
44.455953 5.137475 -3.669248
44.661749 2.495357 -4.361304
44.752934 -0.166147 -4.596497
44.661305 -2.778961 -4.348444
44.318641 -5.275000 -3.590781
43.697037 -7.563803 -2.321576
43.001594 -9.471949 -0.695645
42.285164 -10.982791 1.200869
41.563808 -12.105264 3.302442
40.853597 -12.848300 5.543556
40.170593 -13.220831 7.858687
39.530868 -13.231794 10.182311
38.950484 -12.890116 12.448911
38.445503 -12.204734 14.592965
38.038305 -11.184440 16.559700
37.771234 -9.850471 18.359371
37.637021 -8.244949 19.965851
37.620800 -6.411587 21.343508
37.707709 -4.394091 22.456708
37.882880 -2.236175 23.269814
38.131448 0.018448 23.747197
38.438553 2.326072 23.853217
38.789329 4.642992 23.552249
37.150671 7.378870 23.086443
37.628602 9.746795 21.688101
38.317889 11.990627 19.926655
39.136087 14.002389 17.857342
40.000747 15.674107 15.535393
40.829420 16.897810 13.016041
41.539658 17.565520 10.354521
42.049021 17.569268 7.606063
42.275051 16.801074 4.825902
42.214905 15.221750 2.103460
42.271947 13.202514 -0.310763
42.464271 10.874085 -2.352546
42.731288 8.305791 -3.992953
43.012406 5.566957 -5.203047
43.247036 2.726910 -5.953894
43.374585 -0.145026 -6.216558
43.334461 -2.979523 -5.962101
43.066074 -5.707256 -5.161590
42.529803 -8.222773 -3.813019
41.830058 -10.276190 -2.085094
41.027397 -11.854589 -0.067924
40.165763 -12.985200 2.171304
39.289104 -13.695252 4.565406
38.441363 -14.011977 7.047199
37.666487 -13.962604 9.549496
37.008420 -13.574364 12.005116
36.511107 -12.874488 14.346873
36.206292 -11.873546 16.517642
36.041067 -10.509682 18.518144
35.986743 -8.821246 20.310481
36.024206 -6.864466 21.847529
36.134339 -4.695560 23.082166
36.298029 -2.370751 23.967267
36.496161 0.053739 24.455709
36.709619 2.521690 24.500371
36.919289 4.976876 24.054126
35.181946 7.773410 23.305710
35.579081 10.263961 21.773180
36.226928 12.637710 19.883431
37.038459 14.777248 17.689230
37.926651 16.565162 15.243337
38.804479 17.884048 12.598521
39.584916 18.616491 9.807543
40.180940 18.645081 6.923168
40.505525 17.852408 3.998158
40.545116 16.194315 1.124124
40.667231 14.064506 -1.422051
40.893348 11.601764 -3.571580
41.173005 8.879581 -5.295515
41.455728 5.971448 -6.564909
41.691054 2.950853 -7.350808
41.828515 -0.108716 -7.624269
41.817643 -3.133767 -7.356338
41.607971 -6.050811 -6.518070
41.154273 -8.743434 -5.106787
40.479365 -10.921735 -3.289164
39.644919 -12.574457 -1.159564
38.712009 -13.737839 1.209710
37.741714 -14.448123 3.746355
36.795113 -14.741548 6.378067
35.933281 -14.654356 9.032540
35.217298 -14.222784 11.637472
34.708238 -13.483075 14.120557
34.445035 -12.448474 16.422425
34.324559 -11.026756 18.554668
34.305650 -9.255501 20.473961
34.365808 -7.196343 22.124742
34.482533 -4.910917 23.451451
34.633329 -2.460855 24.398528
34.795694 0.092208 24.910411
34.947134 2.686639 24.931540
35.065148 5.260805 24.406353
33.305413 8.129070 23.484005
33.663380 10.741346 21.878266
34.283004 13.234183 19.895756
35.078964 15.484404 17.592256
35.965939 17.368831 15.023552
36.858608 18.764285 12.245424
37.671655 19.547587 9.313659
38.319758 19.595562 6.284039
38.717600 18.785029 3.212348
38.844036 17.067834 0.196941
39.016123 14.846770 -2.462091
39.256886 12.267459 -4.694808
39.527086 9.408923 -6.475076
39.787486 6.350185 -7.776760
39.998847 3.170267 -8.573727
40.121936 -0.051809 -8.839842
40.117514 -3.237020 -8.548969
39.946343 -6.306343 -7.674976
39.563745 -9.136759 -6.214571
38.937453 -11.428461 -4.318464
38.124076 -13.168851 -2.085050
37.190066 -14.394135 0.405703
36.201882 -15.140511 3.073827
35.225978 -15.444183 5.839350
34.328808 -15.341352 8.622305
33.576826 -14.868220 11.342724
33.036489 -14.060990 13.920633
32.751313 -12.936889 16.294194
32.615875 -11.427022 18.499543
32.586156 -9.571005 20.493544
32.637270 -7.428409 22.215748
32.744331 -5.058796 23.605707
32.882455 -2.521735 24.602967
33.026755 0.123206 25.147082
33.152343 2.816464 25.177600
33.234337 5.498468 24.634072
31.509941 8.446073 23.616652
31.858922 11.174425 21.979361
32.459182 13.774280 19.929598
33.231689 16.119227 17.529853
34.097412 18.082863 14.842619
34.977325 19.538782 11.930389
35.792391 20.360575 8.855654
36.463585 20.421840 5.680907
36.911871 19.596167 2.468637
37.111167 17.832498 -0.673175
37.319410 15.535692 -3.424647
37.559814 12.857042 -5.717441
37.804785 9.881294 -7.530425
38.026731 6.693196 -8.842473
38.198062 3.377492 -9.632454
38.291185 0.018929 -9.879239
38.278509 -3.297749 -9.561696
38.132443 -6.487793 -8.658699
37.813230 -9.425250 -7.166054
37.254250 -11.820977 -5.205780
36.502605 -13.658531 -2.879739
35.621336 -14.967443 -0.277464
34.673486 -15.777243 2.511511
33.722096 -16.117461 5.397654
32.830211 -16.017624 8.291431
32.060871 -15.507261 11.103309
31.477123 -14.615907 13.743754
31.124938 -13.365301 16.147978
30.931468 -11.746948 18.385014
30.857019 -9.804788 20.415817
30.875242 -7.591511 22.177721
30.959784 -5.159805 23.608056
31.084293 -2.562358 24.644151
31.222419 0.148139 25.223343
31.347811 2.919000 25.282958
31.434117 5.697532 24.760330
29.784405 8.724647 23.698976
30.143125 11.558679 22.052460
30.728516 14.252232 19.950920
31.470718 16.677085 17.465446
32.299879 18.705015 14.667126
33.146136 20.207800 11.627052
33.939639 21.057215 8.416313
34.610527 21.125043 5.105996
35.088944 20.283055 1.767195
35.346011 18.478506 -1.481313
35.577879 16.117654 -4.303478
35.807067 13.356385 -6.634683
36.017357 10.284177 -8.460353
36.192521 6.990511 -9.765915
36.316344 3.564871 -10.536797
36.372599 0.096735 -10.758426
36.345064 -3.324415 -10.416225
36.217518 -6.609097 -9.495625
35.957736 -9.631411 -7.990924
35.479682 -12.123892 -5.983900
34.818241 -14.064251 -3.578990
34.027212 -15.471125 -0.876538
33.160401 -16.363151 2.023101
32.271609 -16.758963 5.019581
31.414644 -16.677203 8.012553
30.643306 -16.136501 10.901668
30.011400 -15.155497 13.586576
29.565725 -13.760217 15.998812
29.287795 -12.023005 18.243330
29.147001 -9.993878 20.287368
29.116372 -7.716503 22.067830
29.168938 -5.234550 23.521620
29.277729 -2.591687 24.585645
29.415773 0.168416 25.196809
29.556098 3.002090 25.292014
29.671739 5.865667 24.808169
28.117671 8.965019 23.726304
28.493411 11.889581 22.073563
29.064067 14.662276 19.925692
29.770141 17.153348 17.362465
30.552139 19.233039 14.463659
31.350560 20.771599 11.309051
32.105912 21.639269 7.978419
32.758697 21.706297 4.551539
33.249417 20.842923 1.108187
33.548071 18.996054 -2.222560
33.792311 16.579043 -5.092347
34.003578 13.751359 -7.441746
34.176051 10.605050 -9.263650
34.303909 7.232161 -10.550957
34.381337 3.724743 -11.296563
34.402510 0.174846 -11.493367
34.361611 -3.325484 -11.134261
34.252820 -6.684196 -10.212146
34.052274 -9.777744 -8.718867
33.663679 -12.361816 -6.685614
33.108718 -14.406768 -4.218159
32.429093 -15.918537 -1.428269
31.666506 -16.903059 1.572287
30.862659 -17.366275 4.671735
30.059255 -17.314118 7.758309
29.297995 -16.752526 10.720238
28.620586 -15.687439 13.445751
28.073489 -14.148145 15.861725
27.701314 -12.291664 18.106739
27.484860 -10.175301 20.154782
27.397307 -7.834234 21.943247
27.411843 -5.303638 23.409527
27.501644 -2.618690 24.491013
27.639893 0.185440 25.125099
27.799772 3.073575 25.249173
27.954463 6.010536 24.800634
26.498615 9.167414 23.693960
26.887200 12.162610 22.018670
27.438891 14.998642 19.819877
28.104040 17.543380 17.184337
28.832995 19.664691 14.198802
29.576107 21.230441 10.950024
30.283728 22.108499 7.524762
30.906201 22.166729 4.009759
31.393889 21.273006 0.491780
31.716849 19.375334 -2.892001
31.963494 16.906243 -5.785014
32.154276 14.027840 -8.133836
32.292121 10.831394 -9.939106
32.379949 7.408173 -11.201465
32.420686 3.849453 -11.921556
32.417257 0.246498 -12.100026
32.372582 -3.309420 -11.737507
32.289591 -6.727030 -10.834648
32.151854 -9.886752 -9.379565
31.856169 -12.559359 -7.343711
31.411776 -14.706839 -4.832606
30.848379 -16.323038 -1.969400
30.195678 -17.401801 1.122757
29.483383 -17.936973 4.320719
28.741191 -17.922399 7.501335
27.998815 -17.351933 10.541458
27.285944 -16.219406 13.317936
26.648045 -14.555599 15.751751
26.188482 -12.589394 18.007487
25.899357 -10.386087 20.064647
25.754701 -7.975558 21.861145
25.728544 -5.387678 23.334898
25.794920 -2.652328 24.423821
25.927857 0.200623 25.065830
26.101391 3.141290 25.198843
26.289547 6.139807 24.760773
24.916103 9.332060 23.597270
25.301913 12.373239 21.863776
25.826051 15.255566 19.599444
26.446502 17.842555 16.894492
27.121253 19.997723 13.839142
27.808289 21.584589 10.523611
28.465592 22.466665 7.038118
29.051157 22.507476 3.472892
29.522959 21.570530 -0.081855
29.851845 19.606547 -3.484724
30.092213 17.085637 -6.375242
30.264098 14.171695 -8.706162
30.376820 10.950688 -10.485510
30.439694 7.508580 -11.721310
30.462039 3.931338 -12.421586
30.453174 0.304928 -12.594364
30.422416 -3.284684 -12.247669
30.379083 -6.751535 -11.389521
30.311484 -9.980937 -10.002704
30.107078 -12.741129 -7.990977
29.765149 -14.985220 -5.457689
29.306466 -16.697985 -2.536682
28.751799 -17.864200 0.638208
28.121922 -18.468640 3.933139
27.437609 -18.496084 7.214270
26.719620 -17.931302 10.347765
25.988741 -16.759077 13.199784
25.289208 -15.009083 15.683921
24.765755 -12.952665 17.977823
24.419250 -10.663265 20.063548
24.225195 -8.171321 21.878692
24.159091 -5.507276 23.360856
24.196441 -2.701567 24.447633
24.312750 0.215363 25.076623
24.483519 3.213085 25.185421
24.684246 6.261147 24.711624
23.359010 9.459180 23.431556
23.714971 12.516948 21.584884
24.198603 15.427279 19.230358
24.771612 18.046238 16.456357
25.395716 20.229890 13.351261
26.032618 21.834300 10.003444
26.644030 22.715534 6.501286
27.191664 22.729656 2.933158
27.637233 21.732734 -0.612552
27.952562 19.679883 -3.995816
28.179253 17.103609 -6.856789
28.337975 14.168799 -9.153932
28.441399 10.950413 -10.901653
28.502197 7.523408 -12.114359
28.533039 3.962742 -12.806457
28.546597 0.343372 -12.992350
28.555541 -3.259747 -12.686448
28.572546 -6.771650 -11.903157
28.586178 -10.082804 -10.617974
28.466336 -12.931736 -8.660204
28.206572 -15.262669 -6.128767
27.824752 -17.056738 -3.166859
27.338745 -18.295088 0.082327
26.766419 -18.958860 3.475595
26.125649 -19.029197 6.869751
25.434296 -18.487235 10.121601
24.710230 -17.314116 13.087950
23.996792 -15.535107 15.673267
23.449593 -13.417949 18.049994
23.073301 -11.043861 20.198073
22.845442 -8.452380 22.053066
22.743533 -5.683040 23.550526
22.745094 -2.775375 24.626016
22.827648 0.231080 25.215090
22.968717 3.296791 25.253314
23.145820 6.382227 24.676240
21.821281 9.558658 23.215736
22.116759 12.604411 21.207194
22.545159 15.519960 18.741013
23.067824 18.152949 15.898864
23.646096 20.351021 12.762420
24.241316 21.961819 9.413346
24.814833 22.832988 5.933314
25.327986 22.812172 2.403993
25.742121 21.747012 -1.092948
26.030129 19.598358 -4.424422
26.241857 16.972732 -7.237792
26.399229 14.034466 -9.495800
26.514756 10.843540 -11.216768
26.600947 7.459930 -12.419018
26.670310 3.943613 -13.120872
26.735355 0.354564 -13.340649
26.808587 -3.247238 -13.096671
26.902519 -6.801817 -12.407263
27.001225 -10.204014 -11.239335
26.950126 -13.138893 -9.352198
26.742264 -15.542540 -6.839194
26.399502 -17.398019 -3.850574
25.943703 -18.688392 -0.536587
25.396729 -19.396724 2.952516
24.780444 -19.506075 6.466488
24.116712 -18.999508 9.855079
23.427395 -17.860089 12.968037
22.755203 -16.105962 15.700060
22.231370 -13.958030 18.201277
21.858514 -11.504292 20.444817
21.616658 -8.800704 22.362279
21.485827 -5.903224 23.885258
21.446048 -2.867805 24.945352
21.477347 0.249595 25.474155
21.559746 3.393024 25.403265
21.673273 6.506525 24.664279
20.323932 9.684159 23.077540
20.567248 12.719806 20.991833
20.938780 15.602324 18.461053
21.402961 18.186907 15.567026
21.924228 20.328747 12.391585
22.467014 21.883040 9.016556
22.995755 22.704979 5.523768
23.474885 22.649758 1.995049
23.868838 21.572570 -1.487773
24.153080 19.438552 -4.795543
24.375307 16.838013 -7.598885
24.554597 13.928893 -9.861643
24.700895 10.767572 -11.599032
24.824144 7.410428 -12.826259
24.934290 3.913842 -13.558541
25.041277 0.334191 -13.811089
25.155049 -3.272145 -13.599115
25.285551 -6.848784 -12.937832
25.415202 -10.292398 -11.789441
25.393505 -13.278133 -9.902721
25.214881 -15.736477 -7.371811
24.901804 -17.646341 -4.349603
24.476742 -18.986634 -0.988988
23.962165 -19.736268 2.557144
23.380544 -19.874154 6.135902
22.754349 -19.379201 9.594399
22.106047 -18.230318 12.779744
21.475571 -16.443149 15.583182
20.975314 -14.247299 18.147514
20.607326 -11.735876 20.442830
20.354548 -8.968629 22.398510
20.199926 -6.005305 23.943933
20.126404 -2.905648 25.008480
20.116922 0.270592 25.521531
20.154427 3.463671 25.412466
20.221860 6.613840 24.610664
18.865188 9.834086 23.012526
19.068953 12.867448 20.938122
19.385083 15.687753 18.390954
19.784751 18.172050 15.460479
20.239124 20.197397 12.236153
20.719376 21.640844 8.807432
21.196672 22.379442 5.263772
21.642185 22.290248 1.694626
22.027085 21.250311 -1.810551
22.330687 19.227738 -5.122600
22.586035 16.715841 -7.949804
22.805628 13.861424 -10.254761
22.995267 10.728000 -12.043757
23.160749 7.379091 -13.323078
23.307872 3.878211 -14.099009
23.442435 0.288878 -14.377842
23.570238 -3.325391 -14.165854
23.697075 -6.901079 -13.469339
23.807080 -10.335006 -12.249826
23.780953 -13.337537 -10.299462
23.615352 -15.835773 -7.718729
23.329141 -17.797791 -4.658893
22.941189 -19.191669 -1.271229
22.470360 -19.985487 2.292991
21.935524 -20.147324 5.882496
21.355546 -19.645254 9.346017
20.749293 -18.447359 12.532278
20.151985 -16.570842 15.334665
19.668299 -14.309732 17.900316
19.301961 -11.760966 20.200481
19.038972 -8.975830 22.165139
18.865338 -6.005602 23.724269
18.767061 -2.901566 24.807848
18.730144 0.284998 25.345857
18.740593 3.502808 25.268273
18.784407 6.700583 24.505074
17.438383 9.996693 22.991656
17.611953 13.036177 20.995051
17.874878 15.777996 18.467554
18.207391 18.130279 15.512083
18.589724 20.001159 12.231549
19.002112 21.298770 8.728867
19.424786 21.931240 5.106955
19.837981 21.806705 1.468727
20.221931 20.833293 -2.082907
20.560515 18.981431 -5.415581
20.863543 16.596584 -8.285985
21.134538 13.811700 -10.654341
21.374231 10.704508 -12.514348
21.583355 7.352737 -13.859698
21.762637 3.834113 -14.684088
21.912811 0.226364 -14.981214
22.034606 -3.392783 -14.744768
22.128752 -6.945601 -13.968445
22.183536 -10.328656 -12.616331
22.129328 -13.321230 -10.561532
21.965459 -15.848598 -7.914012
21.704185 -17.862978 -4.819687
21.357760 -19.316599 -1.424474
20.938439 -20.161681 2.125710
20.458480 -20.350450 5.684948
19.930133 -19.835124 9.107326
19.365660 -18.567933 12.246922
18.794365 -16.569694 15.002681
18.322084 -14.235217 17.527752
17.955756 -11.664525 19.797513
17.684291 -8.892500 21.745804
17.496595 -5.954012 23.306469
17.381581 -2.883938 24.413350
17.328158 0.282843 25.000285
17.325237 3.511460 25.001121
17.361727 6.767034 24.349695
16.036852 10.160224 22.985882
16.186331 13.214833 21.111613
16.398969 15.874805 18.627696
16.665078 18.083486 15.654699
16.974963 19.784221 12.313195
17.318934 20.920353 8.723754
17.687299 21.435226 5.006951
18.070367 21.272189 1.283351
18.458445 20.374582 -2.326472
18.840127 18.715146 -5.684474
19.197334 16.470603 -8.602858
19.523540 13.759364 -11.039572
19.814146 10.676773 -12.974203
20.064555 7.318181 -14.386345
20.270166 3.778934 -15.255587
20.426386 0.154382 -15.561520
20.528611 -3.460129 -15.283733
20.572244 -6.969251 -14.401818
20.551243 -10.270164 -12.884798
20.455476 -13.233336 -10.708033
20.286983 -15.783118 -7.991725
20.049604 -17.852512 -4.873229
19.747172 -19.374521 -1.489887
19.383526 -20.282149 2.020951
18.962504 -20.508394 5.521934
18.487942 -19.986263 8.875720
17.963678 -18.648756 11.944957
17.412625 -16.520358 14.635406
16.948428 -14.113640 17.097894
16.582052 -11.531516 19.313666
16.304862 -8.788830 21.224142
16.108230 -5.900426 22.770738
15.983522 -2.881150 23.894874
15.922107 0.254157 24.537970
15.915353 3.490649 24.641443
15.954627 6.813484 24.146714
14.653928 10.312934 22.966164
14.782164 13.392255 21.236799
14.948165 15.979932 18.808210
15.152011 18.053570 15.821188
15.393782 19.590768 12.416517
15.673556 20.569130 8.734987
15.991414 20.966260 4.917387
16.347435 20.759761 1.104505
16.741698 19.927233 -2.562873
17.167088 18.444396 -5.939263
17.576914 16.328269 -8.895860
17.954849 13.684057 -11.389639
18.291368 10.624476 -13.386726
18.576942 7.262239 -14.853243
18.802041 3.710065 -15.755316
18.957138 0.080669 -16.059072
19.032706 -3.513235 -15.730631
19.019213 -6.958928 -14.736119
18.916878 -10.156350 -13.051072
18.776251 -13.077978 -10.758065
18.601709 -15.647504 -7.985932
18.388068 -17.776999 -4.860758
18.130142 -19.378537 -1.508633
17.822747 -20.364190 1.944359
17.460694 -20.646029 5.372131
17.038798 -20.136125 8.648598
16.551876 -18.746551 11.647668
16.016688 -16.503486 14.281014
15.559089 -14.034891 16.678815
15.194182 -11.446902 18.828687
14.915050 -8.735017 20.683788
14.714777 -5.894742 22.197277
14.586443 -2.921580 23.322317
14.523134 0.188967 24.012063
14.517931 3.441401 24.219677
14.563919 6.840213 23.898319
13.282943 10.443072 22.903457
13.389532 13.557282 21.319598
13.513270 16.095128 18.945938
13.662389 18.062424 15.944407
13.845119 19.464991 12.476938
14.069689 20.308644 8.705458
14.344332 20.599204 4.791901
14.677277 20.342480 0.898186
15.076758 19.544301 -2.813743
15.538964 18.184696 -6.189937
15.991783 16.159945 -9.160422
16.410680 13.565421 -11.683730
16.782256 10.527292 -13.715312
17.093108 7.171727 -15.210615
17.329841 3.624893 -16.125089
17.479054 0.012962 -16.414181
17.527346 -3.537911 -16.033340
17.461319 -6.901540 -14.938015
17.287115 -9.984031 -13.110992
17.108501 -12.859281 -10.730737
16.931417 -15.449924 -7.930695
16.742249 -17.647050 -4.823522
16.527388 -19.341748 -1.521875
16.273224 -20.425107 1.861590
15.966142 -20.788215 5.214218
15.592535 -20.322165 8.423349
15.138787 -18.918037 11.376331
14.616469 -16.599726 13.987679
14.165825 -14.088858 16.338586
13.805488 -11.495645 18.422315
13.529214 -8.801253 20.208379
13.330766 -5.986852 21.666293
13.203904 -3.033610 22.765569
13.142383 0.077311 23.475717
13.139968 3.364732 23.766258
13.190412 6.847501 23.606698
11.917234 10.538885 22.768718
11.998516 13.698754 21.309002
12.085093 16.222141 18.977717
12.190409 18.131947 15.957224
12.327911 19.451076 12.429885
12.511045 20.202428 8.578062
12.753255 20.408905 4.584111
13.067991 20.093416 0.630405
13.468694 19.278849 -3.100706
13.953318 17.951561 -6.446483
14.431449 15.956000 -9.391979
14.873249 13.383102 -11.901036
15.263166 10.364909 -13.923367
15.585649 7.033462 -15.408687
15.825149 3.520809 -16.306713
15.966110 -0.041014 -16.567159
15.992985 -3.519955 -16.139736
15.890223 -6.783981 -14.974165
15.668631 -9.750025 -13.060402
15.469080 -12.581367 -10.645151
15.297888 -15.198546 -7.860076
15.134815 -17.473271 -4.802759
14.959627 -19.277252 -1.570776
14.752082 -20.482198 1.738293
14.491947 -20.959823 5.026867
14.158976 -20.581831 8.197377
13.732938 -19.219935 11.152234
13.221887 -16.889730 13.803573
12.780394 -14.365423 16.145275
12.429303 -11.762705 18.174292
12.161715 -9.057729 19.881552
11.970734 -6.226650 21.257986
11.849461 -3.245619 22.294522
11.790999 -0.090795 22.982091
11.788451 3.261680 23.311617
11.834918 6.835636 23.274033
10.550133 10.588628 22.532905
10.599194 13.805511 21.154002
10.654436 16.362723 18.840382
10.730268 18.284033 15.792491
10.841098 19.593209 12.210779
11.001336 20.314020 8.295688
11.225390 20.470234 4.247666
11.527667 20.085616 0.267155
11.922580 19.183949 -3.445391
12.407714 17.760505 -6.718887
12.885411 15.706797 -9.585963
13.324766 13.116736 -12.020738
13.710456 10.116996 -13.974287
14.027156 6.834258 -15.397684
14.259543 3.395197 -16.242003
14.392293 -0.073508 -16.458319
14.410082 -3.445188 -15.997704
14.297585 -6.593148 -14.811232
14.068103 -9.451150 -12.895146
13.874838 -12.248362 -10.520412
13.722905 -14.901540 -7.808143
13.588438 -17.266273 -4.839715
13.447574 -19.198150 -1.696504
13.276449 -20.552767 1.540115
13.051197 -21.185714 4.788765
12.747957 -20.952580 7.968068
12.342858 -19.708955 10.996654
11.842862 -17.454151 13.776874
11.414557 -14.954480 16.166959
11.078968 -12.333050 18.164363
10.826915 -9.574642 19.786947
10.649211 -6.664030 21.052562
10.536676 -3.585991 21.979071
10.480125 -0.325306 22.584326
10.470376 3.133251 22.886193
10.498247 6.804910 22.902520
9.173331 10.590008 22.188299
9.181299 13.868622 20.832968
9.211141 16.503642 18.506533
9.273285 18.503235 15.423232
9.378158 19.875563 11.797302
9.536185 20.628792 7.842985
9.757794 20.771089 3.774519
10.053412 20.310614 -0.193861
10.433465 19.255536 -3.847914
10.892962 17.612315 -7.009665
11.341160 15.417053 -9.747708
11.750917 12.773746 -12.050732
12.109548 9.792334 -13.878402
12.404366 6.582755 -15.190392
12.622686 3.254950 -15.946367
12.751822 -0.081141 -16.105996
12.779088 -3.315582 -15.628947
12.691798 -6.338430 -14.474887
12.502602 -9.105264 -12.644763
12.346945 -11.881808 -10.385647
12.227529 -14.579095 -7.800026
12.121282 -17.040703 -4.953531
12.005139 -19.110209 -1.911788
11.856030 -20.631195 1.259573
11.650887 -21.447236 4.494924
11.366642 -21.401915 7.728640
10.980225 -20.338804 10.895089
10.499859 -18.234493 13.880606
10.094247 -15.791449 16.373567
9.781908 -13.141834 18.368249
9.550521 -10.291575 19.911663
9.387766 -7.246587 21.050821
9.281318 -4.012797 21.832735
9.218857 -0.596125 22.304416
9.188064 2.997508 22.512871
9.176614 6.762177 22.505116
7.780714 10.586244 21.834404
7.745452 13.889666 20.480435
7.752565 16.555097 18.141255
7.806775 18.583251 15.038092
7.912809 19.974850 11.392179
8.075390 20.730604 7.424745
8.299243 20.851236 3.357020
8.589092 20.337460 -0.589767
8.949662 19.189992 -4.194382
9.373569 17.422949 -7.275777
9.787048 15.154487 -9.923660
10.167805 12.493425 -12.135482
10.505005 9.539312 -13.876272
10.787816 6.391691 -15.111060
11.005405 3.150107 -15.804878
11.146937 -0.085900 -15.922755
11.201580 -3.216781 -15.429720
11.158498 -6.142991 -14.290803
11.026375 -8.835121 -12.510165
10.909278 -11.588928 -10.321975
10.810297 -14.309934 -7.818185
10.712760 -16.830700 -5.055442
10.599998 -18.983788 -2.090391
10.455341 -20.601758 1.020325
10.262120 -21.517172 4.220061
10.003664 -21.562592 7.452175
9.663303 -20.570576 10.660018
9.249004 -18.507370 13.724576
8.894118 -16.074934 16.258042
8.612229 -13.411550 18.251539
8.392527 -10.529307 19.763349
8.224205 -7.440289 20.851760
8.096452 -4.156586 21.575056
7.998462 -0.690279 21.991522
7.919424 2.946545 22.159443
7.848530 6.741799 22.137101
6.390594 10.570440 21.464964
6.313664 13.858069 20.098392
6.300123 16.499628 17.752095
6.348626 18.498077 14.648066
6.457829 19.856378 11.008299
6.626387 20.577490 7.054792
6.852955 20.664374 3.009539
7.136190 20.119990 -0.905467
7.474746 18.947299 -4.468227
7.859419 17.164570 -7.498768
8.238495 14.901442 -10.097707
8.594525 12.265200 -12.265125
8.917563 9.351700 -13.966908
9.197663 6.256788 -15.168942
9.424878 3.076320 -15.837113
9.589262 -0.093856 -15.937310
9.680869 -3.157888 -15.435416
9.689751 -6.019925 -14.297319
9.618621 -8.657812 -12.528236
9.534728 -11.387683 -10.363320
9.443923 -14.110233 -7.892786
9.339534 -16.649095 -5.171210
9.214889 -18.827916 -2.253171
9.063318 -20.470332 0.806753
8.878148 -21.399983 3.953984
8.652709 -21.440512 7.133946
8.380327 -20.415555 10.292060
8.067105 -18.293162 13.313810
7.783461 -15.831086 15.825385
7.536657 -13.170326 17.815508
7.321233 -10.314997 19.337327
7.131725 -7.269213 20.443989
6.962675 -4.037086 21.188646
6.808620 -0.622729 21.624446
6.664100 2.969744 21.804533
6.523653 6.736220 21.782062
5.024081 10.526038 21.052460
4.909693 13.760952 19.660478
4.877574 16.334578 17.312359
4.920763 18.258587 14.225635
5.032298 19.544657 10.617829
5.205218 20.204457 6.706470
5.432561 20.249663 2.709086
5.707367 19.691944 -1.156802
6.022673 18.542974 -4.673658
6.367984 16.822816 -7.666745
6.714149 14.624938 -10.242907
7.048159 12.049933 -12.400323
7.360427 9.193511 -14.101908
7.641370 6.151382 -15.310572
7.881401 3.019257 -15.989231
8.070936 -0.107155 -16.100799
8.200392 -3.132144 -15.608188
8.260180 -5.960003 -14.474314
8.246500 -8.569359 -12.702478
8.189771 -11.278467 -10.533797
8.099741 -13.983968 -8.063144
7.980967 -16.504602 -5.348982
7.838004 -18.659105 -2.449773
7.675406 -20.266215 0.576019
7.497731 -21.144668 3.669933
7.309531 -21.113204 6.773506
7.115365 -19.990557 9.828273
6.918522 -17.754821 12.729876
6.714927 -15.244466 15.180261
6.505196 -12.600141 17.166564
6.291094 -9.810215 18.725803
6.074388 -6.863053 19.894992
5.856841 -3.747017 20.711144
5.640220 -0.450476 21.211276
5.426289 3.038209 21.432400
5.216814 6.730667 21.411537
3.702285 10.436486 20.569378
3.557300 13.585439 19.140325
3.508677 16.057287 16.795353
3.545111 17.875661 13.743284
3.655295 19.064192 10.192933
3.827922 19.646514 6.353122
4.051686 19.646259 2.432669
4.315283 19.087058 -1.359613
4.607402 17.992543 -4.814898
4.916732 16.383328 -7.767812
5.232661 14.291997 -10.332314
5.545789 11.808487 -12.501736
5.846805 9.028768 -14.232864
6.126402 6.048809 -15.482487
6.375269 2.964584 -16.207391
6.584100 -0.127941 -16.364365
6.743583 -3.132793 -15.910196
6.844412 -5.954001 -14.801673
6.877167 -8.565781 -13.036394
6.840879 -11.261663 -10.857515
6.749085 -13.935121 -8.368573
6.616421 -16.405929 -5.636904
6.457529 -18.493864 -2.729839
6.287051 -20.018703 0.285289
6.119623 -20.800219 3.341147
5.969888 -20.658193 6.370402
5.852485 -19.412397 9.305720
5.767619 -17.055304 12.054339
5.641165 -14.499634 14.427330
5.467843 -11.882977 16.411115
5.256567 -9.176535 18.020989
5.016249 -6.351510 19.272251
4.755804 -3.379105 20.180192
4.484147 -0.230520 20.760110
4.210191 3.123041 21.027300
3.942850 6.710376 20.997056
2.446319 10.285223 19.988199
2.280245 13.318654 18.511571
2.862934 15.861193 16.484868
2.894353 17.617918 13.458391
2.345898 18.439493 9.705779
2.510540 18.938671 5.968091
2.723960 18.893326 2.157299
2.972598 18.339074 -1.529741
3.242892 17.311526 -4.896155
3.523133 15.831744 -7.790073
3.812678 13.869638 -10.338985
4.104494 11.501725 -12.530025
4.389902 8.821487 -14.311374
4.660223 5.922404 -15.631221
4.906780 2.897960 -16.437749
5.120892 -0.158359 -16.679145
5.293881 -3.153071 -16.303592
5.417071 -5.992697 -15.259279
5.477779 -8.643098 -13.533489
5.454529 -11.337666 -11.358586
5.363285 -13.967670 -8.848389
5.225258 -16.361789 -6.083123
5.061659 -18.348703 -3.143011
4.893697 -19.757091 -0.108275
4.742585 -20.415630 2.940864
4.629534 -20.153005 5.924183
4.575754 -18.797887 8.761460
4.578753 -16.357559 11.368765
4.514827 -13.781150 13.671258
4.374602 -11.200810 15.655568
4.172105 -8.575526 17.315097
3.921368 -5.864283 18.643250
3.636419 -3.026070 19.633432
3.331287 -0.019865 20.279042
3.020004 3.195345 20.573482
2.716594 6.660571 20.510162
1.277296 10.055693 19.281406
1.102289 12.947719 17.747854
2.217190 15.665099 16.174382
2.243595 17.360174 13.173498
1.123188 17.695066 9.128530
1.269112 18.115939 5.524718
1.463008 18.030028 1.859981
1.691975 17.481726 -1.683025
1.943104 16.515443 -4.921648
2.204658 15.153703 -7.721633
2.472851 13.324883 -10.235976
2.741357 11.090511 -12.445848
3.002925 8.535685 -14.289031
3.250298 5.745502 -15.703309
3.476226 2.805058 -16.626464
3.673449 -0.200545 -16.996277
3.834722 -3.186226 -16.750535
3.952784 -6.066866 -15.827012
4.015493 -8.797332 -14.197268
3.997194 -11.506864 -12.061121
3.913678 -14.085595 -9.541906
3.786841 -16.380895 -6.735788
3.638581 -18.240131 -3.738935
3.490793 -19.510675 -0.647510
3.365377 -20.039897 2.442325
3.284225 -19.675162 5.434401
3.269239 -18.263846 8.232553
3.316288 -15.824549 10.754724
3.288562 -13.273573 13.016710
3.175469 -10.735620 15.006330
2.992165 -8.168761 16.700335
2.753805 -5.531072 18.075473
2.475540 -2.780632 19.108500
2.172530 0.124496 19.776155
1.859923 3.226216 20.055209
1.552877 6.566477 19.922391
0.638648 9.842937 18.730655
0.551145 12.687690 17.256430
1.108595 15.106638 15.360509
1.121798 16.684568 12.436290
0.561594 17.272379 8.778296
0.634556 17.610190 5.223757
0.731504 17.437134 1.635540
0.845987 16.803423 -1.795481
0.971552 15.754242 -4.885139
1.102329 14.317074 -7.510886
1.231828 12.624749 -9.996342
1.473461 10.535708 -12.209869
1.699080 8.135385 -14.117433
1.904093 5.491441 -15.645289
2.083903 2.671540 -16.719694
2.233917 -0.256659 -17.266904
2.349539 -3.225485 -17.213174
2.426175 -6.167285 -16.484763
2.457466 -9.024500 -15.031230
2.435348 -11.769646 -12.989230
2.371594 -14.292875 -10.488437
2.280530 -16.471956 -7.643047
2.176485 -18.184659 -4.567252
2.073784 -19.308753 -1.375250
1.986753 -19.722008 1.818765
1.929723 -19.302195 4.900601
1.917011 -17.927084 7.756065
1.944584 -15.619222 10.293777
1.915020 -13.161466 12.568348
1.820448 -10.669385 14.569808
1.671203 -8.117809 16.268909
1.477618 -5.481574 17.636402
1.237770 -2.876060 18.700464
1.086265 0.068637 19.300151
0.929961 3.159679 19.521515
0.776439 6.436647 19.358535
0.000000 9.630182 18.179905
0.000000 12.427662 16.765007
0.000000 14.548176 14.546635
0.000000 16.008962 11.699081
0.000000 16.849692 8.428062
0.000000 17.104441 4.922796
0.000000 16.844241 1.411100
0.000000 16.125120 -1.907937
0.000000 14.993041 -4.848631
0.000000 13.480444 -7.300139
0.000000 11.736260 -9.593141
0.000000 9.798178 -11.782747
0.000000 7.584598 -13.748170
0.000000 5.133552 -15.403693
0.000000 2.483067 -16.663596
0.000000 -0.328826 -17.442164
0.000000 -3.264103 -17.653671
0.000000 -6.284723 -17.212404
0.000000 -9.320625 -16.038881
0.000000 -12.126403 -14.167026
0.000000 -14.593488 -11.727300
0.000000 -16.643684 -8.853045
0.000000 -18.198793 -5.677609
0.000000 -19.180620 -2.334337
0.000000 -19.510963 1.043429
0.000000 -19.111630 4.322338
0.000000 -17.904415 7.369047
0.000000 -15.904534 10.067495
0.000000 -13.629387 12.430838
0.000000 -11.184084 14.452412
0.000000 -8.584249 16.113039
0.000000 -5.845490 17.393520
0.000000 -2.971488 18.292428
0.000000 0.012777 18.824147
0.000000 3.093141 18.987821
0.000000 6.306816 18.794679
3 0 1 2
3 0 2 3
3 0 3 4
3 0 4 5
3 0 5 6
3 0 6 7
3 0 7 8
3 0 8 9
3 0 9 10
3 0 10 11
3 0 11 12
3 0 12 13
3 0 13 14
3 0 14 15
3 0 15 16
3 0 16 17
3 0 17 18
3 0 18 19
3 0 19 20
3 0 20 21
3 0 21 22
3 0 22 23
3 0 23 24
3 0 24 25
3 0 25 26
3 0 26 27
3 0 27 28
3 0 28 29
3 0 29 30
3 0 30 31
3 0 31 32
3 0 32 33
3 0 33 34
3 0 34 35
3 0 35 36
3 0 36 1
3 1 37 38
3 1 38 2
3 2 38 39
3 2 39 3
3 3 39 40
3 3 40 4
3 4 40 41
3 4 41 5
3 5 41 42
3 5 42 6
3 6 42 43
3 6 43 7
3 7 43 44
3 7 44 8
3 8 44 45
3 8 45 9
3 9 45 46
3 9 46 10
3 10 46 47
3 10 47 11
3 11 47 48
3 11 48 12
3 12 48 49
3 12 49 13
3 13 49 50
3 13 50 14
3 14 50 51
3 14 51 15
3 15 51 52
3 15 52 16
3 16 52 53
3 16 53 17
3 17 53 54
3 17 54 18
3 18 54 55
3 18 55 19
3 19 55 56
3 19 56 20
3 20 56 57
3 20 57 21
3 21 57 58
3 21 58 22
3 22 58 59
3 22 59 23
3 23 59 60
3 23 60 24
3 24 60 61
3 24 61 25
3 25 61 62
3 25 62 26
3 26 62 63
3 26 63 27
3 27 63 64
3 27 64 28
3 28 64 65
3 28 65 29
3 29 65 66
3 29 66 30
3 30 66 67
3 30 67 31
3 31 67 68
3 31 68 32
3 32 68 69
3 32 69 33
3 33 69 70
3 33 70 34
3 34 70 71
3 34 71 35
3 35 71 72
3 35 72 36
3 36 72 37
3 36 37 1
3 37 73 74
3 37 74 38
3 38 74 75
3 38 75 39
3 39 75 76
3 39 76 40
3 40 76 77
3 40 77 41
3 41 77 78
3 41 78 42
3 42 78 79
3 42 79 43
3 43 79 80
3 43 80 44
3 44 80 81
3 44 81 45
3 45 81 82
3 45 82 46
3 46 82 83
3 46 83 47
3 47 83 84
3 47 84 48
3 48 84 85
3 48 85 49
3 49 85 86
3 49 86 50
3 50 86 87
3 50 87 51
3 51 87 88
3 51 88 52
3 52 88 89
3 52 89 53
3 53 89 90
3 53 90 54
3 54 90 91
3 54 91 55
3 55 91 92
3 55 92 56
3 56 92 93
3 56 93 57
3 57 93 94
3 57 94 58
3 58 94 95
3 58 95 59
3 59 95 96
3 59 96 60
3 60 96 97
3 60 97 61
3 61 97 98
3 61 98 62
3 62 98 99
3 62 99 63
3 63 99 100
3 63 100 64
3 64 100 101
3 64 101 65
3 65 101 102
3 65 102 66
3 66 102 103
3 66 103 67
3 67 103 104
3 67 104 68
3 68 104 105
3 68 105 69
3 69 105 106
3 69 106 70
3 70 106 107
3 70 107 71
3 71 107 108
3 71 108 72
3 72 108 73
3 72 73 37
3 73 109 110
3 73 110 74
3 74 110 111
3 74 111 75
3 75 111 112
3 75 112 76
3 76 112 113
3 76 113 77
3 77 113 114
3 77 114 78
3 78 114 115
3 78 115 79
3 79 115 116
3 79 116 80
3 80 116 117
3 80 117 81
3 81 117 118
3 81 118 82
3 82 118 119
3 82 119 83
3 83 119 120
3 83 120 84
3 84 120 121
3 84 121 85
3 85 121 122
3 85 122 86
3 86 122 123
3 86 123 87
3 87 123 124
3 87 124 88
3 88 124 125
3 88 125 89
3 89 125 126
3 89 126 90
3 90 126 127
3 90 127 91
3 91 127 128
3 91 128 92
3 92 128 129
3 92 129 93
3 93 129 130
3 93 130 94
3 94 130 131
3 94 131 95
3 95 131 132
3 95 132 96
3 96 132 133
3 96 133 97
3 97 133 134
3 97 134 98
3 98 134 135
3 98 135 99
3 99 135 136
3 99 136 100
3 100 136 137
3 100 137 101
3 101 137 138
3 101 138 102
3 102 138 139
3 102 139 103
3 103 139 140
3 103 140 104
3 104 140 141
3 104 141 105
3 105 141 142
3 105 142 106
3 106 142 143
3 106 143 107
3 107 143 144
3 107 144 108
3 108 144 109
3 108 109 73
3 109 145 146
3 109 146 110
3 110 146 147
3 110 147 111
3 111 147 148
3 111 148 112
3 112 148 149
3 112 149 113
3 113 149 150
3 113 150 114
3 114 150 151
3 114 151 115
3 115 151 152
3 115 152 116
3 116 152 153
3 116 153 117
3 117 153 154
3 117 154 118
3 118 154 155
3 118 155 119
3 119 155 156
3 119 156 120
3 120 156 157
3 120 157 121
3 121 157 158
3 121 158 122
3 122 158 159
3 122 159 123
3 123 159 160
3 123 160 124
3 124 160 161
3 124 161 125
3 125 161 162
3 125 162 126
3 126 162 163
3 126 163 127
3 127 163 164
3 127 164 128
3 128 164 165
3 128 165 129
3 129 165 166
3 129 166 130
3 130 166 167
3 130 167 131
3 131 167 168
3 131 168 132
3 132 168 169
3 132 169 133
3 133 169 170
3 133 170 134
3 134 170 171
3 134 171 135
3 135 171 172
3 135 172 136
3 136 172 173
3 136 173 137
3 137 173 174
3 137 174 138
3 138 174 175
3 138 175 139
3 139 175 176
3 139 176 140
3 140 176 177
3 140 177 141
3 141 177 178
3 141 178 142
3 142 178 179
3 142 179 143
3 143 179 180
3 143 180 144
3 144 180 145
3 144 145 109
3 145 181 182
3 145 182 146
3 146 182 183
3 146 183 147
3 147 183 184
3 147 184 148
3 148 184 185
3 148 185 149
3 149 185 186
3 149 186 150
3 150 186 187
3 150 187 151
3 151 187 188
3 151 188 152
3 152 188 189
3 152 189 153
3 153 189 190
3 153 190 154
3 154 190 191
3 154 191 155
3 155 191 192
3 155 192 156
3 156 192 193
3 156 193 157
3 157 193 194
3 157 194 158
3 158 194 195
3 158 195 159
3 159 195 196
3 159 196 160
3 160 196 197
3 160 197 161
3 161 197 198
3 161 198 162
3 162 198 199
3 162 199 163
3 163 199 200
3 163 200 164
3 164 200 201
3 164 201 165
3 165 201 202
3 165 202 166
3 166 202 203
3 166 203 167
3 167 203 204
3 167 204 168
3 168 204 205
3 168 205 169
3 169 205 206
3 169 206 170
3 170 206 207
3 170 207 171
3 171 207 208
3 171 208 172
3 172 208 209
3 172 209 173
3 173 209 210
3 173 210 174
3 174 210 211
3 174 211 175
3 175 211 212
3 175 212 176
3 176 212 213
3 176 213 177
3 177 213 214
3 177 214 178
3 178 214 215
3 178 215 179
3 179 215 216
3 179 216 180
3 180 216 181
3 180 181 145
3 181 217 218
3 181 218 182
3 182 218 219
3 182 219 183
3 183 219 220
3 183 220 184
3 184 220 221
3 184 221 185
3 185 221 222
3 185 222 186
3 186 222 223
3 186 223 187
3 187 223 224
3 187 224 188
3 188 224 225
3 188 225 189
3 189 225 226
3 189 226 190
3 190 226 227
3 190 227 191
3 191 227 228
3 191 228 192
3 192 228 229
3 192 229 193
3 193 229 230
3 193 230 194
3 194 230 231
3 194 231 195
3 195 231 232
3 195 232 196
3 196 232 233
3 196 233 197
3 197 233 234
3 197 234 198
3 198 234 235
3 198 235 199
3 199 235 236
3 199 236 200
3 200 236 237
3 200 237 201
3 201 237 238
3 201 238 202
3 202 238 239
3 202 239 203
3 203 239 240
3 203 240 204
3 204 240 241
3 204 241 205
3 205 241 242
3 205 242 206
3 206 242 243
3 206 243 207
3 207 243 244
3 207 244 208
3 208 244 245
3 208 245 209
3 209 245 246
3 209 246 210
3 210 246 247
3 210 247 211
3 211 247 248
3 211 248 212
3 212 248 249
3 212 249 213
3 213 249 250
3 213 250 214
3 214 250 251
3 214 251 215
3 215 251 252
3 215 252 216
3 216 252 217
3 216 217 181
3 217 253 254
3 217 254 218
3 218 254 255
3 218 255 219
3 219 255 256
3 219 256 220
3 220 256 257
3 220 257 221
3 221 257 258
3 221 258 222
3 222 258 259
3 222 259 223
3 223 259 260
3 223 260 224
3 224 260 261
3 224 261 225
3 225 261 262
3 225 262 226
3 226 262 263
3 226 263 227
3 227 263 264
3 227 264 228
3 228 264 265
3 228 265 229
3 229 265 266
3 229 266 230
3 230 266 267
3 230 267 231
3 231 267 268
3 231 268 232
3 232 268 269
3 232 269 233
3 233 269 270
3 233 270 234
3 234 270 271
3 234 271 235
3 235 271 272
3 235 272 236
3 236 272 273
3 236 273 237
3 237 273 274
3 237 274 238
3 238 274 275
3 238 275 239
3 239 275 276
3 239 276 240
3 240 276 277
3 240 277 241
3 241 277 278
3 241 278 242
3 242 278 279
3 242 279 243
3 243 279 280
3 243 280 244
3 244 280 281
3 244 281 245
3 245 281 282
3 245 282 246
3 246 282 283
3 246 283 247
3 247 283 284
3 247 284 248
3 248 284 285
3 248 285 249
3 249 285 286
3 249 286 250
3 250 286 287
3 250 287 251
3 251 287 288
3 251 288 252
3 252 288 253
3 252 253 217
3 253 289 290
3 253 290 254
3 254 290 291
3 254 291 255
3 255 291 292
3 255 292 256
3 256 292 293
3 256 293 257
3 257 293 294
3 257 294 258
3 258 294 295
3 258 295 259
3 259 295 296
3 259 296 260
3 260 296 297
3 260 297 261
3 261 297 298
3 261 298 262
3 262 298 299
3 262 299 263
3 263 299 300
3 263 300 264
3 264 300 301
3 264 301 265
3 265 301 302
3 265 302 266
3 266 302 303
3 266 303 267
3 267 303 304
3 267 304 268
3 268 304 305
3 268 305 269
3 269 305 306
3 269 306 270
3 270 306 307
3 270 307 271
3 271 307 308
3 271 308 272
3 272 308 309
3 272 309 273
3 273 309 310
3 273 310 274
3 274 310 311
3 274 311 275
3 275 311 312
3 275 312 276
3 276 312 313
3 276 313 277
3 277 313 314
3 277 314 278
3 278 314 315
3 278 315 279
3 279 315 316
3 279 316 280
3 280 316 317
3 280 317 281
3 281 317 318
3 281 318 282
3 282 318 319
3 282 319 283
3 283 319 320
3 283 320 284
3 284 320 321
3 284 321 285
3 285 321 322
3 285 322 286
3 286 322 323
3 286 323 287
3 287 323 324
3 287 324 288
3 288 324 289
3 288 289 253
3 289 325 326
3 289 326 290
3 290 326 327
3 290 327 291
3 291 327 328
3 291 328 292
3 292 328 329
3 292 329 293
3 293 329 330
3 293 330 294
3 294 330 331
3 294 331 295
3 295 331 332
3 295 332 296
3 296 332 333
3 296 333 297
3 297 333 334
3 297 334 298
3 298 334 335
3 298 335 299
3 299 335 336
3 299 336 300
3 300 336 337
3 300 337 301
3 301 337 338
3 301 338 302
3 302 338 339
3 302 339 303
3 303 339 340
3 303 340 304
3 304 340 341
3 304 341 305
3 305 341 342
3 305 342 306
3 306 342 343
3 306 343 307
3 307 343 344
3 307 344 308
3 308 344 345
3 308 345 309
3 309 345 346
3 309 346 310
3 310 346 347
3 310 347 311
3 311 347 348
3 311 348 312
3 312 348 349
3 312 349 313
3 313 349 350
3 313 350 314
3 314 350 351
3 314 351 315
3 315 351 352
3 315 352 316
3 316 352 353
3 316 353 317
3 317 353 354
3 317 354 318
3 318 354 355
3 318 355 319
3 319 355 356
3 319 356 320
3 320 356 357
3 320 357 321
3 321 357 358
3 321 358 322
3 322 358 359
3 322 359 323
3 323 359 360
3 323 360 324
3 324 360 325
3 324 325 289
3 325 361 362
3 325 362 326
3 326 362 363
3 326 363 327
3 327 363 364
3 327 364 328
3 328 364 365
3 328 365 329
3 329 365 366
3 329 366 330
3 330 366 367
3 330 367 331
3 331 367 368
3 331 368 332
3 332 368 369
3 332 369 333
3 333 369 370
3 333 370 334
3 334 370 371
3 334 371 335
3 335 371 372
3 335 372 336
3 336 372 373
3 336 373 337
3 337 373 374
3 337 374 338
3 338 374 375
3 338 375 339
3 339 375 376
3 339 376 340
3 340 376 377
3 340 377 341
3 341 377 378
3 341 378 342
3 342 378 379
3 342 379 343
3 343 379 380
3 343 380 344
3 344 380 381
3 344 381 345
3 345 381 382
3 345 382 346
3 346 382 383
3 346 383 347
3 347 383 384
3 347 384 348
3 348 384 385
3 348 385 349
3 349 385 386
3 349 386 350
3 350 386 387
3 350 387 351
3 351 387 388
3 351 388 352
3 352 388 389
3 352 389 353
3 353 389 390
3 353 390 354
3 354 390 391
3 354 391 355
3 355 391 392
3 355 392 356
3 356 392 393
3 356 393 357
3 357 393 394
3 357 394 358
3 358 394 395
3 358 395 359
3 359 395 396
3 359 396 360
3 360 396 361
3 360 361 325
3 361 397 398
3 361 398 362
3 362 398 399
3 362 399 363
3 363 399 400
3 363 400 364
3 364 400 401
3 364 401 365
3 365 401 402
3 365 402 366
3 366 402 403
3 366 403 367
3 367 403 404
3 367 404 368
3 368 404 405
3 368 405 369
3 369 405 406
3 369 406 370
3 370 406 407
3 370 407 371
3 371 407 408
3 371 408 372
3 372 408 409
3 372 409 373
3 373 409 410
3 373 410 374
3 374 410 411
3 374 411 375
3 375 411 412
3 375 412 376
3 376 412 413
3 376 413 377
3 377 413 414
3 377 414 378
3 378 414 415
3 378 415 379
3 379 415 416
3 379 416 380
3 380 416 417
3 380 417 381
3 381 417 418
3 381 418 382
3 382 418 419
3 382 419 383
3 383 419 420
3 383 420 384
3 384 420 421
3 384 421 385
3 385 421 422
3 385 422 386
3 386 422 423
3 386 423 387
3 387 423 424
3 387 424 388
3 388 424 425
3 388 425 389
3 389 425 426
3 389 426 390
3 390 426 427
3 390 427 391
3 391 427 428
3 391 428 392
3 392 428 429
3 392 429 393
3 393 429 430
3 393 430 394
3 394 430 431
3 394 431 395
3 395 431 432
3 395 432 396
3 396 432 397
3 396 397 361
3 397 433 434
3 397 434 398
3 398 434 435
3 398 435 399
3 399 435 436
3 399 436 400
3 400 436 437
3 400 437 401
3 401 437 438
3 401 438 402
3 402 438 439
3 402 439 403
3 403 439 440
3 403 440 404
3 404 440 441
3 404 441 405
3 405 441 442
3 405 442 406
3 406 442 443
3 406 443 407
3 407 443 444
3 407 444 408
3 408 444 445
3 408 445 409
3 409 445 446
3 409 446 410
3 410 446 447
3 410 447 411
3 411 447 448
3 411 448 412
3 412 448 449
3 412 449 413
3 413 449 450
3 413 450 414
3 414 450 451
3 414 451 415
3 415 451 452
3 415 452 416
3 416 452 453
3 416 453 417
3 417 453 454
3 417 454 418
3 418 454 455
3 418 455 419
3 419 455 456
3 419 456 420
3 420 456 457
3 420 457 421
3 421 457 458
3 421 458 422
3 422 458 459
3 422 459 423
3 423 459 460
3 423 460 424
3 424 460 461
3 424 461 425
3 425 461 462
3 425 462 426
3 426 462 463
3 426 463 427
3 427 463 464
3 427 464 428
3 428 464 465
3 428 465 429
3 429 465 466
3 429 466 430
3 430 466 467
3 430 467 431
3 431 467 468
3 431 468 432
3 432 468 433
3 432 433 397
3 433 469 470
3 433 470 434
3 434 470 471
3 434 471 435
3 435 471 472
3 435 472 436
3 436 472 473
3 436 473 437
3 437 473 474
3 437 474 438
3 438 474 475
3 438 475 439
3 439 475 476
3 439 476 440
3 440 476 477
3 440 477 441
3 441 477 478
3 441 478 442
3 442 478 479
3 442 479 443
3 443 479 480
3 443 480 444
3 444 480 481
3 444 481 445
3 445 481 482
3 445 482 446
3 446 482 483
3 446 483 447
3 447 483 484
3 447 484 448
3 448 484 485
3 448 485 449
3 449 485 486
3 449 486 450
3 450 486 487
3 450 487 451
3 451 487 488
3 451 488 452
3 452 488 489
3 452 489 453
3 453 489 490
3 453 490 454
3 454 490 491
3 454 491 455
3 455 491 492
3 455 492 456
3 456 492 493
3 456 493 457
3 457 493 494
3 457 494 458
3 458 494 495
3 458 495 459
3 459 495 496
3 459 496 460
3 460 496 497
3 460 497 461
3 461 497 498
3 461 498 462
3 462 498 499
3 462 499 463
3 463 499 500
3 463 500 464
3 464 500 501
3 464 501 465
3 465 501 502
3 465 502 466
3 466 502 503
3 466 503 467
3 467 503 504
3 467 504 468
3 468 504 469
3 468 469 433
3 469 505 506
3 469 506 470
3 470 506 507
3 470 507 471
3 471 507 508
3 471 508 472
3 472 508 509
3 472 509 473
3 473 509 510
3 473 510 474
3 474 510 511
3 474 511 475
3 475 511 512
3 475 512 476
3 476 512 513
3 476 513 477
3 477 513 514
3 477 514 478
3 478 514 515
3 478 515 479
3 479 515 516
3 479 516 480
3 480 516 517
3 480 517 481
3 481 517 518
3 481 518 482
3 482 518 519
3 482 519 483
3 483 519 520
3 483 520 484
3 484 520 521
3 484 521 485
3 485 521 522
3 485 522 486
3 486 522 523
3 486 523 487
3 487 523 524
3 487 524 488
3 488 524 525
3 488 525 489
3 489 525 526
3 489 526 490
3 490 526 527
3 490 527 491
3 491 527 528
3 491 528 492
3 492 528 529
3 492 529 493
3 493 529 530
3 493 530 494
3 494 530 531
3 494 531 495
3 495 531 532
3 495 532 496
3 496 532 533
3 496 533 497
3 497 533 534
3 497 534 498
3 498 534 535
3 498 535 499
3 499 535 536
3 499 536 500
3 500 536 537
3 500 537 501
3 501 537 538
3 501 538 502
3 502 538 539
3 502 539 503
3 503 539 540
3 503 540 504
3 504 540 505
3 504 505 469
3 505 541 542
3 505 542 506
3 506 542 543
3 506 543 507
3 507 543 544
3 507 544 508
3 508 544 545
3 508 545 509
3 509 545 546
3 509 546 510
3 510 546 547
3 510 547 511
3 511 547 548
3 511 548 512
3 512 548 549
3 512 549 513
3 513 549 550
3 513 550 514
3 514 550 551
3 514 551 515
3 515 551 552
3 515 552 516
3 516 552 553
3 516 553 517
3 517 553 554
3 517 554 518
3 518 554 555
3 518 555 519
3 519 555 556
3 519 556 520
3 520 556 557
3 520 557 521
3 521 557 558
3 521 558 522
3 522 558 559
3 522 559 523
3 523 559 560
3 523 560 524
3 524 560 561
3 524 561 525
3 525 561 562
3 525 562 526
3 526 562 563
3 526 563 527
3 527 563 564
3 527 564 528
3 528 564 565
3 528 565 529
3 529 565 566
3 529 566 530
3 530 566 567
3 530 567 531
3 531 567 568
3 531 568 532
3 532 568 569
3 532 569 533
3 533 569 570
3 533 570 534
3 534 570 571
3 534 571 535
3 535 571 572
3 535 572 536
3 536 572 573
3 536 573 537
3 537 573 574
3 537 574 538
3 538 574 575
3 538 575 539
3 539 575 576
3 539 576 540
3 540 576 541
3 540 541 505
3 541 577 578
3 541 578 542
3 542 578 579
3 542 579 543
3 543 579 580
3 543 580 544
3 544 580 581
3 544 581 545
3 545 581 582
3 545 582 546
3 546 582 583
3 546 583 547
3 547 583 584
3 547 584 548
3 548 584 585
3 548 585 549
3 549 585 586
3 549 586 550
3 550 586 587
3 550 587 551
3 551 587 588
3 551 588 552
3 552 588 589
3 552 589 553
3 553 589 590
3 553 590 554
3 554 590 591
3 554 591 555
3 555 591 592
3 555 592 556
3 556 592 593
3 556 593 557
3 557 593 594
3 557 594 558
3 558 594 595
3 558 595 559
3 559 595 596
3 559 596 560
3 560 596 597
3 560 597 561
3 561 597 598
3 561 598 562
3 562 598 599
3 562 599 563
3 563 599 600
3 563 600 564
3 564 600 601
3 564 601 565
3 565 601 602
3 565 602 566
3 566 602 603
3 566 603 567
3 567 603 604
3 567 604 568
3 568 604 605
3 568 605 569
3 569 605 606
3 569 606 570
3 570 606 607
3 570 607 571
3 571 607 608
3 571 608 572
3 572 608 609
3 572 609 573
3 573 609 610
3 573 610 574
3 574 610 611
3 574 611 575
3 575 611 612
3 575 612 576
3 576 612 577
3 576 577 541
3 577 613 614
3 577 614 578
3 578 614 615
3 578 615 579
3 579 615 616
3 579 616 580
3 580 616 617
3 580 617 581
3 581 617 618
3 581 618 582
3 582 618 619
3 582 619 583
3 583 619 620
3 583 620 584
3 584 620 621
3 584 621 585
3 585 621 622
3 585 622 586
3 586 622 623
3 586 623 587
3 587 623 624
3 587 624 588
3 588 624 625
3 588 625 589
3 589 625 626
3 589 626 590
3 590 626 627
3 590 627 591
3 591 627 628
3 591 628 592
3 592 628 629
3 592 629 593
3 593 629 630
3 593 630 594
3 594 630 631
3 594 631 595
3 595 631 632
3 595 632 596
3 596 632 633
3 596 633 597
3 597 633 634
3 597 634 598
3 598 634 635
3 598 635 599
3 599 635 636
3 599 636 600
3 600 636 637
3 600 637 601
3 601 637 638
3 601 638 602
3 602 638 639
3 602 639 603
3 603 639 640
3 603 640 604
3 604 640 641
3 604 641 605
3 605 641 642
3 605 642 606
3 606 642 643
3 606 643 607
3 607 643 644
3 607 644 608
3 608 644 645
3 608 645 609
3 609 645 646
3 609 646 610
3 610 646 647
3 610 647 611
3 611 647 648
3 611 648 612
3 612 648 613
3 612 613 577
3 613 649 650
3 613 650 614
3 614 650 651
3 614 651 615
3 615 651 652
3 615 652 616
3 616 652 653
3 616 653 617
3 617 653 654
3 617 654 618
3 618 654 655
3 618 655 619
3 619 655 656
3 619 656 620
3 620 656 657
3 620 657 621
3 621 657 658
3 621 658 622
3 622 658 659
3 622 659 623
3 623 659 660
3 623 660 624
3 624 660 661
3 624 661 625
3 625 661 662
3 625 662 626
3 626 662 663
3 626 663 627
3 627 663 664
3 627 664 628
3 628 664 665
3 628 665 629
3 629 665 666
3 629 666 630
3 630 666 667
3 630 667 631
3 631 667 668
3 631 668 632
3 632 668 669
3 632 669 633
3 633 669 670
3 633 670 634
3 634 670 671
3 634 671 635
3 635 671 672
3 635 672 636
3 636 672 673
3 636 673 637
3 637 673 674
3 637 674 638
3 638 674 675
3 638 675 639
3 639 675 676
3 639 676 640
3 640 676 677
3 640 677 641
3 641 677 678
3 641 678 642
3 642 678 679
3 642 679 643
3 643 679 680
3 643 680 644
3 644 680 681
3 644 681 645
3 645 681 682
3 645 682 646
3 646 682 683
3 646 683 647
3 647 683 684
3 647 684 648
3 648 684 649
3 648 649 613
3 649 685 686
3 649 686 650
3 650 686 687
3 650 687 651
3 651 687 688
3 651 688 652
3 652 688 689
3 652 689 653
3 653 689 690
3 653 690 654
3 654 690 691
3 654 691 655
3 655 691 692
3 655 692 656
3 656 692 693
3 656 693 657
3 657 693 694
3 657 694 658
3 658 694 695
3 658 695 659
3 659 695 696
3 659 696 660
3 660 696 697
3 660 697 661
3 661 697 698
3 661 698 662
3 662 698 699
3 662 699 663
3 663 699 700
3 663 700 664
3 664 700 701
3 664 701 665
3 665 701 702
3 665 702 666
3 666 702 703
3 666 703 667
3 667 703 704
3 667 704 668
3 668 704 705
3 668 705 669
3 669 705 706
3 669 706 670
3 670 706 707
3 670 707 671
3 671 707 708
3 671 708 672
3 672 708 709
3 672 709 673
3 673 709 710
3 673 710 674
3 674 710 711
3 674 711 675
3 675 711 712
3 675 712 676
3 676 712 713
3 676 713 677
3 677 713 714
3 677 714 678
3 678 714 715
3 678 715 679
3 679 715 716
3 679 716 680
3 680 716 717
3 680 717 681
3 681 717 718
3 681 718 682
3 682 718 719
3 682 719 683
3 683 719 720
3 683 720 684
3 684 720 685
3 684 685 649
3 685 721 722
3 685 722 686
3 686 722 723
3 686 723 687
3 687 723 724
3 687 724 688
3 688 724 725
3 688 725 689
3 689 725 726
3 689 726 690
3 690 726 727
3 690 727 691
3 691 727 728
3 691 728 692
3 692 728 729
3 692 729 693
3 693 729 730
3 693 730 694
3 694 730 731
3 694 731 695
3 695 731 732
3 695 732 696
3 696 732 733
3 696 733 697
3 697 733 734
3 697 734 698
3 698 734 735
3 698 735 699
3 699 735 736
3 699 736 700
3 700 736 737
3 700 737 701
3 701 737 738
3 701 738 702
3 702 738 739
3 702 739 703
3 703 739 740
3 703 740 704
3 704 740 741
3 704 741 705
3 705 741 742
3 705 742 706
3 706 742 743
3 706 743 707
3 707 743 744
3 707 744 708
3 708 744 745
3 708 745 709
3 709 745 746
3 709 746 710
3 710 746 747
3 710 747 711
3 711 747 748
3 711 748 712
3 712 748 749
3 712 749 713
3 713 749 750
3 713 750 714
3 714 750 751
3 714 751 715
3 715 751 752
3 715 752 716
3 716 752 753
3 716 753 717
3 717 753 754
3 717 754 718
3 718 754 755
3 718 755 719
3 719 755 756
3 719 756 720
3 720 756 721
3 720 721 685
3 721 757 758
3 721 758 722
3 722 758 759
3 722 759 723
3 723 759 760
3 723 760 724
3 724 760 761
3 724 761 725
3 725 761 762
3 725 762 726
3 726 762 763
3 726 763 727
3 727 763 764
3 727 764 728
3 728 764 765
3 728 765 729
3 729 765 766
3 729 766 730
3 730 766 767
3 730 767 731
3 731 767 768
3 731 768 732
3 732 768 769
3 732 769 733
3 733 769 770
3 733 770 734
3 734 770 771
3 734 771 735
3 735 771 772
3 735 772 736
3 736 772 773
3 736 773 737
3 737 773 774
3 737 774 738
3 738 774 775
3 738 775 739
3 739 775 776
3 739 776 740
3 740 776 777
3 740 777 741
3 741 777 778
3 741 778 742
3 742 778 779
3 742 779 743
3 743 779 780
3 743 780 744
3 744 780 781
3 744 781 745
3 745 781 782
3 745 782 746
3 746 782 783
3 746 783 747
3 747 783 784
3 747 784 748
3 748 784 785
3 748 785 749
3 749 785 786
3 749 786 750
3 750 786 787
3 750 787 751
3 751 787 788
3 751 788 752
3 752 788 789
3 752 789 753
3 753 789 790
3 753 790 754
3 754 790 791
3 754 791 755
3 755 791 792
3 755 792 756
3 756 792 757
3 756 757 721
3 757 793 794
3 757 794 758
3 758 794 795
3 758 795 759
3 759 795 796
3 759 796 760
3 760 796 797
3 760 797 761
3 761 797 798
3 761 798 762
3 762 798 799
3 762 799 763
3 763 799 800
3 763 800 764
3 764 800 801
3 764 801 765
3 765 801 802
3 765 802 766
3 766 802 803
3 766 803 767
3 767 803 804
3 767 804 768
3 768 804 805
3 768 805 769
3 769 805 806
3 769 806 770
3 770 806 807
3 770 807 771
3 771 807 808
3 771 808 772
3 772 808 809
3 772 809 773
3 773 809 810
3 773 810 774
3 774 810 811
3 774 811 775
3 775 811 812
3 775 812 776
3 776 812 813
3 776 813 777
3 777 813 814
3 777 814 778
3 778 814 815
3 778 815 779
3 779 815 816
3 779 816 780
3 780 816 817
3 780 817 781
3 781 817 818
3 781 818 782
3 782 818 819
3 782 819 783
3 783 819 820
3 783 820 784
3 784 820 821
3 784 821 785
3 785 821 822
3 785 822 786
3 786 822 823
3 786 823 787
3 787 823 824
3 787 824 788
3 788 824 825
3 788 825 789
3 789 825 826
3 789 826 790
3 790 826 827
3 790 827 791
3 791 827 828
3 791 828 792
3 792 828 793
3 792 793 757
3 793 829 830
3 793 830 794
3 794 830 831
3 794 831 795
3 795 831 832
3 795 832 796
3 796 832 833
3 796 833 797
3 797 833 834
3 797 834 798
3 798 834 835
3 798 835 799
3 799 835 836
3 799 836 800
3 800 836 837
3 800 837 801
3 801 837 838
3 801 838 802
3 802 838 839
3 802 839 803
3 803 839 840
3 803 840 804
3 804 840 841
3 804 841 805
3 805 841 842
3 805 842 806
3 806 842 843
3 806 843 807
3 807 843 844
3 807 844 808
3 808 844 845
3 808 845 809
3 809 845 846
3 809 846 810
3 810 846 847
3 810 847 811
3 811 847 848
3 811 848 812
3 812 848 849
3 812 849 813
3 813 849 850
3 813 850 814
3 814 850 851
3 814 851 815
3 815 851 852
3 815 852 816
3 816 852 853
3 816 853 817
3 817 853 854
3 817 854 818
3 818 854 855
3 818 855 819
3 819 855 856
3 819 856 820
3 820 856 857
3 820 857 821
3 821 857 858
3 821 858 822
3 822 858 859
3 822 859 823
3 823 859 860
3 823 860 824
3 824 860 861
3 824 861 825
3 825 861 862
3 825 862 826
3 826 862 863
3 826 863 827
3 827 863 864
3 827 864 828
3 828 864 829
3 828 829 793
3 829 865 866
3 829 866 830
3 830 866 867
3 830 867 831
3 831 867 868
3 831 868 832
3 832 868 869
3 832 869 833
3 833 869 870
3 833 870 834
3 834 870 871
3 834 871 835
3 835 871 872
3 835 872 836
3 836 872 873
3 836 873 837
3 837 873 874
3 837 874 838
3 838 874 875
3 838 875 839
3 839 875 876
3 839 876 840
3 840 876 877
3 840 877 841
3 841 877 878
3 841 878 842
3 842 878 879
3 842 879 843
3 843 879 880
3 843 880 844
3 844 880 881
3 844 881 845
3 845 881 882
3 845 882 846
3 846 882 883
3 846 883 847
3 847 883 884
3 847 884 848
3 848 884 885
3 848 885 849
3 849 885 886
3 849 886 850
3 850 886 887
3 850 887 851
3 851 887 888
3 851 888 852
3 852 888 889
3 852 889 853
3 853 889 890
3 853 890 854
3 854 890 891
3 854 891 855
3 855 891 892
3 855 892 856
3 856 892 893
3 856 893 857
3 857 893 894
3 857 894 858
3 858 894 895
3 858 895 859
3 859 895 896
3 859 896 860
3 860 896 897
3 860 897 861
3 861 897 898
3 861 898 862
3 862 898 899
3 862 899 863
3 863 899 900
3 863 900 864
3 864 900 865
3 864 865 829
3 865 901 902
3 865 902 866
3 866 902 903
3 866 903 867
3 867 903 904
3 867 904 868
3 868 904 905
3 868 905 869
3 869 905 906
3 869 906 870
3 870 906 907
3 870 907 871
3 871 907 908
3 871 908 872
3 872 908 909
3 872 909 873
3 873 909 910
3 873 910 874
3 874 910 911
3 874 911 875
3 875 911 912
3 875 912 876
3 876 912 913
3 876 913 877
3 877 913 914
3 877 914 878
3 878 914 915
3 878 915 879
3 879 915 916
3 879 916 880
3 880 916 917
3 880 917 881
3 881 917 918
3 881 918 882
3 882 918 919
3 882 919 883
3 883 919 920
3 883 920 884
3 884 920 921
3 884 921 885
3 885 921 922
3 885 922 886
3 886 922 923
3 886 923 887
3 887 923 924
3 887 924 888
3 888 924 925
3 888 925 889
3 889 925 926
3 889 926 890
3 890 926 927
3 890 927 891
3 891 927 928
3 891 928 892
3 892 928 929
3 892 929 893
3 893 929 930
3 893 930 894
3 894 930 931
3 894 931 895
3 895 931 932
3 895 932 896
3 896 932 933
3 896 933 897
3 897 933 934
3 897 934 898
3 898 934 935
3 898 935 899
3 899 935 936
3 899 936 900
3 900 936 901
3 900 901 865
3 901 937 938
3 901 938 902
3 902 938 939
3 902 939 903
3 903 939 940
3 903 940 904
3 904 940 941
3 904 941 905
3 905 941 942
3 905 942 906
3 906 942 943
3 906 943 907
3 907 943 944
3 907 944 908
3 908 944 945
3 908 945 909
3 909 945 946
3 909 946 910
3 910 946 947
3 910 947 911
3 911 947 948
3 911 948 912
3 912 948 949
3 912 949 913
3 913 949 950
3 913 950 914
3 914 950 951
3 914 951 915
3 915 951 952
3 915 952 916
3 916 952 953
3 916 953 917
3 917 953 954
3 917 954 918
3 918 954 955
3 918 955 919
3 919 955 956
3 919 956 920
3 920 956 957
3 920 957 921
3 921 957 958
3 921 958 922
3 922 958 959
3 922 959 923
3 923 959 960
3 923 960 924
3 924 960 961
3 924 961 925
3 925 961 962
3 925 962 926
3 926 962 963
3 926 963 927
3 927 963 964
3 927 964 928
3 928 964 965
3 928 965 929
3 929 965 966
3 929 966 930
3 930 966 967
3 930 967 931
3 931 967 968
3 931 968 932
3 932 968 969
3 932 969 933
3 933 969 970
3 933 970 934
3 934 970 971
3 934 971 935
3 935 971 972
3 935 972 936
3 936 972 937
3 936 937 901
3 937 973 974
3 937 974 938
3 938 974 975
3 938 975 939
3 939 975 976
3 939 976 940
3 940 976 977
3 940 977 941
3 941 977 978
3 941 978 942
3 942 978 979
3 942 979 943
3 943 979 980
3 943 980 944
3 944 980 981
3 944 981 945
3 945 981 982
3 945 982 946
3 946 982 983
3 946 983 947
3 947 983 984
3 947 984 948
3 948 984 985
3 948 985 949
3 949 985 986
3 949 986 950
3 950 986 987
3 950 987 951
3 951 987 988
3 951 988 952
3 952 988 989
3 952 989 953
3 953 989 990
3 953 990 954
3 954 990 991
3 954 991 955
3 955 991 992
3 955 992 956
3 956 992 993
3 956 993 957
3 957 993 994
3 957 994 958
3 958 994 995
3 958 995 959
3 959 995 996
3 959 996 960
3 960 996 997
3 960 997 961
3 961 997 998
3 961 998 962
3 962 998 999
3 962 999 963
3 963 999 1000
3 963 1000 964
3 964 1000 1001
3 964 1001 965
3 965 1001 1002
3 965 1002 966
3 966 1002 1003
3 966 1003 967
3 967 1003 1004
3 967 1004 968
3 968 1004 1005
3 968 1005 969
3 969 1005 1006
3 969 1006 970
3 970 1006 1007
3 970 1007 971
3 971 1007 1008
3 971 1008 972
3 972 1008 973
3 972 973 937
3 973 1009 1010
3 973 1010 974
3 974 1010 1011
3 974 1011 975
3 975 1011 1012
3 975 1012 976
3 976 1012 1013
3 976 1013 977
3 977 1013 1014
3 977 1014 978
3 978 1014 1015
3 978 1015 979
3 979 1015 1016
3 979 1016 980
3 980 1016 1017
3 980 1017 981
3 981 1017 1018
3 981 1018 982
3 982 1018 1019
3 982 1019 983
3 983 1019 1020
3 983 1020 984
3 984 1020 1021
3 984 1021 985
3 985 1021 1022
3 985 1022 986
3 986 1022 1023
3 986 1023 987
3 987 1023 1024
3 987 1024 988
3 988 1024 1025
3 988 1025 989
3 989 1025 1026
3 989 1026 990
3 990 1026 1027
3 990 1027 991
3 991 1027 1028
3 991 1028 992
3 992 1028 1029
3 992 1029 993
3 993 1029 1030
3 993 1030 994
3 994 1030 1031
3 994 1031 995
3 995 1031 1032
3 995 1032 996
3 996 1032 1033
3 996 1033 997
3 997 1033 1034
3 997 1034 998
3 998 1034 1035
3 998 1035 999
3 999 1035 1036
3 999 1036 1000
3 1000 1036 1037
3 1000 1037 1001
3 1001 1037 1038
3 1001 1038 1002
3 1002 1038 1039
3 1002 1039 1003
3 1003 1039 1040
3 1003 1040 1004
3 1004 1040 1041
3 1004 1041 1005
3 1005 1041 1042
3 1005 1042 1006
3 1006 1042 1043
3 1006 1043 1007
3 1007 1043 1044
3 1007 1044 1008
3 1008 1044 1009
3 1008 1009 973
3 1009 1045 1046
3 1009 1046 1010
3 1010 1046 1047
3 1010 1047 1011
3 1011 1047 1048
3 1011 1048 1012
3 1012 1048 1049
3 1012 1049 1013
3 1013 1049 1050
3 1013 1050 1014
3 1014 1050 1051
3 1014 1051 1015
3 1015 1051 1052
3 1015 1052 1016
3 1016 1052 1053
3 1016 1053 1017
3 1017 1053 1054
3 1017 1054 1018
3 1018 1054 1055
3 1018 1055 1019
3 1019 1055 1056
3 1019 1056 1020
3 1020 1056 1057
3 1020 1057 1021
3 1021 1057 1058
3 1021 1058 1022
3 1022 1058 1059
3 1022 1059 1023
3 1023 1059 1060
3 1023 1060 1024
3 1024 1060 1061
3 1024 1061 1025
3 1025 1061 1062
3 1025 1062 1026
3 1026 1062 1063
3 1026 1063 1027
3 1027 1063 1064
3 1027 1064 1028
3 1028 1064 1065
3 1028 1065 1029
3 1029 1065 1066
3 1029 1066 1030
3 1030 1066 1067
3 1030 1067 1031
3 1031 1067 1068
3 1031 1068 1032
3 1032 1068 1069
3 1032 1069 1033
3 1033 1069 1070
3 1033 1070 1034
3 1034 1070 1071
3 1034 1071 1035
3 1035 1071 1072
3 1035 1072 1036
3 1036 1072 1073
3 1036 1073 1037
3 1037 1073 1074
3 1037 1074 1038
3 1038 1074 1075
3 1038 1075 1039
3 1039 1075 1076
3 1039 1076 1040
3 1040 1076 1077
3 1040 1077 1041
3 1041 1077 1078
3 1041 1078 1042
3 1042 1078 1079
3 1042 1079 1043
3 1043 1079 1080
3 1043 1080 1044
3 1044 1080 1045
3 1044 1045 1009
3 1045 1081 1082
3 1045 1082 1046
3 1046 1082 1083
3 1046 1083 1047
3 1047 1083 1084
3 1047 1084 1048
3 1048 1084 1085
3 1048 1085 1049
3 1049 1085 1086
3 1049 1086 1050
3 1050 1086 1087
3 1050 1087 1051
3 1051 1087 1088
3 1051 1088 1052
3 1052 1088 1089
3 1052 1089 1053
3 1053 1089 1090
3 1053 1090 1054
3 1054 1090 1091
3 1054 1091 1055
3 1055 1091 1092
3 1055 1092 1056
3 1056 1092 1093
3 1056 1093 1057
3 1057 1093 1094
3 1057 1094 1058
3 1058 1094 1095
3 1058 1095 1059
3 1059 1095 1096
3 1059 1096 1060
3 1060 1096 1097
3 1060 1097 1061
3 1061 1097 1098
3 1061 1098 1062
3 1062 1098 1099
3 1062 1099 1063
3 1063 1099 1100
3 1063 1100 1064
3 1064 1100 1101
3 1064 1101 1065
3 1065 1101 1102
3 1065 1102 1066
3 1066 1102 1103
3 1066 1103 1067
3 1067 1103 1104
3 1067 1104 1068
3 1068 1104 1105
3 1068 1105 1069
3 1069 1105 1106
3 1069 1106 1070
3 1070 1106 1107
3 1070 1107 1071
3 1071 1107 1108
3 1071 1108 1072
3 1072 1108 1109
3 1072 1109 1073
3 1073 1109 1110
3 1073 1110 1074
3 1074 1110 1111
3 1074 1111 1075
3 1075 1111 1112
3 1075 1112 1076
3 1076 1112 1113
3 1076 1113 1077
3 1077 1113 1114
3 1077 1114 1078
3 1078 1114 1115
3 1078 1115 1079
3 1079 1115 1116
3 1079 1116 1080
3 1080 1116 1081
3 1080 1081 1045
3 1081 1117 1118
3 1081 1118 1082
3 1082 1118 1119
3 1082 1119 1083
3 1083 1119 1120
3 1083 1120 1084
3 1084 1120 1121
3 1084 1121 1085
3 1085 1121 1122
3 1085 1122 1086
3 1086 1122 1123
3 1086 1123 1087
3 1087 1123 1124
3 1087 1124 1088
3 1088 1124 1125
3 1088 1125 1089
3 1089 1125 1126
3 1089 1126 1090
3 1090 1126 1127
3 1090 1127 1091
3 1091 1127 1128
3 1091 1128 1092
3 1092 1128 1129
3 1092 1129 1093
3 1093 1129 1130
3 1093 1130 1094
3 1094 1130 1131
3 1094 1131 1095
3 1095 1131 1132
3 1095 1132 1096
3 1096 1132 1133
3 1096 1133 1097
3 1097 1133 1134
3 1097 1134 1098
3 1098 1134 1135
3 1098 1135 1099
3 1099 1135 1136
3 1099 1136 1100
3 1100 1136 1137
3 1100 1137 1101
3 1101 1137 1138
3 1101 1138 1102
3 1102 1138 1139
3 1102 1139 1103
3 1103 1139 1140
3 1103 1140 1104
3 1104 1140 1141
3 1104 1141 1105
3 1105 1141 1142
3 1105 1142 1106
3 1106 1142 1143
3 1106 1143 1107
3 1107 1143 1144
3 1107 1144 1108
3 1108 1144 1145
3 1108 1145 1109
3 1109 1145 1146
3 1109 1146 1110
3 1110 1146 1147
3 1110 1147 1111
3 1111 1147 1148
3 1111 1148 1112
3 1112 1148 1149
3 1112 1149 1113
3 1113 1149 1150
3 1113 1150 1114
3 1114 1150 1151
3 1114 1151 1115
3 1115 1151 1152
3 1115 1152 1116
3 1116 1152 1117
3 1116 1117 1081
3 1117 1153 1154
3 1117 1154 1118
3 1118 1154 1155
3 1118 1155 1119
3 1119 1155 1156
3 1119 1156 1120
3 1120 1156 1157
3 1120 1157 1121
3 1121 1157 1158
3 1121 1158 1122
3 1122 1158 1159
3 1122 1159 1123
3 1123 1159 1160
3 1123 1160 1124
3 1124 1160 1161
3 1124 1161 1125
3 1125 1161 1162
3 1125 1162 1126
3 1126 1162 1163
3 1126 1163 1127
3 1127 1163 1164
3 1127 1164 1128
3 1128 1164 1165
3 1128 1165 1129
3 1129 1165 1166
3 1129 1166 1130
3 1130 1166 1167
3 1130 1167 1131
3 1131 1167 1168
3 1131 1168 1132
3 1132 1168 1169
3 1132 1169 1133
3 1133 1169 1170
3 1133 1170 1134
3 1134 1170 1171
3 1134 1171 1135
3 1135 1171 1172
3 1135 1172 1136
3 1136 1172 1173
3 1136 1173 1137
3 1137 1173 1174
3 1137 1174 1138
3 1138 1174 1175
3 1138 1175 1139
3 1139 1175 1176
3 1139 1176 1140
3 1140 1176 1177
3 1140 1177 1141
3 1141 1177 1178
3 1141 1178 1142
3 1142 1178 1179
3 1142 1179 1143
3 1143 1179 1180
3 1143 1180 1144
3 1144 1180 1181
3 1144 1181 1145
3 1145 1181 1182
3 1145 1182 1146
3 1146 1182 1183
3 1146 1183 1147
3 1147 1183 1184
3 1147 1184 1148
3 1148 1184 1185
3 1148 1185 1149
3 1149 1185 1186
3 1149 1186 1150
3 1150 1186 1187
3 1150 1187 1151
3 1151 1187 1188
3 1151 1188 1152
3 1152 1188 1153
3 1152 1153 1117
3 1153 1189 1190
3 1153 1190 1154
3 1154 1190 1191
3 1154 1191 1155
3 1155 1191 1192
3 1155 1192 1156
3 1156 1192 1193
3 1156 1193 1157
3 1157 1193 1194
3 1157 1194 1158
3 1158 1194 1195
3 1158 1195 1159
3 1159 1195 1196
3 1159 1196 1160
3 1160 1196 1197
3 1160 1197 1161
3 1161 1197 1198
3 1161 1198 1162
3 1162 1198 1199
3 1162 1199 1163
3 1163 1199 1200
3 1163 1200 1164
3 1164 1200 1201
3 1164 1201 1165
3 1165 1201 1202
3 1165 1202 1166
3 1166 1202 1203
3 1166 1203 1167
3 1167 1203 1204
3 1167 1204 1168
3 1168 1204 1205
3 1168 1205 1169
3 1169 1205 1206
3 1169 1206 1170
3 1170 1206 1207
3 1170 1207 1171
3 1171 1207 1208
3 1171 1208 1172
3 1172 1208 1209
3 1172 1209 1173
3 1173 1209 1210
3 1173 1210 1174
3 1174 1210 1211
3 1174 1211 1175
3 1175 1211 1212
3 1175 1212 1176
3 1176 1212 1213
3 1176 1213 1177
3 1177 1213 1214
3 1177 1214 1178
3 1178 1214 1215
3 1178 1215 1179
3 1179 1215 1216
3 1179 1216 1180
3 1180 1216 1217
3 1180 1217 1181
3 1181 1217 1218
3 1181 1218 1182
3 1182 1218 1219
3 1182 1219 1183
3 1183 1219 1220
3 1183 1220 1184
3 1184 1220 1221
3 1184 1221 1185
3 1185 1221 1222
3 1185 1222 1186
3 1186 1222 1223
3 1186 1223 1187
3 1187 1223 1224
3 1187 1224 1188
3 1188 1224 1189
3 1188 1189 1153
3 1189 1225 1226
3 1189 1226 1190
3 1190 1226 1227
3 1190 1227 1191
3 1191 1227 1228
3 1191 1228 1192
3 1192 1228 1229
3 1192 1229 1193
3 1193 1229 1230
3 1193 1230 1194
3 1194 1230 1231
3 1194 1231 1195
3 1195 1231 1232
3 1195 1232 1196
3 1196 1232 1233
3 1196 1233 1197
3 1197 1233 1234
3 1197 1234 1198
3 1198 1234 1235
3 1198 1235 1199
3 1199 1235 1236
3 1199 1236 1200
3 1200 1236 1237
3 1200 1237 1201
3 1201 1237 1238
3 1201 1238 1202
3 1202 1238 1239
3 1202 1239 1203
3 1203 1239 1240
3 1203 1240 1204
3 1204 1240 1241
3 1204 1241 1205
3 1205 1241 1242
3 1205 1242 1206
3 1206 1242 1243
3 1206 1243 1207
3 1207 1243 1244
3 1207 1244 1208
3 1208 1244 1245
3 1208 1245 1209
3 1209 1245 1246
3 1209 1246 1210
3 1210 1246 1247
3 1210 1247 1211
3 1211 1247 1248
3 1211 1248 1212
3 1212 1248 1249
3 1212 1249 1213
3 1213 1249 1250
3 1213 1250 1214
3 1214 1250 1251
3 1214 1251 1215
3 1215 1251 1252
3 1215 1252 1216
3 1216 1252 1253
3 1216 1253 1217
3 1217 1253 1254
3 1217 1254 1218
3 1218 1254 1255
3 1218 1255 1219
3 1219 1255 1256
3 1219 1256 1220
3 1220 1256 1257
3 1220 1257 1221
3 1221 1257 1258
3 1221 1258 1222
3 1222 1258 1259
3 1222 1259 1223
3 1223 1259 1260
3 1223 1260 1224
3 1224 1260 1225
3 1224 1225 1189
3 1225 1261 1262
3 1225 1262 1226
3 1226 1262 1263
3 1226 1263 1227
3 1227 1263 1264
3 1227 1264 1228
3 1228 1264 1265
3 1228 1265 1229
3 1229 1265 1266
3 1229 1266 1230
3 1230 1266 1267
3 1230 1267 1231
3 1231 1267 1268
3 1231 1268 1232
3 1232 1268 1269
3 1232 1269 1233
3 1233 1269 1270
3 1233 1270 1234
3 1234 1270 1271
3 1234 1271 1235
3 1235 1271 1272
3 1235 1272 1236
3 1236 1272 1273
3 1236 1273 1237
3 1237 1273 1274
3 1237 1274 1238
3 1238 1274 1275
3 1238 1275 1239
3 1239 1275 1276
3 1239 1276 1240
3 1240 1276 1277
3 1240 1277 1241
3 1241 1277 1278
3 1241 1278 1242
3 1242 1278 1279
3 1242 1279 1243
3 1243 1279 1280
3 1243 1280 1244
3 1244 1280 1281
3 1244 1281 1245
3 1245 1281 1282
3 1245 1282 1246
3 1246 1282 1283
3 1246 1283 1247
3 1247 1283 1284
3 1247 1284 1248
3 1248 1284 1285
3 1248 1285 1249
3 1249 1285 1286
3 1249 1286 1250
3 1250 1286 1287
3 1250 1287 1251
3 1251 1287 1288
3 1251 1288 1252
3 1252 1288 1289
3 1252 1289 1253
3 1253 1289 1290
3 1253 1290 1254
3 1254 1290 1291
3 1254 1291 1255
3 1255 1291 1292
3 1255 1292 1256
3 1256 1292 1293
3 1256 1293 1257
3 1257 1293 1294
3 1257 1294 1258
3 1258 1294 1295
3 1258 1295 1259
3 1259 1295 1296
3 1259 1296 1260
3 1260 1296 1261
3 1260 1261 1225
