ply 
format ascii 1.0 
comment this is a surface 
element vertex 1297 
property float x 
property float y 
property float z 
element face 2556 
property list uchar int vertex_index 
end_header 
29.594691 0.001404 -0.006973
29.464485 0.712248 -0.011153
29.467499 0.666434 -0.064925
29.473780 0.586713 -0.151273
29.482279 0.484059 -0.258941
29.491947 0.369447 -0.376674
29.501732 0.253854 -0.493215
29.510584 0.148254 -0.597309
29.517454 0.063623 -0.677700
29.521292 0.010935 -0.723133
29.523748 -0.011002 -0.722962
29.538883 -0.064139 -0.677904
29.565561 -0.149442 -0.598551
29.599829 -0.255694 -0.495809
29.637728 -0.371681 -0.380583
29.675304 -0.486188 -0.263781
29.708599 -0.588000 -0.156306
29.733658 -0.665902 -0.069065
29.746525 -0.708679 -0.012963
29.744879 -0.705907 0.012748
29.736567 -0.659368 0.067234
29.724375 -0.579722 0.151605
29.709675 -0.477757 0.255333
29.693840 -0.364258 0.367888
29.678242 -0.250012 0.478743
29.664253 -0.145807 0.577367
29.653248 -0.062427 0.653233
29.646599 -0.010660 0.695811
29.643320 0.010823 0.694990
29.631186 0.063773 0.650713
29.610588 0.149111 0.573225
29.584339 0.255627 0.473241
29.555250 0.372109 0.361475
29.526129 0.487346 0.248642
29.499786 0.590127 0.145454
29.479033 0.669241 0.062627
29.466681 0.713475 0.010875
28.896887 2.019630 -0.057370
28.898802 1.895860 -0.243985
28.909925 1.684470 -0.503425
28.927494 1.411891 -0.808078
28.948744 1.104551 -1.130334
28.970911 0.788881 -1.442580
28.991228 0.491309 -1.717204
29.006931 0.238265 -1.926597
29.015259 0.056178 -2.043145
29.022432 -0.058223 -2.041568
29.075253 -0.254946 -1.927866
29.168770 -0.532758 -1.726897
29.288557 -0.860531 -1.463373
29.420193 -1.207137 -1.162001
29.549250 -1.541448 -0.847492
29.661306 -1.832334 -0.544555
29.741936 -2.048668 -0.277899
29.776712 -2.159322 -0.072233
29.757212 -2.137045 0.071753
29.712450 -1.996068 0.273738
29.653093 -1.765551 0.533677
29.584633 -1.473227 0.827537
29.512568 -1.146831 1.131280
29.442390 -0.814096 1.420872
29.379597 -0.502755 1.672277
29.329683 -0.240543 1.861459
29.298145 -0.055192 1.964383
29.284239 0.055001 1.957820
29.255886 0.238712 1.841178
29.211975 0.497083 1.638782
29.157616 0.801793 1.376219
29.097918 1.124521 1.079075
29.037992 1.436945 0.772934
28.982950 1.710744 0.483384
28.937902 1.917597 0.236011
28.907957 2.029182 0.056399
28.083483 3.182344 -0.129282
28.077457 2.997863 -0.474915
28.085379 2.687578 -0.905787
28.103310 2.286179 -1.384877
28.127317 1.828354 -1.875164
28.153471 1.348794 -2.339626
28.177835 0.882190 -2.741241
28.196478 0.463228 -3.042989
28.205467 0.126601 -3.207847
28.216743 -0.132413 -3.203365
28.312992 -0.510731 -3.044949
28.484045 -1.000664 -2.764040
28.702892 -1.554572 -2.390287
28.942528 -2.124813 -1.953339
29.175943 -2.663747 -1.482845
29.376133 -3.123735 -1.008454
29.516087 -3.457136 -0.559812
29.568798 -3.616308 -0.166571
29.518381 -3.561856 0.165941
29.418829 -3.328278 0.554222
29.290714 -2.959678 0.993526
29.145081 -2.495549 1.454817
28.992968 -1.975381 1.909054
28.845413 -1.438666 2.327200
28.713457 -0.924895 2.680217
28.608139 -0.473559 2.939067
28.540499 -0.124152 3.074709
28.512390 0.122830 3.058764
28.477064 0.461922 2.889394
28.429539 0.892803 2.597687
28.373716 1.376173 2.216664
28.313505 1.872727 1.779341
28.252810 2.343163 1.318738
28.195536 2.748177 0.867873
28.145590 3.048467 0.459765
28.106876 3.204729 0.127432
27.073221 4.214168 -0.219469
27.055613 3.985047 -0.741227
27.054976 3.603526 -1.339246
27.066793 3.107123 -1.972526
27.086550 2.533357 -2.600068
27.109726 1.919746 -3.180874
27.131804 1.303810 -3.673942
27.148264 0.723065 -4.038276
27.154593 0.215032 -4.232873
27.168930 -0.225584 -4.223887
27.309381 -0.809427 -4.039051
27.559940 -1.519578 -3.710542
27.880453 -2.295341 -3.266259
28.230772 -3.076021 -2.734102
28.570742 -3.800922 -2.141969
28.860210 -4.409348 -1.517760
29.059027 -4.840606 -0.889372
29.127037 -5.033996 -0.284707
29.040274 -4.941825 0.283913
28.877291 -4.621864 0.882204
28.669374 -4.129848 1.498305
28.434031 -3.513011 2.104804
28.188768 -2.818588 2.674286
27.951094 -2.093812 3.179338
27.738514 -1.385919 3.592545
27.568535 -0.742140 3.886497
27.458666 -0.209713 4.033775
27.415005 0.206645 4.007004
27.380163 0.715495 3.802199
27.343754 1.313968 3.451386
27.306080 1.956761 2.989140
27.267445 2.598570 2.450036
27.228149 3.194093 1.868649
27.188499 3.698026 1.279556
27.148796 4.065067 0.717329
27.109343 4.249911 0.216546
25.915052 5.128883 -0.320507
25.885403 4.870013 -1.026430
25.873550 4.439802 -1.784685
25.875017 3.874926 -2.554211
25.885323 3.212062 -3.293950
25.899984 2.487890 -3.962844
25.914524 1.739086 -4.519833
25.924459 1.002326 -4.923858
25.925312 0.314291 -5.133862
25.941242 -0.329750 -5.118672
26.121696 -1.128963 -4.920070
26.445004 -2.055914 -4.566966
26.858858 -3.040365 -4.080996
27.310957 -4.012075 -3.483793
27.748995 -4.900807 -2.796995
28.120667 -5.636322 -2.042235
28.373667 -6.148382 -1.241148
28.455690 -6.366747 -0.415371
28.334776 -6.238441 0.414270
28.109432 -5.842694 1.231201
27.821205 -5.243803 2.015167
27.494495 -4.493904 2.745129
27.153700 -3.645134 3.400050
26.823219 -2.749628 3.958892
26.527452 -1.859521 4.400618
26.290798 -1.026950 4.704189
26.137653 -0.304049 4.848568
26.079309 0.298776 4.811720
26.050621 0.981527 4.586432
26.035095 1.738275 4.201324
26.028141 2.521553 3.688215
26.025167 3.283892 3.078923
26.021584 3.977827 2.405268
26.012798 4.555889 1.699069
25.994223 4.970613 0.992143
25.961262 5.174530 0.316312
24.657923 5.940269 -0.424974
24.618971 5.665365 -1.314036
24.595942 5.203895 -2.222989
24.585052 4.589788 -3.113120
24.582520 3.856972 -3.945713
24.584560 3.039377 -4.682056
24.587395 2.170932 -5.283435
24.587236 1.285564 -5.711137
24.580303 0.417206 -5.926445
24.595928 -0.436923 -5.903254
24.807215 -1.447271 -5.697903
25.187784 -2.576090 -5.333874
25.675724 -3.747167 -4.824202
26.209122 -4.884288 -4.181916
26.726063 -5.911237 -3.420051
27.164633 -6.751801 -2.551638
27.462923 -7.329767 -1.589708
27.559013 -7.568917 -0.547296
27.413771 -7.413192 0.545615
27.136843 -6.956635 1.574732
26.778343 -6.269287 2.511264
26.369488 -5.406518 3.343424
25.941492 -4.423699 4.059422
25.525578 -3.376201 4.647473
25.152958 -2.319395 5.095790
24.854851 -1.308649 5.392587
24.662474 -0.399337 5.526072
24.592537 0.391556 5.482093
24.573885 1.242112 5.248933
24.584042 2.143421 4.848949
24.613340 3.048543 4.308455
24.652111 3.910535 3.653764
24.690685 4.682456 2.911191
24.719395 5.317365 2.107047
24.728569 5.768321 1.267646
24.708540 5.988380 0.419303
23.350780 6.662105 -0.525447
23.308460 6.383705 -1.587553
23.276985 5.903296 -2.635043
23.253969 5.251911 -3.632439
23.237024 4.460588 -4.544262
23.223766 3.560360 -5.335033
23.211807 2.582262 -5.969277
23.198763 1.557333 -6.411508
23.182245 0.516599 -6.626258
23.195240 -0.539117 -6.593170
23.423218 -1.742279 -6.382448
23.836836 -3.046520 -6.011831
24.368671 -4.373274 -5.485584
24.951300 -5.643972 -4.807974
25.517298 -6.780047 -3.983267
25.999241 -7.702934 -3.015725
26.329706 -8.334062 -1.909621
26.441269 -8.594868 -0.669211
26.289146 -8.427564 0.666548
25.981119 -7.929554 1.886313
25.572924 -7.174043 2.953749
25.102020 -6.219142 3.867317
24.605875 -5.122964 4.625478
24.121950 -3.943624 5.226691
23.687710 -2.739231 5.669424
23.340616 -1.567904 5.952127
23.118132 -0.487748 6.073273
23.041920 0.477317 6.027304
23.035395 1.479342 5.796538
23.071068 2.507103 5.395705
23.135113 3.515727 4.844426
23.213707 4.460342 4.162322
23.293026 5.296074 3.369015
23.359243 5.978055 2.484125
23.398539 6.461405 1.527278
23.397083 6.701261 0.518088
22.042574 7.308171 -0.614505
22.006010 7.037634 -1.830494
21.971516 6.545491 -3.001734
21.938837 5.861497 -4.095357
21.907721 5.015411 -5.078500
21.877913 4.036991 -5.918296
21.849159 2.955995 -6.581875
21.821211 1.802176 -7.036379
21.793810 0.605299 -7.248935
21.801424 -0.628344 -7.203955
22.026979 -1.991920 -6.983603
22.440706 -3.433623 -6.601397
22.975315 -4.876211 -6.054850
23.563528 -6.242443 -5.341471
24.138056 -7.455075 -4.458770
24.631618 -8.436864 -3.404261
24.976929 -9.110571 -2.175449
25.106709 -9.398952 -0.769853
24.972788 -9.243044 0.765672
24.663851 -8.727320 2.139463
24.237078 -7.925815 3.309777
23.735106 -6.900066 4.284442
23.200577 -5.711611 5.071292
22.676126 -4.421985 5.678158
22.204395 -3.092728 6.112866
21.828018 -1.785373 6.383258
21.589638 -0.561462 6.497155
21.514687 0.548391 6.456532
21.520594 1.675313 6.236088
21.576647 2.807018 5.843040
21.666895 3.901101 5.290694
21.775387 4.915155 4.592358
21.886173 5.806776 3.761338
21.983305 6.533553 2.810942
22.050829 7.053088 1.754473
22.072798 7.322967 0.605245
20.782251 7.892247 -0.684725
20.763762 7.639757 -2.026367
20.734369 7.137971 -3.303943
20.696726 6.418748 -4.485060
20.653488 5.513945 -5.537331
20.607309 4.455422 -6.428362
20.560844 3.275040 -7.125763
20.516750 2.004654 -7.597143
20.477678 0.676121 -7.810116
20.476732 -0.696618 -7.751145
20.675783 -2.174123 -7.511265
21.047945 -3.703812 -7.103137
21.533278 -5.213502 -6.521705
22.071840 -6.631011 -5.761909
22.603693 -7.884151 -4.818693
23.068897 -8.900742 -3.687001
23.407511 -9.608597 -2.361769
23.559591 -9.935534 -0.837941
23.476580 -9.821119 0.831589
23.206631 -9.315799 2.307699
22.802942 -8.492347 3.546497
22.311760 -7.417582 4.562428
21.779327 -6.158319 5.369940
21.251892 -4.781377 5.983477
20.775694 -3.353574 6.417487
20.396982 -1.941724 6.686413
20.162001 -0.612645 6.804709
20.098066 0.597111 6.778960
20.114925 1.812117 6.574420
20.181257 3.020863 6.192399
20.282124 4.182658 5.641826
20.402586 5.256817 4.931634
20.527702 6.202649 4.070757
20.642536 6.979465 3.068129
20.732143 7.546578 1.932677
20.781586 7.863301 0.673335
19.598618 8.434754 -0.732562
19.609520 8.206361 -2.166560
19.592947 7.691015 -3.530374
19.555166 6.927135 -4.789585
19.502445 5.953136 -5.909777
19.441051 4.807437 -6.856531
19.377254 3.528457 -7.595430
19.317320 2.154611 -8.092056
19.267519 0.724318 -8.311991
19.256813 -0.739326 -8.240249
19.408102 -2.279843 -7.971029
19.700407 -3.848620 -7.520108
20.087881 -5.380617 -6.885166
20.524675 -6.810792 -6.063883
20.964945 -8.074104 -5.053941
21.362841 -9.105513 -3.853021
21.672518 -9.839974 -2.458804
21.848125 -10.212449 -0.868971
21.844036 -10.160420 0.859916
21.650749 -9.686026 2.382393
21.312185 -8.859703 3.655994
20.875938 -7.755151 4.697743
20.389608 -6.446064 5.524668
19.900789 -5.006137 6.153796
19.457079 -3.509069 6.602152
19.106071 -2.028553 6.886764
18.895367 -0.638286 7.024657
18.851730 0.620925 7.023038
18.876017 1.885119 6.836440
18.939358 3.145182 6.462963
19.031298 4.360492 5.910134
19.141380 5.490424 5.185480
19.259150 6.494354 4.296527
19.374147 7.331659 3.250802
19.475920 7.961714 2.055830
19.554008 8.343895 0.719139
18.400455 8.977298 -0.776240
18.429998 8.762710 -2.288204
18.418104 8.223521 -3.718219
18.374672 7.405971 -5.032769
18.309608 6.356298 -6.198340
18.232811 5.120740 -7.181417
18.154182 3.745536 -7.948483
18.083628 2.276923 -8.466025
18.031044 0.761140 -8.700527
18.022306 -0.772713 -8.635882
18.146046 -2.374161 -8.355959
18.384489 -3.996056 -7.877683
18.701998 -5.573327 -7.202010
19.062937 -7.040901 -6.329894
19.431667 -8.333708 -5.262288
19.772549 -9.386675 -4.000148
20.049948 -10.134731 -2.544428
20.228222 -10.512804 -0.896082
20.266098 -10.458062 0.885140
20.124575 -9.971363 2.452627
19.840231 -9.124032 3.764832
19.458666 -7.990986 4.839796
19.025486 -6.647146 5.695559
18.586290 -5.167428 6.350162
18.186682 -3.626754 6.821644
17.872263 -2.100039 7.128047
17.688637 -0.662203 7.287411
17.660240 0.645309 7.306525
17.686207 1.961045 7.131768
17.741188 3.275812 6.759311
17.818830 4.548347 6.196112
17.912781 5.737386 5.449130
18.016687 6.801665 4.525325
18.124197 7.699922 3.431656
18.228958 8.390891 2.175083
18.324617 8.833309 0.762564
17.167200 9.509585 -0.818269
17.203426 9.300925 -2.398949
17.187756 8.732136 -3.880231
17.133486 7.857418 -5.232211
17.053909 6.730970 -6.424983
16.962322 5.406991 -7.428644
16.872023 3.939681 -8.213289
16.796305 2.383237 -8.749015
16.748463 0.791860 -9.005916
16.752640 -0.802325 -8.967216
16.870935 -2.471051 -8.694601
17.085873 -4.165532 -8.204064
17.367311 -5.814184 -7.499896
17.685122 -7.345423 -6.586384
18.009167 -8.687664 -5.467819
18.309311 -9.769325 -4.148490
18.555420 -10.518821 -2.632686
18.717360 -10.864566 -0.924696
18.758926 -10.745333 0.912550
18.640244 -10.204991 2.531335
18.393209 -9.318602 3.890249
18.058750 -8.156794 5.007458
17.677795 -6.790197 5.901128
17.291269 -5.289443 6.589426
16.940102 -3.725161 7.090518
16.665216 -2.167979 7.422568
16.507544 -0.688531 7.603744
16.487959 0.673962 7.639883
16.510555 2.048095 7.470996
16.553963 3.422207 7.092244
16.615028 4.754431 6.510649
16.690594 6.002899 5.733238
16.777504 7.125742 4.767035
16.872604 8.081093 3.619064
16.972738 8.827084 2.296349
17.074749 9.321844 0.805916
15.896287 10.013350 -0.857549
15.930218 9.808394 -2.499279
15.905107 9.210125 -4.022393
15.837243 8.280307 -5.401943
15.742911 7.080706 -6.612979
15.638401 5.673086 -7.630553
15.539997 4.119214 -8.429714
15.463987 2.480852 -8.985515
15.426659 0.819770 -9.273005
15.451399 -0.830779 -9.274472
15.580418 -2.572463 -9.020803
15.794497 -4.352556 -8.526052
16.065468 -6.088975 -7.798418
16.365160 -7.699639 -6.846096
16.665401 -9.102466 -5.677287
16.938025 -10.215372 -4.300187
17.154858 -10.956278 -2.722996
17.287733 -11.243099 -0.953911
17.305866 -11.017797 0.940839
17.188925 -10.396753 2.614536
16.966171 -9.460413 4.025646
16.672087 -8.271201 5.191739
16.341154 -6.891541 6.130385
16.007854 -5.383858 6.859156
15.706672 -3.810576 7.395620
15.472085 -2.234117 7.757348
15.338579 -0.716909 7.961910
15.322674 0.705737 8.013521
15.337907 2.141758 7.846025
15.367121 3.575540 7.454462
15.409654 4.965213 6.846830
15.464843 6.268912 6.031126
15.532028 7.444767 5.015348
15.610548 8.450912 3.807493
15.699740 9.245479 2.415558
15.798944 9.786599 0.847541
14.585147 10.470323 -0.892977
14.610784 10.272504 -2.589674
14.573358 9.650753 -4.150686
14.491585 8.673470 -5.556001
14.384178 7.409059 -6.785604
14.269855 5.925920 -7.819483
14.167328 4.292456 -8.637625
14.095313 2.577068 -9.220017
14.072524 0.848159 -9.546646
14.122164 -0.860686 -9.597878
14.272129 -2.680345 -9.368416
14.500302 -4.552635 -8.870448
14.778110 -6.383487 -8.117168
15.076975 -8.078833 -7.121768
15.368325 -9.544602 -5.897441
15.623585 -10.686727 -4.457380
15.814179 -11.411138 -2.814778
15.911535 -11.623765 -0.982828
15.890260 -11.271025 0.968700
15.761792 -10.556493 2.698248
15.554171 -9.566465 4.164424
15.294576 -8.352837 5.383648
15.010184 -6.967501 6.372339
14.728175 -5.462352 7.146916
14.475728 -3.889286 7.723799
14.280021 -2.300194 8.119408
14.168231 -0.746973 8.350161
14.152170 0.739488 8.417849
14.157112 2.237524 8.248756
14.170099 3.726979 7.838668
14.192467 5.167159 7.197737
14.225550 6.517371 6.336116
14.270684 7.736922 5.263957
14.329205 8.785118 3.991414
14.402446 9.621266 2.528638
14.491744 10.204672 0.885784
13.231212 10.862234 -0.923450
13.245536 10.680640 -2.670617
13.195709 10.047284 -4.271093
13.102149 9.035740 -5.708418
12.985272 7.719584 -6.966132
12.865497 6.172390 -8.027775
12.763239 4.467731 -8.876887
12.698916 2.679182 -9.497011
12.692946 0.880319 -9.871686
12.768519 -0.894663 -9.977656
12.943713 -2.796649 -9.771285
13.193227 -4.761281 -9.264051
13.486880 -6.683508 -8.475741
13.794496 -8.458285 -7.426140
14.085892 -9.980565 -6.135035
14.330888 -11.145297 -4.622210
14.499305 -11.847434 -2.907451
14.560963 -11.981929 -1.010545
14.495452 -11.500581 0.994827
14.350014 -10.694053 2.778491
14.152258 -9.653757 4.299987
13.922112 -8.420328 5.574196
13.679503 -7.034399 6.615998
13.444360 -5.536604 7.440273
13.236609 -3.967578 8.061903
13.076177 -2.367952 8.495768
12.982991 -0.778364 8.756749
12.964235 0.774069 8.843274
12.957018 2.330882 8.671092
12.952335 3.867696 8.237563
12.953229 5.346736 7.556453
12.962736 6.730225 6.641528
12.983897 7.980388 5.506553
13.019751 9.059448 4.165296
13.073337 9.929632 2.631520
13.147695 10.553164 0.918993
11.831914 11.170818 -0.947866
11.834887 11.020188 -2.742591
11.775363 10.392982 -4.389596
11.674575 9.365949 -5.873230
11.553755 8.015835 -7.177838
11.434136 6.419389 -8.287768
11.336951 4.653359 -9.187370
11.283434 2.794493 -9.860989
11.294814 0.919538 -10.292973
11.394050 -0.935324 -10.454035
11.592810 -2.923325 -10.263260
11.863207 -4.973999 -9.733662
12.173426 -6.974825 -8.893730
12.491648 -8.813280 -7.771953
12.786056 -10.376843 -6.396819
13.024829 -11.552989 -4.796817
13.176155 -12.229204 -3.000435
13.208210 -12.292955 -1.036161
13.104788 -11.702031 1.017912
12.944761 -10.819278 2.851283
12.755484 -9.739290 4.425736
12.550593 -8.492305 5.754392
12.343731 -7.108559 6.850370
12.148537 -5.618290 7.726793
11.978647 -4.051735 8.396780
11.847707 -2.439135 8.873450
11.769351 -0.810720 9.169927
11.746653 0.808333 9.280208
11.726471 2.417321 9.104934
11.703269 3.988862 8.643847
11.681702 5.490409 7.916060
11.666424 6.889419 6.940683
11.662093 8.153345 5.736828
11.673365 9.249643 4.323607
11.704894 10.145767 2.720132
11.761336 10.809171 0.945515
10.384686 11.377805 -0.965123
10.379250 11.278534 -2.806077
10.315521 10.681112 -4.512178
10.214501 9.662927 -6.064469
10.097190 8.301366 -7.443997
9.984587 6.673815 -8.631804
9.897690 4.857665 -9.608936
9.857500 2.930300 -10.356441
9.885016 0.969108 -10.855355
10.002338 -0.985282 -11.067236
10.217060 -3.062321 -10.878188
10.500184 -5.186300 -10.306081
10.819390 -7.243224 -9.390729
11.142359 -9.119098 -8.171946
11.436770 -10.699927 -6.689545
11.670307 -11.871720 -4.983341
11.810647 -12.520475 -3.093147
11.825475 -12.532207 -1.058777
11.701612 -11.870942 1.036648
11.537207 -10.942011 2.912642
11.358899 -9.840061 4.535072
11.175918 -8.587393 5.915246
10.997487 -7.206303 7.064466
10.832833 -5.719089 7.994041
10.691184 -4.148051 8.715277
10.581762 -2.515479 9.239476
10.513798 -0.843680 9.577947
10.487208 0.841133 9.719057
10.454321 2.492330 9.542184
10.412336 4.081646 9.050223
10.367645 5.584648 8.269641
10.326636 6.976902 7.226902
10.295698 8.233978 5.948473
10.281223 9.331440 4.460819
10.289598 10.244857 2.790405
10.327213 10.949795 0.963695
8.886960 11.464926 -0.974119
8.879035 11.443066 -2.861557
8.819386 10.904940 -4.644819
8.727569 9.925508 -6.296172
8.623140 8.579730 -7.787884
8.525658 6.942564 -9.092223
8.454676 5.088967 -10.181458
8.429751 3.093899 -11.027855
8.470441 1.032321 -11.603686
8.596967 -1.047153 -11.857487
8.814106 -3.215588 -11.649919
9.094094 -5.393692 -11.008108
9.406416 -7.474493 -9.986330
9.720554 -9.351022 -8.638858
10.005992 -10.916310 -7.019964
10.232215 -12.063391 -5.183924
10.368705 -12.685293 -3.185007
10.384945 -12.675042 -1.077490
10.269266 -12.002882 1.049730
10.118519 -11.072096 2.958587
9.957558 -9.973073 4.621398
9.793983 -8.724225 6.047766
9.635390 -7.343956 7.247294
9.489381 -5.850680 8.229585
9.363550 -4.262802 9.004241
9.265499 -2.598734 9.580865
9.202822 -0.876878 9.969061
9.173688 0.871323 10.150233
9.129414 2.551398 9.974744
9.068976 4.137218 9.449391
9.000821 5.615916 8.610279
8.933393 6.974622 7.493508
8.875139 8.200465 6.135181
8.834503 9.280579 4.571400
8.819930 10.202091 2.838266
8.839867 10.952133 0.971880
7.340636 11.442243 -0.975892
7.336035 11.520494 -2.912116
7.288082 11.067852 -4.792259
7.213849 10.154033 -6.573921
7.130411 8.848755 -8.214703
7.054839 7.221736 -9.672204
7.004208 5.342695 -10.904025
6.995589 3.281348 -11.867767
7.046057 1.107414 -12.521030
7.172801 -1.118932 -12.796484
7.377487 -3.377241 -12.544443
7.636128 -5.586940 -11.805660
7.922833 -7.657029 -10.650517
8.211707 -9.496504 -9.149396
8.476858 -11.014365 -7.372678
8.692392 -12.119610 -5.390744
8.832418 -12.721237 -3.273974
8.871042 -12.728245 -1.092753
8.796455 -12.116142 1.058362
8.680399 -11.234528 2.993147
8.544613 -10.165066 4.691713
8.398209 -8.927525 6.161594
8.250299 -7.541673 7.410325
8.109998 -6.027279 8.445439
7.986415 -4.404111 9.274471
7.888666 -2.691939 9.904956
7.825861 -0.910529 10.344427
7.796075 0.898849 10.566543
7.742779 2.595476 10.390419
7.665584 4.158641 9.827655
7.575205 5.590025 8.925378
7.482359 6.891313 7.730713
7.397761 8.064183 6.290787
7.332129 9.110321 4.652727
7.296177 10.031407 2.863656
7.300623 10.829123 0.970704
5.773852 11.455575 -0.981429
5.762730 11.608379 -2.970339
5.716038 11.218592 -4.945780
5.649137 10.351960 -6.849908
5.577390 9.074232 -8.624877
5.516160 7.451157 -10.212842
5.480807 5.548482 -11.555959
5.486696 3.431954 -12.596382
5.549188 1.167322 -13.276267
5.682663 -1.175765 -13.518503
5.882695 -3.504071 -13.200472
6.128151 -5.737495 -12.374907
6.397340 -7.799380 -11.119455
6.668567 -9.613070 -9.511760
6.920139 -11.101911 -7.629466
7.130363 -12.189244 -5.550219
7.277547 -12.798416 -3.351660
7.339995 -12.852768 -1.111438
7.305492 -12.329132 1.075429
7.221461 -11.509771 3.056885
7.106997 -10.468633 4.814177
6.973086 -9.230398 6.349239
6.830709 -7.819751 7.664008
6.690848 -6.261375 8.760420
6.564487 -4.579951 9.640411
6.462610 -2.800163 10.305917
6.396197 -0.946692 10.758874
6.364072 0.928463 10.968131
6.304478 2.651079 10.756351
6.216798 4.205803 10.141564
6.112601 5.606187 9.177024
6.003457 6.865785 7.915983
5.900933 7.998151 6.411698
5.816601 9.016838 4.717422
5.762028 9.935399 2.886408
5.748783 10.767388 0.971911
4.198488 11.499942 -0.989836
4.170593 11.698630 -3.030355
4.113766 11.347104 -5.091639
4.042552 10.508340 -7.101249
3.971496 9.245315 -8.986749
3.915147 7.621004 -10.675702
3.888048 5.698384 -12.095669
3.904748 3.540431 -13.174215
3.979791 1.210122 -13.838901
4.125380 -1.216255 -14.008582
4.329540 -3.594946 -13.614655
4.572643 -5.847352 -12.719271
4.836019 -7.908083 -11.399514
5.101000 -9.711751 -9.732471
5.348917 -11.192967 -7.795226
5.561101 -12.286344 -5.664867
5.718884 -12.926489 -3.418478
5.803596 -13.048017 -1.133147
5.802505 -12.625624 1.099851
5.744289 -11.870973 3.144823
5.646194 -10.852104 4.978328
5.520835 -9.601031 6.594068
5.380824 -8.149766 7.985743
5.238775 -6.530323 9.147054
5.107303 -4.774713 10.071701
4.999020 -2.914948 10.753385
4.926540 -0.983043 11.185806
4.889974 0.958462 11.335923
4.826297 2.714705 11.059875
4.734059 4.275075 10.383139
4.624246 5.661747 9.360484
4.507843 6.896899 8.046678
4.395836 8.002704 6.496487
4.299211 9.001340 4.764680
4.228954 9.914980 2.906023
4.196051 10.765801 0.975284
2.622388 11.541379 -0.997995
2.570138 11.763184 -3.083303
2.494262 11.432623 -5.216530
2.409171 10.610221 -7.312274
2.329279 9.356502 -9.285131
2.269000 7.731989 -11.049697
2.242744 5.797208 -12.520570
2.264927 3.612680 -13.612348
2.349959 1.238933 -14.239624
2.508672 -1.243646 -14.320865
2.722210 -3.656773 -13.852837
2.971324 -5.923737 -12.904689
3.239041 -7.987851 -11.548258
3.508388 -9.792430 -9.855379
3.762391 -11.280787 -7.897888
3.984078 -12.396235 -5.747620
4.156475 -13.082088 -3.476408
4.262608 -13.281663 -1.156092
4.289020 -12.965163 1.127938
4.251416 -12.273871 3.243578
4.165947 -11.271529 5.159348
4.046537 -9.999050 6.859675
3.907108 -8.497348 8.328983
3.761584 -6.807335 9.551697
3.623887 -4.969927 10.512241
3.507941 -3.026036 11.195042
3.427670 -1.016576 11.584521
3.384845 0.985979 11.647928
3.318746 2.777194 11.292394
3.226680 4.350646 10.551044
3.117913 5.734343 9.477047
3.001707 6.956294 8.123573
2.887329 8.044505 6.543791
2.784042 9.026987 4.790870
2.701112 9.931746 2.917976
2.647802 10.786792 0.978282
1.053399 11.545923 -1.002789
0.971879 11.773980 -3.120321
0.870520 11.454386 -5.307151
0.764073 10.644653 -7.467311
0.667288 9.402296 -9.504830
0.594917 7.784826 -11.323742
0.561709 5.849758 -12.828074
0.582415 3.654602 -13.921861
0.671786 1.256872 -14.509131
0.840259 -1.261185 -14.509498
1.064889 -3.696461 -13.980854
1.325915 -5.973877 -12.997097
1.606575 -8.043398 -11.623251
1.890111 -9.854989 -9.924338
2.159761 -11.358618 -7.965382
2.398765 -12.504249 -5.811406
2.590362 -13.241846 -3.527431
2.717792 -13.521378 -1.178484
2.766563 -13.307295 1.155999
2.745372 -12.674210 3.339769
2.669998 -11.682959 5.332420
2.555272 -10.384084 7.109657
2.416022 -8.828125 8.647184
2.267076 -7.065626 9.920709
2.123266 -5.147125 10.905935
1.999417 -3.123164 11.578568
1.910361 -1.044285 11.914313
1.859753 1.008146 11.882154
1.792334 2.829388 11.445316
1.703974 4.416706 10.643945
1.601375 5.801610 9.528002
1.491240 7.015611 8.147449
1.380274 8.090219 6.552246
1.275177 9.056944 4.792357
1.182655 9.947295 2.917741
1.109409 10.792785 0.978362
-0.500636 11.479611 -1.001099
-0.613671 11.702957 -3.132548
-0.744464 11.391627 -5.350199
-0.877665 10.598686 -7.550691
-0.997927 9.377199 -9.630661
-1.089903 7.780229 -11.486751
-1.138244 5.860840 -13.015596
-1.127604 3.672095 -14.113839
-1.042635 1.267059 -14.678114
-0.872139 -1.272118 -14.628625
-0.638236 -3.720919 -14.064550
-0.361865 -6.004998 -13.062435
-0.061208 -8.079436 -11.682057
0.245550 -9.899315 -9.983199
0.540225 -11.419714 -8.025640
0.804633 -12.595713 -5.869156
1.020590 -13.382392 -3.573528
1.169911 -13.734835 -1.198539
1.236661 -13.611565 1.180341
1.228686 -13.027725 3.420015
1.162089 -12.042439 5.472724
1.052120 -10.715757 7.307606
0.914027 -9.107730 8.893801
0.763059 -7.278406 10.200446
0.614465 -5.287838 11.196682
0.483493 -3.196073 11.851645
0.385393 -1.063165 12.134477
0.325761 1.022096 12.016613
0.257570 2.862127 11.510051
0.175251 4.457443 10.660509
0.082406 5.841185 9.514636
-0.017368 7.046493 8.119080
-0.120470 8.106508 6.520488
-0.223301 9.054372 4.765510
-0.322262 9.923223 2.900791
-0.413753 10.746206 0.972983
-2.031869 11.308480 -0.989806
-2.175998 11.522053 -3.111122
-2.337694 11.223583 -5.332369
-2.500964 10.459371 -7.546741
-2.649817 9.275712 -9.647433
-2.768260 7.718909 -11.527637
-2.840302 5.835259 -13.080549
-2.849950 3.671060 -14.199361
-2.781212 1.272613 -14.777268
-2.620802 -1.279691 -14.732391
-2.382981 -3.737055 -14.169765
-2.090293 -6.024327 -13.166638
-1.764138 -8.100682 -11.782243
-1.425913 -9.925290 -10.075813
-1.097016 -11.457324 -8.106588
-0.798845 -12.655955 -5.933797
-0.552797 -13.480360 -3.616683
-0.380273 -13.889702 -1.214470
-0.299159 -13.837518 1.197275
-0.296110 -13.290159 3.470935
-0.354037 -12.306021 5.555442
-0.457839 -10.953699 7.417119
-0.592415 -9.301790 9.022286
-0.742666 -7.418890 10.337268
-0.893491 -5.373597 11.328383
-1.029788 -3.234502 11.961957
-1.136459 -1.070207 12.204309
-1.206062 1.024963 12.029311
-1.275037 2.866254 11.478004
-1.350174 4.457048 10.599402
-1.431222 5.830703 9.438238
-1.517928 7.020578 8.039244
-1.610042 8.060035 6.447152
-1.707312 8.982431 4.706692
-1.809484 9.821129 2.862601
-1.916311 10.609483 0.959605
-3.532457 10.998565 -0.965794
-3.704589 11.203206 -3.047181
-3.896177 10.929489 -5.240358
-4.090748 10.213753 -7.439793
-4.271832 9.092337 -9.539957
-4.422957 7.601580 -11.435318
-4.527649 5.777822 -13.020346
-4.569438 3.657400 -14.189511
-4.531851 1.276653 -14.837283
-4.398011 -1.287151 -14.874941
-4.165159 -3.751777 -14.362341
-3.857651 -6.039090 -13.375643
-3.502046 -8.111846 -11.981368
-3.124897 -9.932797 -10.246034
-2.752763 -11.464700 -8.236158
-2.412197 -12.670309 -6.018267
-2.129757 -13.512376 -3.658865
-1.931998 -13.953657 -1.224488
-1.839372 -13.944699 1.203108
-1.826486 -13.417252 3.479147
-1.874637 -12.429752 5.555757
-1.969524 -11.057536 7.401790
-2.096843 -9.375937 8.986097
-2.242294 -7.460290 10.277531
-2.391574 -5.385930 11.244943
-2.530381 -3.228193 11.857181
-2.644415 -1.062410 12.083103
-2.724653 1.013879 11.898260
-2.794978 2.832610 11.340583
-2.862991 4.399709 10.459290
-2.931735 5.747800 9.300096
-3.004250 6.909510 7.908719
-3.083581 7.917463 6.330873
-3.172769 8.804287 4.612277
-3.274858 9.602605 2.798640
-3.392889 10.345043 0.935686
-4.994553 10.515902 -0.925944
-5.188928 10.718355 -2.931865
-5.406915 10.488581 -5.060863
-5.631939 9.848886 -7.214174
-5.847424 8.821575 -9.293042
-6.036794 7.428956 -11.198705
-6.183474 5.693331 -12.832401
-6.270887 3.637010 -14.095372
-6.282458 1.282298 -14.888855
-6.196047 -1.297742 -15.110421
-5.980584 -3.771994 -14.708117
-5.662219 -6.056514 -13.755389
-5.274761 -8.117644 -12.337001
-4.852023 -9.921723 -10.537711
-4.427817 -11.435094 -8.442284
-4.035953 -12.624098 -6.135484
-3.710244 -13.455075 -3.702071
-3.484501 -13.894367 -1.226801
-3.382450 -13.892654 1.194150
-3.359912 -13.364743 3.431270
-3.395970 -12.369683 5.448850
-3.477854 -10.986896 7.225214
-3.592795 -9.295800 8.738688
-3.728020 -7.375819 9.967593
-3.870759 -5.306373 10.890258
-4.008244 -3.166881 11.485003
-4.127700 -1.036768 11.730152
-4.218945 0.985978 11.601469
-4.291744 2.752036 11.089194
-4.353888 4.269615 10.238837
-4.411359 5.570113 9.101500
-4.470144 6.684928 7.728281
-4.536227 7.645457 6.170289
-4.615593 8.483100 4.478623
-4.714228 9.229251 2.704387
-4.838117 9.915311 0.898680
-6.427985 9.902996 -0.873662
-6.636529 10.109340 -2.774203
-6.874260 9.938655 -4.806898
-7.125159 9.396168 -6.885181
-7.373207 8.487102 -8.922493
-7.602382 7.216684 -10.832268
-7.796666 5.590140 -12.527944
-7.940040 3.612694 -13.922957
-8.016482 1.289573 -14.930746
-7.997211 -1.310997 -15.429056
-7.811687 -3.796457 -15.192094
-7.487525 -6.074770 -14.289032
-7.067554 -8.115870 -12.833059
-6.594608 -9.889687 -10.937363
-6.111517 -11.366154 -8.715128
-5.661112 -12.515202 -6.279544
-5.286223 -13.306763 -3.743795
-5.029684 -13.710769 -1.221070
-4.919199 -13.681149 1.170705
-4.886748 -13.133362 3.330052
-4.908639 -12.127522 5.241618
-4.974071 -10.744359 6.899242
-5.072240 -9.064606 8.296769
-5.192347 -7.168995 9.428041
-5.323588 -5.138258 10.286901
-5.455163 -3.053127 10.867191
-5.576268 -0.994333 11.162753
-5.676275 0.942572 11.148376
-5.752419 2.629251 10.728343
-5.811980 4.075741 9.940759
-5.862847 5.311484 8.845534
-5.912907 6.365927 7.502581
-5.970047 7.268514 5.971808
-6.042153 8.048688 4.313129
-6.137115 8.735896 2.586452
-6.262819 9.359581 0.851691
-7.922328 9.563365 -0.843362
-8.137949 9.747106 -2.669141
-8.384121 9.592033 -4.618974
-8.646482 9.093435 -6.619239
-8.910672 8.246598 -8.596315
-9.162333 7.046810 -10.476582
-9.387101 5.489357 -12.186416
-9.570619 3.569527 -13.652197
-9.698524 1.282608 -14.800304
-9.736711 -1.307735 -15.497628
-9.576732 -3.783232 -15.390374
-9.246813 -6.047761 -14.541577
-8.797636 -8.072169 -13.082289
-8.279881 -9.827302 -11.143558
-7.744233 -11.284008 -8.856436
-7.241371 -12.413132 -6.351973
-6.821976 -13.185522 -3.761218
-6.536731 -13.572023 -1.215222
-6.417291 -13.527122 1.154256
-6.377298 -12.965584 3.261917
-6.389941 -11.949434 5.103726
-6.444896 -10.561741 6.681907
-6.531838 -8.885568 7.998687
-6.640444 -7.003980 9.056290
-6.760386 -5.000044 9.856940
-6.881343 -2.956823 10.402864
-6.992987 -0.957384 10.696286
-7.085853 0.906398 10.715158
-7.161089 2.538551 10.337457
-7.225411 3.949322 9.595831
-7.285378 5.162208 8.549581
-7.347548 6.200705 7.258005
-7.418481 7.088312 5.780405
-7.504738 7.848526 4.176080
-7.612876 8.504842 2.504329
-7.749457 9.080760 0.824454
-9.465405 9.485012 -0.834332
-9.682583 9.621357 -2.616651
-9.927629 9.439809 -4.499623
-10.188715 8.932965 -6.422189
-10.454015 8.093428 -8.323287
-10.711703 6.913797 -10.141856
-10.949954 5.386672 -11.816835
-11.156940 3.504655 -13.287163
-11.320834 1.260344 -14.491778
-11.403978 -1.287112 -15.296543
-11.265214 -3.731346 -15.276008
-10.932474 -5.976230 -14.485347
-10.462380 -7.990574 -13.061041
-9.911551 -9.743188 -11.139570
-9.336606 -11.202883 -8.857418
-8.794166 -12.338470 -6.351067
-8.340847 -13.118757 -3.756992
-8.033272 -13.512559 -1.211682
-7.906394 -13.471437 1.148192
-7.861484 -12.905091 3.237328
-7.868703 -11.878440 5.052770
-7.917066 -10.478575 6.597569
-7.995585 -8.792587 7.874776
-8.093272 -6.907569 8.887444
-8.199140 -4.910615 9.638623
-8.302201 -2.888813 10.131364
-8.391468 -0.929258 10.368719
-8.460201 0.880106 10.335762
-8.527951 2.485116 9.945179
-8.600869 3.895086 9.226768
-8.681419 5.124411 8.230247
-8.772064 6.187485 7.005336
-8.875269 7.098704 5.601754
-8.993497 7.872464 4.069220
-9.129211 8.523157 2.457452
-9.284878 9.065182 0.816172
-11.026405 9.577097 -0.839156
-11.241011 9.649630 -2.598418
-11.477998 9.412482 -4.424603
-11.728625 8.860984 -6.268498
-11.984156 7.990464 -8.080889
-12.235848 6.796254 -9.812563
-12.474964 5.273681 -11.414306
-12.692763 3.418076 -12.836906
-12.880507 1.224768 -14.031149
-12.998737 -1.251979 -14.869699
-12.880322 -3.647994 -14.902368
-12.552036 -5.870086 -14.174972
-12.074250 -7.882305 -12.818981
-11.507337 -9.648702 -10.965867
-10.911666 -11.133327 -8.747097
-10.347610 -12.300233 -6.294144
-9.875538 -13.113468 -3.738470
-9.555825 -13.537084 -1.211556
-9.425535 -13.516520 1.152039
-9.378057 -12.952448 3.250953
-9.381069 -11.913691 5.075093
-9.422540 -10.493044 6.622873
-9.490436 -8.783303 7.892708
-9.572724 -6.877266 8.883016
-9.657372 -4.867728 9.592210
-9.732347 -2.847484 10.018705
-9.785617 -0.909331 10.160919
-9.814537 0.862219 10.013769
-9.866611 2.460267 9.568105
-9.947376 3.892791 8.853104
-10.053337 5.163507 7.902931
-10.180995 6.276129 6.751750
-10.326856 7.234375 5.433726
-10.487421 8.041960 3.983024
-10.659196 8.702599 2.433806
-10.838684 9.220006 0.820240
-12.574522 9.748783 -0.850418
-12.783813 9.749458 -2.596130
-13.008441 9.440556 -4.369671
-13.242983 8.823716 -6.132631
-13.482018 7.900579 -7.846601
-13.720122 6.672786 -9.473172
-13.951875 5.141976 -10.973934
-14.171854 3.309789 -12.310480
-14.374637 1.177866 -13.444398
-14.520708 -1.205191 -14.260998
-14.425245 -3.540371 -14.322824
-14.113024 -5.739237 -13.665084
-13.645707 -7.758583 -12.405779
-13.084958 -9.555203 -10.662914
-12.492440 -11.085892 -8.554494
-11.929817 -12.307443 -6.198524
-11.458752 -13.176649 -3.713005
-11.140907 -13.650306 -1.215945
-11.013740 -13.664797 1.165322
-10.965769 -13.108215 3.297462
-10.963182 -12.054341 5.157040
-10.993277 -10.603334 6.734467
-11.043348 -8.855357 8.020154
-11.100694 -6.910572 9.004515
-11.152610 -4.869140 9.677960
-11.186394 -2.831221 10.030902
-11.189342 -0.896979 10.053752
-11.164074 0.851264 9.752763
-11.190676 2.455324 9.222831
-11.273955 3.922193 8.494376
-11.403497 5.244906 7.583030
-11.568881 6.416500 6.504426
-11.759689 7.430010 5.274194
-11.965504 8.278473 3.907967
-12.175906 8.954923 2.421376
-12.380478 9.452397 0.830052
-14.078947 9.909235 -0.860702
-14.281569 9.838379 -2.591472
-14.492171 9.454531 -4.310583
-14.708553 8.767387 -5.989053
-14.928521 7.786645 -7.597904
-15.149878 6.522001 -9.108153
-15.370427 4.983151 -10.490824
-15.587972 3.179794 -11.716935
-15.800316 1.121624 -12.757506
-15.969613 -1.149601 -13.514335
-15.903172 -3.415673 -13.590751
-15.622964 -5.593593 -13.010315
-15.189212 -7.630629 -11.871099
-14.662136 -9.474050 -10.271179
-14.101959 -11.071123 -8.308632
-13.568903 -12.369117 -6.081531
-13.123188 -13.315297 -3.687945
-12.825040 -13.856936 -1.225959
-12.710035 -13.918695 1.187567
-12.663372 -13.372957 3.371524
-12.651186 -12.299544 5.284956
-12.661236 -10.807631 6.908997
-12.681278 -9.006388 8.224784
-12.699073 -7.004989 9.213451
-12.702378 -4.912606 9.856135
-12.678951 -2.838411 10.133968
-12.616550 -0.891577 10.028089
-12.524027 0.845766 9.556322
-12.513750 2.461610 8.925951
-12.589629 3.963051 8.170119
-12.734265 5.334023 7.285943
-12.930261 6.558459 6.270540
-13.160216 7.620294 5.121028
-13.406734 8.503459 3.834524
-13.652416 9.191889 2.408142
-13.879865 9.669517 0.839004
-15.508871 9.967612 -0.862592
-15.704862 9.833927 -2.566131
-15.902402 9.384910 -4.223096
-16.102106 8.638225 -5.812230
-16.304590 7.611535 -7.312277
-16.510471 6.322506 -8.701979
-16.720362 4.788805 -9.960081
-16.934879 3.028088 -11.065324
-17.154638 1.058030 -11.996453
-17.345173 -1.088060 -12.673611
-17.317291 -3.281094 -12.759521
-17.089384 -5.443063 -12.265296
-16.717226 -7.509665 -11.264610
-16.256590 -9.416601 -9.831130
-15.763250 -11.099571 -8.038531
-15.292979 -12.494273 -5.960476
-14.901552 -13.536411 -3.670648
-14.644738 -14.161679 -1.242702
-14.553449 -14.280643 1.218301
-14.509618 -13.747234 3.467806
-14.481223 -12.648454 5.445183
-14.458376 -11.104116 7.123110
-14.431184 -9.234035 8.474268
-14.389756 -7.158019 9.471336
-14.324202 -4.995884 10.086992
-14.224630 -2.867439 10.293921
-14.081151 -0.892500 10.064795
-13.909612 0.844251 9.428031
-13.849443 2.470445 8.694064
-13.903420 3.995123 7.899870
-14.048008 5.396268 7.027067
-14.259675 6.651869 6.057270
-14.514885 7.739910 4.972099
-14.790106 8.638375 3.753165
-15.061805 9.325253 2.382095
-15.306446 9.778529 0.840494
-16.833488 9.833081 -0.848674
-17.024269 9.653640 -2.501794
-17.212347 9.162194 -4.082969
-17.400408 8.382453 -5.576629
-17.591148 7.338122 -6.967202
-17.787254 6.052911 -8.239120
-17.991421 4.550525 -9.376807
-18.206339 2.854677 -10.364699
-18.434698 0.989066 -11.187222
-18.647112 -1.023423 -11.782722
-18.670790 -3.143831 -11.882502
-18.519808 -5.297555 -11.484658
-18.242210 -7.406911 -10.635975
-17.886040 -9.394216 -9.383232
-17.499342 -11.181785 -7.773210
-17.130161 -12.691936 -5.852694
-16.826542 -13.846985 -3.668453
-16.636524 -14.569247 -1.267282
-16.583006 -14.753069 1.257050
-16.543257 -14.231609 3.580979
-16.489437 -13.100224 5.624067
-16.416656 -11.490978 7.353454
-16.320021 -9.535936 8.736278
-16.194633 -7.367166 9.739678
-16.035606 -5.116730 10.330798
-15.838041 -2.916694 10.476769
-15.597048 -0.899125 10.144741
-15.336042 0.845244 9.371470
-15.211360 2.473152 8.543763
-15.224350 3.998166 7.703163
-15.347091 5.397056 6.821797
-15.551662 6.646591 5.871793
-15.810142 7.723543 4.825275
-16.094610 8.604682 3.654376
-16.377144 9.266773 2.331209
-16.629824 9.686595 0.827914
-18.021988 9.414802 -0.811530
-18.210373 9.215051 -2.380146
-18.395218 8.716886 -3.865958
-18.580227 7.946297 -5.256712
-18.769114 6.929277 -6.540159
-18.965584 5.691820 -7.704042
-19.173347 4.259912 -8.736113
-19.396112 2.659551 -9.624112
-19.637590 0.916728 -10.355794
-19.875147 -0.958542 -10.885571
-19.966858 -3.011079 -11.013069
-19.921764 -5.166980 -10.723036
-19.776628 -7.333589 -10.034867
-19.568209 -9.418252 -8.967955
-19.333267 -11.328314 -7.541696
-19.108564 -12.971120 -5.775489
-18.930861 -14.254016 -3.688724
-18.836916 -15.084347 -1.300796
-18.837732 -15.338398 1.303339
-18.803040 -14.826647 3.705710
-18.711973 -13.654009 5.807951
-18.568039 -11.966399 7.576673
-18.374744 -9.909734 8.978483
-18.135601 -7.629929 9.979990
-17.854116 -5.272900 10.547806
-17.533796 -2.984560 10.648536
-17.178150 -0.910827 10.248786
-16.818535 0.847271 9.390223
-16.613108 2.461050 8.491645
-16.561441 3.951937 7.599535
-16.633881 5.301795 6.685536
-16.800764 6.492488 5.721287
-17.032434 7.505879 4.678433
-17.299236 8.323833 3.528616
-17.571512 8.928210 2.243479
-17.819601 9.300874 0.794654
3 0 1 2
3 0 2 3
3 0 3 4
3 0 4 5
3 0 5 6
3 0 6 7
3 0 7 8
3 0 8 9
3 0 9 10
3 0 10 11
3 0 11 12
3 0 12 13
3 0 13 14
3 0 14 15
3 0 15 16
3 0 16 17
3 0 17 18
3 0 18 19
3 0 19 20
3 0 20 21
3 0 21 22
3 0 22 23
3 0 23 24
3 0 24 25
3 0 25 26
3 0 26 27
3 0 27 28
3 0 28 29
3 0 29 30
3 0 30 31
3 0 31 32
3 0 32 33
3 0 33 34
3 0 34 35
3 0 35 36
3 0 36 1
3 1 37 38
3 1 38 2
3 2 38 39
3 2 39 3
3 3 39 40
3 3 40 4
3 4 40 41
3 4 41 5
3 5 41 42
3 5 42 6
3 6 42 43
3 6 43 7
3 7 43 44
3 7 44 8
3 8 44 45
3 8 45 9
3 9 45 46
3 9 46 10
3 10 46 47
3 10 47 11
3 11 47 48
3 11 48 12
3 12 48 49
3 12 49 13
3 13 49 50
3 13 50 14
3 14 50 51
3 14 51 15
3 15 51 52
3 15 52 16
3 16 52 53
3 16 53 17
3 17 53 54
3 17 54 18
3 18 54 55
3 18 55 19
3 19 55 56
3 19 56 20
3 20 56 57
3 20 57 21
3 21 57 58
3 21 58 22
3 22 58 59
3 22 59 23
3 23 59 60
3 23 60 24
3 24 60 61
3 24 61 25
3 25 61 62
3 25 62 26
3 26 62 63
3 26 63 27
3 27 63 64
3 27 64 28
3 28 64 65
3 28 65 29
3 29 65 66
3 29 66 30
3 30 66 67
3 30 67 31
3 31 67 68
3 31 68 32
3 32 68 69
3 32 69 33
3 33 69 70
3 33 70 34
3 34 70 71
3 34 71 35
3 35 71 72
3 35 72 36
3 36 72 37
3 36 37 1
3 37 73 74
3 37 74 38
3 38 74 75
3 38 75 39
3 39 75 76
3 39 76 40
3 40 76 77
3 40 77 41
3 41 77 78
3 41 78 42
3 42 78 79
3 42 79 43
3 43 79 80
3 43 80 44
3 44 80 81
3 44 81 45
3 45 81 82
3 45 82 46
3 46 82 83
3 46 83 47
3 47 83 84
3 47 84 48
3 48 84 85
3 48 85 49
3 49 85 86
3 49 86 50
3 50 86 87
3 50 87 51
3 51 87 88
3 51 88 52
3 52 88 89
3 52 89 53
3 53 89 90
3 53 90 54
3 54 90 91
3 54 91 55
3 55 91 92
3 55 92 56
3 56 92 93
3 56 93 57
3 57 93 94
3 57 94 58
3 58 94 95
3 58 95 59
3 59 95 96
3 59 96 60
3 60 96 97
3 60 97 61
3 61 97 98
3 61 98 62
3 62 98 99
3 62 99 63
3 63 99 100
3 63 100 64
3 64 100 101
3 64 101 65
3 65 101 102
3 65 102 66
3 66 102 103
3 66 103 67
3 67 103 104
3 67 104 68
3 68 104 105
3 68 105 69
3 69 105 106
3 69 106 70
3 70 106 107
3 70 107 71
3 71 107 108
3 71 108 72
3 72 108 73
3 72 73 37
3 73 109 110
3 73 110 74
3 74 110 111
3 74 111 75
3 75 111 112
3 75 112 76
3 76 112 113
3 76 113 77
3 77 113 114
3 77 114 78
3 78 114 115
3 78 115 79
3 79 115 116
3 79 116 80
3 80 116 117
3 80 117 81
3 81 117 118
3 81 118 82
3 82 118 119
3 82 119 83
3 83 119 120
3 83 120 84
3 84 120 121
3 84 121 85
3 85 121 122
3 85 122 86
3 86 122 123
3 86 123 87
3 87 123 124
3 87 124 88
3 88 124 125
3 88 125 89
3 89 125 126
3 89 126 90
3 90 126 127
3 90 127 91
3 91 127 128
3 91 128 92
3 92 128 129
3 92 129 93
3 93 129 130
3 93 130 94
3 94 130 131
3 94 131 95
3 95 131 132
3 95 132 96
3 96 132 133
3 96 133 97
3 97 133 134
3 97 134 98
3 98 134 135
3 98 135 99
3 99 135 136
3 99 136 100
3 100 136 137
3 100 137 101
3 101 137 138
3 101 138 102
3 102 138 139
3 102 139 103
3 103 139 140
3 103 140 104
3 104 140 141
3 104 141 105
3 105 141 142
3 105 142 106
3 106 142 143
3 106 143 107
3 107 143 144
3 107 144 108
3 108 144 109
3 108 109 73
3 109 145 146
3 109 146 110
3 110 146 147
3 110 147 111
3 111 147 148
3 111 148 112
3 112 148 149
3 112 149 113
3 113 149 150
3 113 150 114
3 114 150 151
3 114 151 115
3 115 151 152
3 115 152 116
3 116 152 153
3 116 153 117
3 117 153 154
3 117 154 118
3 118 154 155
3 118 155 119
3 119 155 156
3 119 156 120
3 120 156 157
3 120 157 121
3 121 157 158
3 121 158 122
3 122 158 159
3 122 159 123
3 123 159 160
3 123 160 124
3 124 160 161
3 124 161 125
3 125 161 162
3 125 162 126
3 126 162 163
3 126 163 127
3 127 163 164
3 127 164 128
3 128 164 165
3 128 165 129
3 129 165 166
3 129 166 130
3 130 166 167
3 130 167 131
3 131 167 168
3 131 168 132
3 132 168 169
3 132 169 133
3 133 169 170
3 133 170 134
3 134 170 171
3 134 171 135
3 135 171 172
3 135 172 136
3 136 172 173
3 136 173 137
3 137 173 174
3 137 174 138
3 138 174 175
3 138 175 139
3 139 175 176
3 139 176 140
3 140 176 177
3 140 177 141
3 141 177 178
3 141 178 142
3 142 178 179
3 142 179 143
3 143 179 180
3 143 180 144
3 144 180 145
3 144 145 109
3 145 181 182
3 145 182 146
3 146 182 183
3 146 183 147
3 147 183 184
3 147 184 148
3 148 184 185
3 148 185 149
3 149 185 186
3 149 186 150
3 150 186 187
3 150 187 151
3 151 187 188
3 151 188 152
3 152 188 189
3 152 189 153
3 153 189 190
3 153 190 154
3 154 190 191
3 154 191 155
3 155 191 192
3 155 192 156
3 156 192 193
3 156 193 157
3 157 193 194
3 157 194 158
3 158 194 195
3 158 195 159
3 159 195 196
3 159 196 160
3 160 196 197
3 160 197 161
3 161 197 198
3 161 198 162
3 162 198 199
3 162 199 163
3 163 199 200
3 163 200 164
3 164 200 201
3 164 201 165
3 165 201 202
3 165 202 166
3 166 202 203
3 166 203 167
3 167 203 204
3 167 204 168
3 168 204 205
3 168 205 169
3 169 205 206
3 169 206 170
3 170 206 207
3 170 207 171
3 171 207 208
3 171 208 172
3 172 208 209
3 172 209 173
3 173 209 210
3 173 210 174
3 174 210 211
3 174 211 175
3 175 211 212
3 175 212 176
3 176 212 213
3 176 213 177
3 177 213 214
3 177 214 178
3 178 214 215
3 178 215 179
3 179 215 216
3 179 216 180
3 180 216 181
3 180 181 145
3 181 217 218
3 181 218 182
3 182 218 219
3 182 219 183
3 183 219 220
3 183 220 184
3 184 220 221
3 184 221 185
3 185 221 222
3 185 222 186
3 186 222 223
3 186 223 187
3 187 223 224
3 187 224 188
3 188 224 225
3 188 225 189
3 189 225 226
3 189 226 190
3 190 226 227
3 190 227 191
3 191 227 228
3 191 228 192
3 192 228 229
3 192 229 193
3 193 229 230
3 193 230 194
3 194 230 231
3 194 231 195
3 195 231 232
3 195 232 196
3 196 232 233
3 196 233 197
3 197 233 234
3 197 234 198
3 198 234 235
3 198 235 199
3 199 235 236
3 199 236 200
3 200 236 237
3 200 237 201
3 201 237 238
3 201 238 202
3 202 238 239
3 202 239 203
3 203 239 240
3 203 240 204
3 204 240 241
3 204 241 205
3 205 241 242
3 205 242 206
3 206 242 243
3 206 243 207
3 207 243 244
3 207 244 208
3 208 244 245
3 208 245 209
3 209 245 246
3 209 246 210
3 210 246 247
3 210 247 211
3 211 247 248
3 211 248 212
3 212 248 249
3 212 249 213
3 213 249 250
3 213 250 214
3 214 250 251
3 214 251 215
3 215 251 252
3 215 252 216
3 216 252 217
3 216 217 181
3 217 253 254
3 217 254 218
3 218 254 255
3 218 255 219
3 219 255 256
3 219 256 220
3 220 256 257
3 220 257 221
3 221 257 258
3 221 258 222
3 222 258 259
3 222 259 223
3 223 259 260
3 223 260 224
3 224 260 261
3 224 261 225
3 225 261 262
3 225 262 226
3 226 262 263
3 226 263 227
3 227 263 264
3 227 264 228
3 228 264 265
3 228 265 229
3 229 265 266
3 229 266 230
3 230 266 267
3 230 267 231
3 231 267 268
3 231 268 232
3 232 268 269
3 232 269 233
3 233 269 270
3 233 270 234
3 234 270 271
3 234 271 235
3 235 271 272
3 235 272 236
3 236 272 273
3 236 273 237
3 237 273 274
3 237 274 238
3 238 274 275
3 238 275 239
3 239 275 276
3 239 276 240
3 240 276 277
3 240 277 241
3 241 277 278
3 241 278 242
3 242 278 279
3 242 279 243
3 243 279 280
3 243 280 244
3 244 280 281
3 244 281 245
3 245 281 282
3 245 282 246
3 246 282 283
3 246 283 247
3 247 283 284
3 247 284 248
3 248 284 285
3 248 285 249
3 249 285 286
3 249 286 250
3 250 286 287
3 250 287 251
3 251 287 288
3 251 288 252
3 252 288 253
3 252 253 217
3 253 289 290
3 253 290 254
3 254 290 291
3 254 291 255
3 255 291 292
3 255 292 256
3 256 292 293
3 256 293 257
3 257 293 294
3 257 294 258
3 258 294 295
3 258 295 259
3 259 295 296
3 259 296 260
3 260 296 297
3 260 297 261
3 261 297 298
3 261 298 262
3 262 298 299
3 262 299 263
3 263 299 300
3 263 300 264
3 264 300 301
3 264 301 265
3 265 301 302
3 265 302 266
3 266 302 303
3 266 303 267
3 267 303 304
3 267 304 268
3 268 304 305
3 268 305 269
3 269 305 306
3 269 306 270
3 270 306 307
3 270 307 271
3 271 307 308
3 271 308 272
3 272 308 309
3 272 309 273
3 273 309 310
3 273 310 274
3 274 310 311
3 274 311 275
3 275 311 312
3 275 312 276
3 276 312 313
3 276 313 277
3 277 313 314
3 277 314 278
3 278 314 315
3 278 315 279
3 279 315 316
3 279 316 280
3 280 316 317
3 280 317 281
3 281 317 318
3 281 318 282
3 282 318 319
3 282 319 283
3 283 319 320
3 283 320 284
3 284 320 321
3 284 321 285
3 285 321 322
3 285 322 286
3 286 322 323
3 286 323 287
3 287 323 324
3 287 324 288
3 288 324 289
3 288 289 253
3 289 325 326
3 289 326 290
3 290 326 327
3 290 327 291
3 291 327 328
3 291 328 292
3 292 328 329
3 292 329 293
3 293 329 330
3 293 330 294
3 294 330 331
3 294 331 295
3 295 331 332
3 295 332 296
3 296 332 333
3 296 333 297
3 297 333 334
3 297 334 298
3 298 334 335
3 298 335 299
3 299 335 336
3 299 336 300
3 300 336 337
3 300 337 301
3 301 337 338
3 301 338 302
3 302 338 339
3 302 339 303
3 303 339 340
3 303 340 304
3 304 340 341
3 304 341 305
3 305 341 342
3 305 342 306
3 306 342 343
3 306 343 307
3 307 343 344
3 307 344 308
3 308 344 345
3 308 345 309
3 309 345 346
3 309 346 310
3 310 346 347
3 310 347 311
3 311 347 348
3 311 348 312
3 312 348 349
3 312 349 313
3 313 349 350
3 313 350 314
3 314 350 351
3 314 351 315
3 315 351 352
3 315 352 316
3 316 352 353
3 316 353 317
3 317 353 354
3 317 354 318
3 318 354 355
3 318 355 319
3 319 355 356
3 319 356 320
3 320 356 357
3 320 357 321
3 321 357 358
3 321 358 322
3 322 358 359
3 322 359 323
3 323 359 360
3 323 360 324
3 324 360 325
3 324 325 289
3 325 361 362
3 325 362 326
3 326 362 363
3 326 363 327
3 327 363 364
3 327 364 328
3 328 364 365
3 328 365 329
3 329 365 366
3 329 366 330
3 330 366 367
3 330 367 331
3 331 367 368
3 331 368 332
3 332 368 369
3 332 369 333
3 333 369 370
3 333 370 334
3 334 370 371
3 334 371 335
3 335 371 372
3 335 372 336
3 336 372 373
3 336 373 337
3 337 373 374
3 337 374 338
3 338 374 375
3 338 375 339
3 339 375 376
3 339 376 340
3 340 376 377
3 340 377 341
3 341 377 378
3 341 378 342
3 342 378 379
3 342 379 343
3 343 379 380
3 343 380 344
3 344 380 381
3 344 381 345
3 345 381 382
3 345 382 346
3 346 382 383
3 346 383 347
3 347 383 384
3 347 384 348
3 348 384 385
3 348 385 349
3 349 385 386
3 349 386 350
3 350 386 387
3 350 387 351
3 351 387 388
3 351 388 352
3 352 388 389
3 352 389 353
3 353 389 390
3 353 390 354
3 354 390 391
3 354 391 355
3 355 391 392
3 355 392 356
3 356 392 393
3 356 393 357
3 357 393 394
3 357 394 358
3 358 394 395
3 358 395 359
3 359 395 396
3 359 396 360
3 360 396 361
3 360 361 325
3 361 397 398
3 361 398 362
3 362 398 399
3 362 399 363
3 363 399 400
3 363 400 364
3 364 400 401
3 364 401 365
3 365 401 402
3 365 402 366
3 366 402 403
3 366 403 367
3 367 403 404
3 367 404 368
3 368 404 405
3 368 405 369
3 369 405 406
3 369 406 370
3 370 406 407
3 370 407 371
3 371 407 408
3 371 408 372
3 372 408 409
3 372 409 373
3 373 409 410
3 373 410 374
3 374 410 411
3 374 411 375
3 375 411 412
3 375 412 376
3 376 412 413
3 376 413 377
3 377 413 414
3 377 414 378
3 378 414 415
3 378 415 379
3 379 415 416
3 379 416 380
3 380 416 417
3 380 417 381
3 381 417 418
3 381 418 382
3 382 418 419
3 382 419 383
3 383 419 420
3 383 420 384
3 384 420 421
3 384 421 385
3 385 421 422
3 385 422 386
3 386 422 423
3 386 423 387
3 387 423 424
3 387 424 388
3 388 424 425
3 388 425 389
3 389 425 426
3 389 426 390
3 390 426 427
3 390 427 391
3 391 427 428
3 391 428 392
3 392 428 429
3 392 429 393
3 393 429 430
3 393 430 394
3 394 430 431
3 394 431 395
3 395 431 432
3 395 432 396
3 396 432 397
3 396 397 361
3 397 433 434
3 397 434 398
3 398 434 435
3 398 435 399
3 399 435 436
3 399 436 400
3 400 436 437
3 400 437 401
3 401 437 438
3 401 438 402
3 402 438 439
3 402 439 403
3 403 439 440
3 403 440 404
3 404 440 441
3 404 441 405
3 405 441 442
3 405 442 406
3 406 442 443
3 406 443 407
3 407 443 444
3 407 444 408
3 408 444 445
3 408 445 409
3 409 445 446
3 409 446 410
3 410 446 447
3 410 447 411
3 411 447 448
3 411 448 412
3 412 448 449
3 412 449 413
3 413 449 450
3 413 450 414
3 414 450 451
3 414 451 415
3 415 451 452
3 415 452 416
3 416 452 453
3 416 453 417
3 417 453 454
3 417 454 418
3 418 454 455
3 418 455 419
3 419 455 456
3 419 456 420
3 420 456 457
3 420 457 421
3 421 457 458
3 421 458 422
3 422 458 459
3 422 459 423
3 423 459 460
3 423 460 424
3 424 460 461
3 424 461 425
3 425 461 462
3 425 462 426
3 426 462 463
3 426 463 427
3 427 463 464
3 427 464 428
3 428 464 465
3 428 465 429
3 429 465 466
3 429 466 430
3 430 466 467
3 430 467 431
3 431 467 468
3 431 468 432
3 432 468 433
3 432 433 397
3 433 469 470
3 433 470 434
3 434 470 471
3 434 471 435
3 435 471 472
3 435 472 436
3 436 472 473
3 436 473 437
3 437 473 474
3 437 474 438
3 438 474 475
3 438 475 439
3 439 475 476
3 439 476 440
3 440 476 477
3 440 477 441
3 441 477 478
3 441 478 442
3 442 478 479
3 442 479 443
3 443 479 480
3 443 480 444
3 444 480 481
3 444 481 445
3 445 481 482
3 445 482 446
3 446 482 483
3 446 483 447
3 447 483 484
3 447 484 448
3 448 484 485
3 448 485 449
3 449 485 486
3 449 486 450
3 450 486 487
3 450 487 451
3 451 487 488
3 451 488 452
3 452 488 489
3 452 489 453
3 453 489 490
3 453 490 454
3 454 490 491
3 454 491 455
3 455 491 492
3 455 492 456
3 456 492 493
3 456 493 457
3 457 493 494
3 457 494 458
3 458 494 495
3 458 495 459
3 459 495 496
3 459 496 460
3 460 496 497
3 460 497 461
3 461 497 498
3 461 498 462
3 462 498 499
3 462 499 463
3 463 499 500
3 463 500 464
3 464 500 501
3 464 501 465
3 465 501 502
3 465 502 466
3 466 502 503
3 466 503 467
3 467 503 504
3 467 504 468
3 468 504 469
3 468 469 433
3 469 505 506
3 469 506 470
3 470 506 507
3 470 507 471
3 471 507 508
3 471 508 472
3 472 508 509
3 472 509 473
3 473 509 510
3 473 510 474
3 474 510 511
3 474 511 475
3 475 511 512
3 475 512 476
3 476 512 513
3 476 513 477
3 477 513 514
3 477 514 478
3 478 514 515
3 478 515 479
3 479 515 516
3 479 516 480
3 480 516 517
3 480 517 481
3 481 517 518
3 481 518 482
3 482 518 519
3 482 519 483
3 483 519 520
3 483 520 484
3 484 520 521
3 484 521 485
3 485 521 522
3 485 522 486
3 486 522 523
3 486 523 487
3 487 523 524
3 487 524 488
3 488 524 525
3 488 525 489
3 489 525 526
3 489 526 490
3 490 526 527
3 490 527 491
3 491 527 528
3 491 528 492
3 492 528 529
3 492 529 493
3 493 529 530
3 493 530 494
3 494 530 531
3 494 531 495
3 495 531 532
3 495 532 496
3 496 532 533
3 496 533 497
3 497 533 534
3 497 534 498
3 498 534 535
3 498 535 499
3 499 535 536
3 499 536 500
3 500 536 537
3 500 537 501
3 501 537 538
3 501 538 502
3 502 538 539
3 502 539 503
3 503 539 540
3 503 540 504
3 504 540 505
3 504 505 469
3 505 541 542
3 505 542 506
3 506 542 543
3 506 543 507
3 507 543 544
3 507 544 508
3 508 544 545
3 508 545 509
3 509 545 546
3 509 546 510
3 510 546 547
3 510 547 511
3 511 547 548
3 511 548 512
3 512 548 549
3 512 549 513
3 513 549 550
3 513 550 514
3 514 550 551
3 514 551 515
3 515 551 552
3 515 552 516
3 516 552 553
3 516 553 517
3 517 553 554
3 517 554 518
3 518 554 555
3 518 555 519
3 519 555 556
3 519 556 520
3 520 556 557
3 520 557 521
3 521 557 558
3 521 558 522
3 522 558 559
3 522 559 523
3 523 559 560
3 523 560 524
3 524 560 561
3 524 561 525
3 525 561 562
3 525 562 526
3 526 562 563
3 526 563 527
3 527 563 564
3 527 564 528
3 528 564 565
3 528 565 529
3 529 565 566
3 529 566 530
3 530 566 567
3 530 567 531
3 531 567 568
3 531 568 532
3 532 568 569
3 532 569 533
3 533 569 570
3 533 570 534
3 534 570 571
3 534 571 535
3 535 571 572
3 535 572 536
3 536 572 573
3 536 573 537
3 537 573 574
3 537 574 538
3 538 574 575
3 538 575 539
3 539 575 576
3 539 576 540
3 540 576 541
3 540 541 505
3 541 577 578
3 541 578 542
3 542 578 579
3 542 579 543
3 543 579 580
3 543 580 544
3 544 580 581
3 544 581 545
3 545 581 582
3 545 582 546
3 546 582 583
3 546 583 547
3 547 583 584
3 547 584 548
3 548 584 585
3 548 585 549
3 549 585 586
3 549 586 550
3 550 586 587
3 550 587 551
3 551 587 588
3 551 588 552
3 552 588 589
3 552 589 553
3 553 589 590
3 553 590 554
3 554 590 591
3 554 591 555
3 555 591 592
3 555 592 556
3 556 592 593
3 556 593 557
3 557 593 594
3 557 594 558
3 558 594 595
3 558 595 559
3 559 595 596
3 559 596 560
3 560 596 597
3 560 597 561
3 561 597 598
3 561 598 562
3 562 598 599
3 562 599 563
3 563 599 600
3 563 600 564
3 564 600 601
3 564 601 565
3 565 601 602
3 565 602 566
3 566 602 603
3 566 603 567
3 567 603 604
3 567 604 568
3 568 604 605
3 568 605 569
3 569 605 606
3 569 606 570
3 570 606 607
3 570 607 571
3 571 607 608
3 571 608 572
3 572 608 609
3 572 609 573
3 573 609 610
3 573 610 574
3 574 610 611
3 574 611 575
3 575 611 612
3 575 612 576
3 576 612 577
3 576 577 541
3 577 613 614
3 577 614 578
3 578 614 615
3 578 615 579
3 579 615 616
3 579 616 580
3 580 616 617
3 580 617 581
3 581 617 618
3 581 618 582
3 582 618 619
3 582 619 583
3 583 619 620
3 583 620 584
3 584 620 621
3 584 621 585
3 585 621 622
3 585 622 586
3 586 622 623
3 586 623 587
3 587 623 624
3 587 624 588
3 588 624 625
3 588 625 589
3 589 625 626
3 589 626 590
3 590 626 627
3 590 627 591
3 591 627 628
3 591 628 592
3 592 628 629
3 592 629 593
3 593 629 630
3 593 630 594
3 594 630 631
3 594 631 595
3 595 631 632
3 595 632 596
3 596 632 633
3 596 633 597
3 597 633 634
3 597 634 598
3 598 634 635
3 598 635 599
3 599 635 636
3 599 636 600
3 600 636 637
3 600 637 601
3 601 637 638
3 601 638 602
3 602 638 639
3 602 639 603
3 603 639 640
3 603 640 604
3 604 640 641
3 604 641 605
3 605 641 642
3 605 642 606
3 606 642 643
3 606 643 607
3 607 643 644
3 607 644 608
3 608 644 645
3 608 645 609
3 609 645 646
3 609 646 610
3 610 646 647
3 610 647 611
3 611 647 648
3 611 648 612
3 612 648 613
3 612 613 577
3 613 649 650
3 613 650 614
3 614 650 651
3 614 651 615
3 615 651 652
3 615 652 616
3 616 652 653
3 616 653 617
3 617 653 654
3 617 654 618
3 618 654 655
3 618 655 619
3 619 655 656
3 619 656 620
3 620 656 657
3 620 657 621
3 621 657 658
3 621 658 622
3 622 658 659
3 622 659 623
3 623 659 660
3 623 660 624
3 624 660 661
3 624 661 625
3 625 661 662
3 625 662 626
3 626 662 663
3 626 663 627
3 627 663 664
3 627 664 628
3 628 664 665
3 628 665 629
3 629 665 666
3 629 666 630
3 630 666 667
3 630 667 631
3 631 667 668
3 631 668 632
3 632 668 669
3 632 669 633
3 633 669 670
3 633 670 634
3 634 670 671
3 634 671 635
3 635 671 672
3 635 672 636
3 636 672 673
3 636 673 637
3 637 673 674
3 637 674 638
3 638 674 675
3 638 675 639
3 639 675 676
3 639 676 640
3 640 676 677
3 640 677 641
3 641 677 678
3 641 678 642
3 642 678 679
3 642 679 643
3 643 679 680
3 643 680 644
3 644 680 681
3 644 681 645
3 645 681 682
3 645 682 646
3 646 682 683
3 646 683 647
3 647 683 684
3 647 684 648
3 648 684 649
3 648 649 613
3 649 685 686
3 649 686 650
3 650 686 687
3 650 687 651
3 651 687 688
3 651 688 652
3 652 688 689
3 652 689 653
3 653 689 690
3 653 690 654
3 654 690 691
3 654 691 655
3 655 691 692
3 655 692 656
3 656 692 693
3 656 693 657
3 657 693 694
3 657 694 658
3 658 694 695
3 658 695 659
3 659 695 696
3 659 696 660
3 660 696 697
3 660 697 661
3 661 697 698
3 661 698 662
3 662 698 699
3 662 699 663
3 663 699 700
3 663 700 664
3 664 700 701
3 664 701 665
3 665 701 702
3 665 702 666
3 666 702 703
3 666 703 667
3 667 703 704
3 667 704 668
3 668 704 705
3 668 705 669
3 669 705 706
3 669 706 670
3 670 706 707
3 670 707 671
3 671 707 708
3 671 708 672
3 672 708 709
3 672 709 673
3 673 709 710
3 673 710 674
3 674 710 711
3 674 711 675
3 675 711 712
3 675 712 676
3 676 712 713
3 676 713 677
3 677 713 714
3 677 714 678
3 678 714 715
3 678 715 679
3 679 715 716
3 679 716 680
3 680 716 717
3 680 717 681
3 681 717 718
3 681 718 682
3 682 718 719
3 682 719 683
3 683 719 720
3 683 720 684
3 684 720 685
3 684 685 649
3 685 721 722
3 685 722 686
3 686 722 723
3 686 723 687
3 687 723 724
3 687 724 688
3 688 724 725
3 688 725 689
3 689 725 726
3 689 726 690
3 690 726 727
3 690 727 691
3 691 727 728
3 691 728 692
3 692 728 729
3 692 729 693
3 693 729 730
3 693 730 694
3 694 730 731
3 694 731 695
3 695 731 732
3 695 732 696
3 696 732 733
3 696 733 697
3 697 733 734
3 697 734 698
3 698 734 735
3 698 735 699
3 699 735 736
3 699 736 700
3 700 736 737
3 700 737 701
3 701 737 738
3 701 738 702
3 702 738 739
3 702 739 703
3 703 739 740
3 703 740 704
3 704 740 741
3 704 741 705
3 705 741 742
3 705 742 706
3 706 742 743
3 706 743 707
3 707 743 744
3 707 744 708
3 708 744 745
3 708 745 709
3 709 745 746
3 709 746 710
3 710 746 747
3 710 747 711
3 711 747 748
3 711 748 712
3 712 748 749
3 712 749 713
3 713 749 750
3 713 750 714
3 714 750 751
3 714 751 715
3 715 751 752
3 715 752 716
3 716 752 753
3 716 753 717
3 717 753 754
3 717 754 718
3 718 754 755
3 718 755 719
3 719 755 756
3 719 756 720
3 720 756 721
3 720 721 685
3 721 757 758
3 721 758 722
3 722 758 759
3 722 759 723
3 723 759 760
3 723 760 724
3 724 760 761
3 724 761 725
3 725 761 762
3 725 762 726
3 726 762 763
3 726 763 727
3 727 763 764
3 727 764 728
3 728 764 765
3 728 765 729
3 729 765 766
3 729 766 730
3 730 766 767
3 730 767 731
3 731 767 768
3 731 768 732
3 732 768 769
3 732 769 733
3 733 769 770
3 733 770 734
3 734 770 771
3 734 771 735
3 735 771 772
3 735 772 736
3 736 772 773
3 736 773 737
3 737 773 774
3 737 774 738
3 738 774 775
3 738 775 739
3 739 775 776
3 739 776 740
3 740 776 777
3 740 777 741
3 741 777 778
3 741 778 742
3 742 778 779
3 742 779 743
3 743 779 780
3 743 780 744
3 744 780 781
3 744 781 745
3 745 781 782
3 745 782 746
3 746 782 783
3 746 783 747
3 747 783 784
3 747 784 748
3 748 784 785
3 748 785 749
3 749 785 786
3 749 786 750
3 750 786 787
3 750 787 751
3 751 787 788
3 751 788 752
3 752 788 789
3 752 789 753
3 753 789 790
3 753 790 754
3 754 790 791
3 754 791 755
3 755 791 792
3 755 792 756
3 756 792 757
3 756 757 721
3 757 793 794
3 757 794 758
3 758 794 795
3 758 795 759
3 759 795 796
3 759 796 760
3 760 796 797
3 760 797 761
3 761 797 798
3 761 798 762
3 762 798 799
3 762 799 763
3 763 799 800
3 763 800 764
3 764 800 801
3 764 801 765
3 765 801 802
3 765 802 766
3 766 802 803
3 766 803 767
3 767 803 804
3 767 804 768
3 768 804 805
3 768 805 769
3 769 805 806
3 769 806 770
3 770 806 807
3 770 807 771
3 771 807 808
3 771 808 772
3 772 808 809
3 772 809 773
3 773 809 810
3 773 810 774
3 774 810 811
3 774 811 775
3 775 811 812
3 775 812 776
3 776 812 813
3 776 813 777
3 777 813 814
3 777 814 778
3 778 814 815
3 778 815 779
3 779 815 816
3 779 816 780
3 780 816 817
3 780 817 781
3 781 817 818
3 781 818 782
3 782 818 819
3 782 819 783
3 783 819 820
3 783 820 784
3 784 820 821
3 784 821 785
3 785 821 822
3 785 822 786
3 786 822 823
3 786 823 787
3 787 823 824
3 787 824 788
3 788 824 825
3 788 825 789
3 789 825 826
3 789 826 790
3 790 826 827
3 790 827 791
3 791 827 828
3 791 828 792
3 792 828 793
3 792 793 757
3 793 829 830
3 793 830 794
3 794 830 831
3 794 831 795
3 795 831 832
3 795 832 796
3 796 832 833
3 796 833 797
3 797 833 834
3 797 834 798
3 798 834 835
3 798 835 799
3 799 835 836
3 799 836 800
3 800 836 837
3 800 837 801
3 801 837 838
3 801 838 802
3 802 838 839
3 802 839 803
3 803 839 840
3 803 840 804
3 804 840 841
3 804 841 805
3 805 841 842
3 805 842 806
3 806 842 843
3 806 843 807
3 807 843 844
3 807 844 808
3 808 844 845
3 808 845 809
3 809 845 846
3 809 846 810
3 810 846 847
3 810 847 811
3 811 847 848
3 811 848 812
3 812 848 849
3 812 849 813
3 813 849 850
3 813 850 814
3 814 850 851
3 814 851 815
3 815 851 852
3 815 852 816
3 816 852 853
3 816 853 817
3 817 853 854
3 817 854 818
3 818 854 855
3 818 855 819
3 819 855 856
3 819 856 820
3 820 856 857
3 820 857 821
3 821 857 858
3 821 858 822
3 822 858 859
3 822 859 823
3 823 859 860
3 823 860 824
3 824 860 861
3 824 861 825
3 825 861 862
3 825 862 826
3 826 862 863
3 826 863 827
3 827 863 864
3 827 864 828
3 828 864 829
3 828 829 793
3 829 865 866
3 829 866 830
3 830 866 867
3 830 867 831
3 831 867 868
3 831 868 832
3 832 868 869
3 832 869 833
3 833 869 870
3 833 870 834
3 834 870 871
3 834 871 835
3 835 871 872
3 835 872 836
3 836 872 873
3 836 873 837
3 837 873 874
3 837 874 838
3 838 874 875
3 838 875 839
3 839 875 876
3 839 876 840
3 840 876 877
3 840 877 841
3 841 877 878
3 841 878 842
3 842 878 879
3 842 879 843
3 843 879 880
3 843 880 844
3 844 880 881
3 844 881 845
3 845 881 882
3 845 882 846
3 846 882 883
3 846 883 847
3 847 883 884
3 847 884 848
3 848 884 885
3 848 885 849
3 849 885 886
3 849 886 850
3 850 886 887
3 850 887 851
3 851 887 888
3 851 888 852
3 852 888 889
3 852 889 853
3 853 889 890
3 853 890 854
3 854 890 891
3 854 891 855
3 855 891 892
3 855 892 856
3 856 892 893
3 856 893 857
3 857 893 894
3 857 894 858
3 858 894 895
3 858 895 859
3 859 895 896
3 859 896 860
3 860 896 897
3 860 897 861
3 861 897 898
3 861 898 862
3 862 898 899
3 862 899 863
3 863 899 900
3 863 900 864
3 864 900 865
3 864 865 829
3 865 901 902
3 865 902 866
3 866 902 903
3 866 903 867
3 867 903 904
3 867 904 868
3 868 904 905
3 868 905 869
3 869 905 906
3 869 906 870
3 870 906 907
3 870 907 871
3 871 907 908
3 871 908 872
3 872 908 909
3 872 909 873
3 873 909 910
3 873 910 874
3 874 910 911
3 874 911 875
3 875 911 912
3 875 912 876
3 876 912 913
3 876 913 877
3 877 913 914
3 877 914 878
3 878 914 915
3 878 915 879
3 879 915 916
3 879 916 880
3 880 916 917
3 880 917 881
3 881 917 918
3 881 918 882
3 882 918 919
3 882 919 883
3 883 919 920
3 883 920 884
3 884 920 921
3 884 921 885
3 885 921 922
3 885 922 886
3 886 922 923
3 886 923 887
3 887 923 924
3 887 924 888
3 888 924 925
3 888 925 889
3 889 925 926
3 889 926 890
3 890 926 927
3 890 927 891
3 891 927 928
3 891 928 892
3 892 928 929
3 892 929 893
3 893 929 930
3 893 930 894
3 894 930 931
3 894 931 895
3 895 931 932
3 895 932 896
3 896 932 933
3 896 933 897
3 897 933 934
3 897 934 898
3 898 934 935
3 898 935 899
3 899 935 936
3 899 936 900
3 900 936 901
3 900 901 865
3 901 937 938
3 901 938 902
3 902 938 939
3 902 939 903
3 903 939 940
3 903 940 904
3 904 940 941
3 904 941 905
3 905 941 942
3 905 942 906
3 906 942 943
3 906 943 907
3 907 943 944
3 907 944 908
3 908 944 945
3 908 945 909
3 909 945 946
3 909 946 910
3 910 946 947
3 910 947 911
3 911 947 948
3 911 948 912
3 912 948 949
3 912 949 913
3 913 949 950
3 913 950 914
3 914 950 951
3 914 951 915
3 915 951 952
3 915 952 916
3 916 952 953
3 916 953 917
3 917 953 954
3 917 954 918
3 918 954 955
3 918 955 919
3 919 955 956
3 919 956 920
3 920 956 957
3 920 957 921
3 921 957 958
3 921 958 922
3 922 958 959
3 922 959 923
3 923 959 960
3 923 960 924
3 924 960 961
3 924 961 925
3 925 961 962
3 925 962 926
3 926 962 963
3 926 963 927
3 927 963 964
3 927 964 928
3 928 964 965
3 928 965 929
3 929 965 966
3 929 966 930
3 930 966 967
3 930 967 931
3 931 967 968
3 931 968 932
3 932 968 969
3 932 969 933
3 933 969 970
3 933 970 934
3 934 970 971
3 934 971 935
3 935 971 972
3 935 972 936
3 936 972 937
3 936 937 901
3 937 973 974
3 937 974 938
3 938 974 975
3 938 975 939
3 939 975 976
3 939 976 940
3 940 976 977
3 940 977 941
3 941 977 978
3 941 978 942
3 942 978 979
3 942 979 943
3 943 979 980
3 943 980 944
3 944 980 981
3 944 981 945
3 945 981 982
3 945 982 946
3 946 982 983
3 946 983 947
3 947 983 984
3 947 984 948
3 948 984 985
3 948 985 949
3 949 985 986
3 949 986 950
3 950 986 987
3 950 987 951
3 951 987 988
3 951 988 952
3 952 988 989
3 952 989 953
3 953 989 990
3 953 990 954
3 954 990 991
3 954 991 955
3 955 991 992
3 955 992 956
3 956 992 993
3 956 993 957
3 957 993 994
3 957 994 958
3 958 994 995
3 958 995 959
3 959 995 996
3 959 996 960
3 960 996 997
3 960 997 961
3 961 997 998
3 961 998 962
3 962 998 999
3 962 999 963
3 963 999 1000
3 963 1000 964
3 964 1000 1001
3 964 1001 965
3 965 1001 1002
3 965 1002 966
3 966 1002 1003
3 966 1003 967
3 967 1003 1004
3 967 1004 968
3 968 1004 1005
3 968 1005 969
3 969 1005 1006
3 969 1006 970
3 970 1006 1007
3 970 1007 971
3 971 1007 1008
3 971 1008 972
3 972 1008 973
3 972 973 937
3 973 1009 1010
3 973 1010 974
3 974 1010 1011
3 974 1011 975
3 975 1011 1012
3 975 1012 976
3 976 1012 1013
3 976 1013 977
3 977 1013 1014
3 977 1014 978
3 978 1014 1015
3 978 1015 979
3 979 1015 1016
3 979 1016 980
3 980 1016 1017
3 980 1017 981
3 981 1017 1018
3 981 1018 982
3 982 1018 1019
3 982 1019 983
3 983 1019 1020
3 983 1020 984
3 984 1020 1021
3 984 1021 985
3 985 1021 1022
3 985 1022 986
3 986 1022 1023
3 986 1023 987
3 987 1023 1024
3 987 1024 988
3 988 1024 1025
3 988 1025 989
3 989 1025 1026
3 989 1026 990
3 990 1026 1027
3 990 1027 991
3 991 1027 1028
3 991 1028 992
3 992 1028 1029
3 992 1029 993
3 993 1029 1030
3 993 1030 994
3 994 1030 1031
3 994 1031 995
3 995 1031 1032
3 995 1032 996
3 996 1032 1033
3 996 1033 997
3 997 1033 1034
3 997 1034 998
3 998 1034 1035
3 998 1035 999
3 999 1035 1036
3 999 1036 1000
3 1000 1036 1037
3 1000 1037 1001
3 1001 1037 1038
3 1001 1038 1002
3 1002 1038 1039
3 1002 1039 1003
3 1003 1039 1040
3 1003 1040 1004
3 1004 1040 1041
3 1004 1041 1005
3 1005 1041 1042
3 1005 1042 1006
3 1006 1042 1043
3 1006 1043 1007
3 1007 1043 1044
3 1007 1044 1008
3 1008 1044 1009
3 1008 1009 973
3 1009 1045 1046
3 1009 1046 1010
3 1010 1046 1047
3 1010 1047 1011
3 1011 1047 1048
3 1011 1048 1012
3 1012 1048 1049
3 1012 1049 1013
3 1013 1049 1050
3 1013 1050 1014
3 1014 1050 1051
3 1014 1051 1015
3 1015 1051 1052
3 1015 1052 1016
3 1016 1052 1053
3 1016 1053 1017
3 1017 1053 1054
3 1017 1054 1018
3 1018 1054 1055
3 1018 1055 1019
3 1019 1055 1056
3 1019 1056 1020
3 1020 1056 1057
3 1020 1057 1021
3 1021 1057 1058
3 1021 1058 1022
3 1022 1058 1059
3 1022 1059 1023
3 1023 1059 1060
3 1023 1060 1024
3 1024 1060 1061
3 1024 1061 1025
3 1025 1061 1062
3 1025 1062 1026
3 1026 1062 1063
3 1026 1063 1027
3 1027 1063 1064
3 1027 1064 1028
3 1028 1064 1065
3 1028 1065 1029
3 1029 1065 1066
3 1029 1066 1030
3 1030 1066 1067
3 1030 1067 1031
3 1031 1067 1068
3 1031 1068 1032
3 1032 1068 1069
3 1032 1069 1033
3 1033 1069 1070
3 1033 1070 1034
3 1034 1070 1071
3 1034 1071 1035
3 1035 1071 1072
3 1035 1072 1036
3 1036 1072 1073
3 1036 1073 1037
3 1037 1073 1074
3 1037 1074 1038
3 1038 1074 1075
3 1038 1075 1039
3 1039 1075 1076
3 1039 1076 1040
3 1040 1076 1077
3 1040 1077 1041
3 1041 1077 1078
3 1041 1078 1042
3 1042 1078 1079
3 1042 1079 1043
3 1043 1079 1080
3 1043 1080 1044
3 1044 1080 1045
3 1044 1045 1009
3 1045 1081 1082
3 1045 1082 1046
3 1046 1082 1083
3 1046 1083 1047
3 1047 1083 1084
3 1047 1084 1048
3 1048 1084 1085
3 1048 1085 1049
3 1049 1085 1086
3 1049 1086 1050
3 1050 1086 1087
3 1050 1087 1051
3 1051 1087 1088
3 1051 1088 1052
3 1052 1088 1089
3 1052 1089 1053
3 1053 1089 1090
3 1053 1090 1054
3 1054 1090 1091
3 1054 1091 1055
3 1055 1091 1092
3 1055 1092 1056
3 1056 1092 1093
3 1056 1093 1057
3 1057 1093 1094
3 1057 1094 1058
3 1058 1094 1095
3 1058 1095 1059
3 1059 1095 1096
3 1059 1096 1060
3 1060 1096 1097
3 1060 1097 1061
3 1061 1097 1098
3 1061 1098 1062
3 1062 1098 1099
3 1062 1099 1063
3 1063 1099 1100
3 1063 1100 1064
3 1064 1100 1101
3 1064 1101 1065
3 1065 1101 1102
3 1065 1102 1066
3 1066 1102 1103
3 1066 1103 1067
3 1067 1103 1104
3 1067 1104 1068
3 1068 1104 1105
3 1068 1105 1069
3 1069 1105 1106
3 1069 1106 1070
3 1070 1106 1107
3 1070 1107 1071
3 1071 1107 1108
3 1071 1108 1072
3 1072 1108 1109
3 1072 1109 1073
3 1073 1109 1110
3 1073 1110 1074
3 1074 1110 1111
3 1074 1111 1075
3 1075 1111 1112
3 1075 1112 1076
3 1076 1112 1113
3 1076 1113 1077
3 1077 1113 1114
3 1077 1114 1078
3 1078 1114 1115
3 1078 1115 1079
3 1079 1115 1116
3 1079 1116 1080
3 1080 1116 1081
3 1080 1081 1045
3 1081 1117 1118
3 1081 1118 1082
3 1082 1118 1119
3 1082 1119 1083
3 1083 1119 1120
3 1083 1120 1084
3 1084 1120 1121
3 1084 1121 1085
3 1085 1121 1122
3 1085 1122 1086
3 1086 1122 1123
3 1086 1123 1087
3 1087 1123 1124
3 1087 1124 1088
3 1088 1124 1125
3 1088 1125 1089
3 1089 1125 1126
3 1089 1126 1090
3 1090 1126 1127
3 1090 1127 1091
3 1091 1127 1128
3 1091 1128 1092
3 1092 1128 1129
3 1092 1129 1093
3 1093 1129 1130
3 1093 1130 1094
3 1094 1130 1131
3 1094 1131 1095
3 1095 1131 1132
3 1095 1132 1096
3 1096 1132 1133
3 1096 1133 1097
3 1097 1133 1134
3 1097 1134 1098
3 1098 1134 1135
3 1098 1135 1099
3 1099 1135 1136
3 1099 1136 1100
3 1100 1136 1137
3 1100 1137 1101
3 1101 1137 1138
3 1101 1138 1102
3 1102 1138 1139
3 1102 1139 1103
3 1103 1139 1140
3 1103 1140 1104
3 1104 1140 1141
3 1104 1141 1105
3 1105 1141 1142
3 1105 1142 1106
3 1106 1142 1143
3 1106 1143 1107
3 1107 1143 1144
3 1107 1144 1108
3 1108 1144 1145
3 1108 1145 1109
3 1109 1145 1146
3 1109 1146 1110
3 1110 1146 1147
3 1110 1147 1111
3 1111 1147 1148
3 1111 1148 1112
3 1112 1148 1149
3 1112 1149 1113
3 1113 1149 1150
3 1113 1150 1114
3 1114 1150 1151
3 1114 1151 1115
3 1115 1151 1152
3 1115 1152 1116
3 1116 1152 1117
3 1116 1117 1081
3 1117 1153 1154
3 1117 1154 1118
3 1118 1154 1155
3 1118 1155 1119
3 1119 1155 1156
3 1119 1156 1120
3 1120 1156 1157
3 1120 1157 1121
3 1121 1157 1158
3 1121 1158 1122
3 1122 1158 1159
3 1122 1159 1123
3 1123 1159 1160
3 1123 1160 1124
3 1124 1160 1161
3 1124 1161 1125
3 1125 1161 1162
3 1125 1162 1126
3 1126 1162 1163
3 1126 1163 1127
3 1127 1163 1164
3 1127 1164 1128
3 1128 1164 1165
3 1128 1165 1129
3 1129 1165 1166
3 1129 1166 1130
3 1130 1166 1167
3 1130 1167 1131
3 1131 1167 1168
3 1131 1168 1132
3 1132 1168 1169
3 1132 1169 1133
3 1133 1169 1170
3 1133 1170 1134
3 1134 1170 1171
3 1134 1171 1135
3 1135 1171 1172
3 1135 1172 1136
3 1136 1172 1173
3 1136 1173 1137
3 1137 1173 1174
3 1137 1174 1138
3 1138 1174 1175
3 1138 1175 1139
3 1139 1175 1176
3 1139 1176 1140
3 1140 1176 1177
3 1140 1177 1141
3 1141 1177 1178
3 1141 1178 1142
3 1142 1178 1179
3 1142 1179 1143
3 1143 1179 1180
3 1143 1180 1144
3 1144 1180 1181
3 1144 1181 1145
3 1145 1181 1182
3 1145 1182 1146
3 1146 1182 1183
3 1146 1183 1147
3 1147 1183 1184
3 1147 1184 1148
3 1148 1184 1185
3 1148 1185 1149
3 1149 1185 1186
3 1149 1186 1150
3 1150 1186 1187
3 1150 1187 1151
3 1151 1187 1188
3 1151 1188 1152
3 1152 1188 1153
3 1152 1153 1117
3 1153 1189 1190
3 1153 1190 1154
3 1154 1190 1191
3 1154 1191 1155
3 1155 1191 1192
3 1155 1192 1156
3 1156 1192 1193
3 1156 1193 1157
3 1157 1193 1194
3 1157 1194 1158
3 1158 1194 1195
3 1158 1195 1159
3 1159 1195 1196
3 1159 1196 1160
3 1160 1196 1197
3 1160 1197 1161
3 1161 1197 1198
3 1161 1198 1162
3 1162 1198 1199
3 1162 1199 1163
3 1163 1199 1200
3 1163 1200 1164
3 1164 1200 1201
3 1164 1201 1165
3 1165 1201 1202
3 1165 1202 1166
3 1166 1202 1203
3 1166 1203 1167
3 1167 1203 1204
3 1167 1204 1168
3 1168 1204 1205
3 1168 1205 1169
3 1169 1205 1206
3 1169 1206 1170
3 1170 1206 1207
3 1170 1207 1171
3 1171 1207 1208
3 1171 1208 1172
3 1172 1208 1209
3 1172 1209 1173
3 1173 1209 1210
3 1173 1210 1174
3 1174 1210 1211
3 1174 1211 1175
3 1175 1211 1212
3 1175 1212 1176
3 1176 1212 1213
3 1176 1213 1177
3 1177 1213 1214
3 1177 1214 1178
3 1178 1214 1215
3 1178 1215 1179
3 1179 1215 1216
3 1179 1216 1180
3 1180 1216 1217
3 1180 1217 1181
3 1181 1217 1218
3 1181 1218 1182
3 1182 1218 1219
3 1182 1219 1183
3 1183 1219 1220
3 1183 1220 1184
3 1184 1220 1221
3 1184 1221 1185
3 1185 1221 1222
3 1185 1222 1186
3 1186 1222 1223
3 1186 1223 1187
3 1187 1223 1224
3 1187 1224 1188
3 1188 1224 1189
3 1188 1189 1153
3 1189 1225 1226
3 1189 1226 1190
3 1190 1226 1227
3 1190 1227 1191
3 1191 1227 1228
3 1191 1228 1192
3 1192 1228 1229
3 1192 1229 1193
3 1193 1229 1230
3 1193 1230 1194
3 1194 1230 1231
3 1194 1231 1195
3 1195 1231 1232
3 1195 1232 1196
3 1196 1232 1233
3 1196 1233 1197
3 1197 1233 1234
3 1197 1234 1198
3 1198 1234 1235
3 1198 1235 1199
3 1199 1235 1236
3 1199 1236 1200
3 1200 1236 1237
3 1200 1237 1201
3 1201 1237 1238
3 1201 1238 1202
3 1202 1238 1239
3 1202 1239 1203
3 1203 1239 1240
3 1203 1240 1204
3 1204 1240 1241
3 1204 1241 1205
3 1205 1241 1242
3 1205 1242 1206
3 1206 1242 1243
3 1206 1243 1207
3 1207 1243 1244
3 1207 1244 1208
3 1208 1244 1245
3 1208 1245 1209
3 1209 1245 1246
3 1209 1246 1210
3 1210 1246 1247
3 1210 1247 1211
3 1211 1247 1248
3 1211 1248 1212
3 1212 1248 1249
3 1212 1249 1213
3 1213 1249 1250
3 1213 1250 1214
3 1214 1250 1251
3 1214 1251 1215
3 1215 1251 1252
3 1215 1252 1216
3 1216 1252 1253
3 1216 1253 1217
3 1217 1253 1254
3 1217 1254 1218
3 1218 1254 1255
3 1218 1255 1219
3 1219 1255 1256
3 1219 1256 1220
3 1220 1256 1257
3 1220 1257 1221
3 1221 1257 1258
3 1221 1258 1222
3 1222 1258 1259
3 1222 1259 1223
3 1223 1259 1260
3 1223 1260 1224
3 1224 1260 1225
3 1224 1225 1189
3 1225 1261 1262
3 1225 1262 1226
3 1226 1262 1263
3 1226 1263 1227
3 1227 1263 1264
3 1227 1264 1228
3 1228 1264 1265
3 1228 1265 1229
3 1229 1265 1266
3 1229 1266 1230
3 1230 1266 1267
3 1230 1267 1231
3 1231 1267 1268
3 1231 1268 1232
3 1232 1268 1269
3 1232 1269 1233
3 1233 1269 1270
3 1233 1270 1234
3 1234 1270 1271
3 1234 1271 1235
3 1235 1271 1272
3 1235 1272 1236
3 1236 1272 1273
3 1236 1273 1237
3 1237 1273 1274
3 1237 1274 1238
3 1238 1274 1275
3 1238 1275 1239
3 1239 1275 1276
3 1239 1276 1240
3 1240 1276 1277
3 1240 1277 1241
3 1241 1277 1278
3 1241 1278 1242
3 1242 1278 1279
3 1242 1279 1243
3 1243 1279 1280
3 1243 1280 1244
3 1244 1280 1281
3 1244 1281 1245
3 1245 1281 1282
3 1245 1282 1246
3 1246 1282 1283
3 1246 1283 1247
3 1247 1283 1284
3 1247 1284 1248
3 1248 1284 1285
3 1248 1285 1249
3 1249 1285 1286
3 1249 1286 1250
3 1250 1286 1287
3 1250 1287 1251
3 1251 1287 1288
3 1251 1288 1252
3 1252 1288 1289
3 1252 1289 1253
3 1253 1289 1290
3 1253 1290 1254
3 1254 1290 1291
3 1254 1291 1255
3 1255 1291 1292
3 1255 1292 1256
3 1256 1292 1293
3 1256 1293 1257
3 1257 1293 1294
3 1257 1294 1258
3 1258 1294 1295
3 1258 1295 1259
3 1259 1295 1296
3 1259 1296 1260
3 1260 1296 1261
3 1260 1261 1225
